    #Input sequence length: 412
#Number of binding residues predicted by HomPRIP: 0
#Number of binding residues predicted by SVM: 73
#Number of binding residues predicted by RNABindRPlus: 43
>Q2FYY9_AF_A
sequence:							M,A,Q,Q,Q,I,H,D,T,K,N,K,L,E,K,A,V,L,V,G,V,H,A,Q,D,D,K,Q,F,N,F,E,S,T,M,E,E,L,S,S,L,S,E,T,C,Q,L,E,V,L,G,Q,I,T,Q,N,R,D,R,V,D,R,K,Y,Y,V,G,K,G,K,I,E,E,I,Q,A,F,I,E,F,K,D,I,D,V,V,I,T,N,D,E,L,T,T,A,Q,S,K,S,L,N,E,A,L,G,V,K,I,I,D,R,T,Q,L,I,L,E,I,F,A,L,R,A,R,S,K,E,G,K,L,Q,V,E,L,A,Q,L,D,Y,L,L,P,R,L,Q,G,H,G,K,S,L,S,R,L,G,G,G,I,G,T,R,G,P,G,E,T,K,L,E,M,D,R,R,H,I,R,T,R,M,N,E,I,K,H,Q,L,R,T,V,E,E,H,R,E,R,Y,R,N,K,R,N,Q,N,Q,V,F,Q,V,A,L,V,G,Y,T,N,A,G,K,S,S,W,F,N,V,L,A,N,E,E,T,Y,E,K,D,Q,L,F,A,T,L,D,P,K,T,R,Q,I,Q,I,N,D,G,F,N,L,I,I,S,D,T,V,G,F,I,Q,K,L,P,T,T,L,I,A,A,F,K,S,T,L,E,E,A,K,G,A,D,L,L,V,H,V,V,D,S,S,H,P,E,Y,R,T,Q,Y,D,T,V,N,D,L,I,K,Q,L,D,M,S,H,I,S,Q,I,V,I,F,N,K,K,D,L,C,D,H,A,S,N,R,P,A,S,D,L,P,N,V,F,V,S,S,K,N,D,G,D,K,L,L,V,K,T,L,F,I,D,E,I,K,R,Q,L,T,Y,Y,D,E,T,I,A,T,N,N,A,D,R,L,Y,F,L,K,Q,H,T,L,V,T,E,L,K,Y,D,E,I,E,N,V,Y,R,I,K,G,F,K,K
Prediction from HomPRIP:			?,?,?,?,?,?,?,?,?,?,?,?,?,?,?,?,?,?,?,?,?,?,?,?,?,?,?,?,?,?,?,?,?,?,?,?,?,?,?,?,?,?,?,?,?,?,?,?,?,?,?,?,?,?,?,?,?,?,?,?,?,?,?,?,?,?,?,?,?,?,?,?,?,?,?,?,?,?,?,?,?,?,?,?,?,?,?,?,?,?,?,?,?,?,?,?,?,?,?,?,?,?,?,?,?,?,?,?,?,?,?,?,?,?,?,?,?,?,?,?,?,?,?,?,?,?,?,?,?,?,?,?,?,?,?,?,?,?,?,?,?,?,?,?,?,?,?,?,?,?,?,?,?,?,?,?,?,?,?,?,?,?,?,?,?,?,?,?,?,?,?,?,?,?,?,?,?,?,?,?,?,?,?,?,?,?,?,?,?,?,?,?,?,?,?,?,?,?,?,?,?,?,?,0,0,0,0,0,0,0,0,0,0,0,0,0,0,0,0,0,0,0,0,0,0,0,0,0,0,0,?,?,?,?,?,?,?,0,0,0,0,0,0,0,0,0,0,0,0,0,0,0,0,0,0,0,0,0,0,0,0,0,0,0,0,0,0,0,0,0,0,0,0,0,0,0,0,0,0,0,0,?,?,?,0,0,0,0,0,0,0,0,0,0,0,0,0,0,0,0,0,0,0,0,0,0,0,0,0,0,0,0,0,0,0,?,?,?,0,0,0,0,0,0,0,0,0,0,0,0,0,0,0,0,0,?,?,?,?,?,?,?,?,?,?,?,?,?,?,?,?,?,?,?,?,?,?,?,?,?,?,?,?,?,?,?,?,?,?,?,?,?,?,?,?,?,?,?,?,?,?,?,?,?,?,?,?,?,?,?,?,?,?,?,?,?,?,?,?,?,?,?,?,?,?,?,?,?,?,?,?,?
Predicted score from HomPRIP:		?,?,?,?,?,?,?,?,?,?,?,?,?,?,?,?,?,?,?,?,?,?,?,?,?,?,?,?,?,?,?,?,?,?,?,?,?,?,?,?,?,?,?,?,?,?,?,?,?,?,?,?,?,?,?,?,?,?,?,?,?,?,?,?,?,?,?,?,?,?,?,?,?,?,?,?,?,?,?,?,?,?,?,?,?,?,?,?,?,?,?,?,?,?,?,?,?,?,?,?,?,?,?,?,?,?,?,?,?,?,?,?,?,?,?,?,?,?,?,?,?,?,?,?,?,?,?,?,?,?,?,?,?,?,?,?,?,?,?,?,?,?,?,?,?,?,?,?,?,?,?,?,?,?,?,?,?,?,?,?,?,?,?,?,?,?,?,?,?,?,?,?,?,?,?,?,?,?,?,?,?,?,?,?,?,?,?,?,?,?,?,?,?,?,?,?,?,?,?,?,?,?,?,0.00,0.00,0.00,0.00,0.00,0.00,0.00,0.00,0.00,0.00,0.00,0.00,0.00,0.00,0.00,0.00,0.00,0.00,0.00,0.00,0.00,0.00,0.00,0.00,0.00,0.00,0.00,?,?,?,?,?,?,?,0.00,0.00,0.00,0.00,0.00,0.00,0.00,0.00,0.00,0.00,0.00,0.00,0.00,0.00,0.00,0.00,0.00,0.00,0.00,0.00,0.00,0.00,0.00,0.00,0.00,0.00,0.00,0.00,0.00,0.00,0.00,0.00,0.00,0.00,0.00,0.00,0.00,0.00,0.00,0.00,0.00,0.00,0.00,0.00,?,?,?,0.00,0.00,0.00,0.00,0.00,0.00,0.00,0.00,0.00,0.00,0.00,0.00,0.00,0.00,0.00,0.00,0.00,0.00,0.00,0.00,0.00,0.00,0.00,0.00,0.00,0.00,0.00,0.00,0.00,0.00,0.00,?,?,?,0.00,0.00,0.00,0.00,0.00,0.00,0.00,0.00,0.00,0.00,0.00,0.00,0.00,0.00,0.00,0.00,0.00,?,?,?,?,?,?,?,?,?,?,?,?,?,?,?,?,?,?,?,?,?,?,?,?,?,?,?,?,?,?,?,?,?,?,?,?,?,?,?,?,?,?,?,?,?,?,?,?,?,?,?,?,?,?,?,?,?,?,?,?,?,?,?,?,?,?,?,?,?,?,?,?,?,?,?,?,?
Prediction from SVM:				0,0,0,0,0,0,0,0,0,0,0,0,0,0,0,0,0,0,0,0,0,0,0,0,0,0,0,0,0,0,0,0,0,0,0,0,0,0,0,0,0,0,0,0,0,0,0,0,0,0,0,0,0,0,0,0,0,0,1,0,0,0,0,1,1,0,0,1,0,0,0,0,0,0,0,0,0,0,0,0,0,0,0,0,0,0,0,0,0,0,0,0,1,1,1,0,0,1,0,0,0,0,0,0,0,0,0,0,0,0,1,0,0,0,0,0,0,0,1,0,1,1,1,1,1,1,1,1,1,0,1,0,0,0,0,0,0,0,0,0,0,0,1,0,0,1,1,0,1,0,1,1,1,1,1,1,1,1,1,1,1,1,1,1,1,1,1,1,1,1,1,1,1,1,1,1,1,1,0,0,0,0,0,0,0,0,0,0,0,0,0,1,1,0,1,1,1,1,1,1,1,0,0,0,0,0,0,0,0,0,0,0,1,1,1,1,1,1,1,1,0,0,0,0,0,0,0,0,0,0,0,0,0,0,0,0,0,0,0,0,0,1,0,0,1,0,0,0,0,0,0,0,0,0,0,0,0,0,0,0,0,0,0,0,0,0,0,0,0,0,0,0,0,0,0,0,0,0,0,0,0,0,0,0,0,0,0,0,0,0,0,0,0,0,0,0,0,0,0,0,0,0,0,0,0,0,0,0,0,0,0,0,0,0,0,0,0,0,0,0,0,0,0,0,0,0,0,0,0,0,0,0,0,0,0,0,0,0,0,0,0,0,0,0,0,0,0,0,0,0,0,0,0,0,0,0,0,0,0,0,0,0,0,0,0,0,0,0,0,0,0,0,0,0,0,0,0,0,0,0,0,0,0,0,0,0,0,0,0,0,0,0,0,0,0,0,0,0,0,0,0,0,0,0,0,0,0,0,0,1,0,1
Predicted score from SVM:			0.00,0.00,0.00,0.00,0.00,0.00,0.00,0.00,0.00,0.00,0.01,0.02,0.03,0.00,0.15,0.01,0.01,0.01,0.03,0.04,0.01,0.11,0.01,0.00,0.00,0.00,0.00,0.00,0.00,0.00,0.00,0.00,0.00,0.00,0.00,0.00,0.01,0.00,0.00,0.00,0.00,0.00,0.01,0.02,0.00,0.01,0.00,0.01,0.00,0.00,0.01,0.04,0.05,0.02,0.39,0.49,0.27,0.18,0.51,0.25,0.24,0.31,0.48,0.58,0.53,0.46,0.46,0.64,0.48,0.39,0.01,0.03,0.00,0.00,0.00,0.00,0.00,0.00,0.00,0.00,0.00,0.00,0.00,0.00,0.00,0.00,0.00,0.00,0.04,0.06,0.28,0.35,0.51,0.60,0.80,0.47,0.04,0.58,0.09,0.00,0.00,0.01,0.01,0.00,0.00,0.00,0.12,0.01,0.01,0.13,0.53,0.22,0.30,0.43,0.34,0.08,0.39,0.19,0.70,0.42,0.95,1.00,0.76,0.99,0.95,1.00,0.63,0.92,0.99,0.22,0.97,0.23,0.22,0.01,0.04,0.26,0.00,0.01,0.19,0.01,0.00,0.35,0.99,0.03,0.30,0.81,0.80,0.23,0.65,0.39,0.57,0.99,1.00,0.97,0.63,0.99,0.99,0.94,0.99,1.00,1.00,0.98,1.00,0.98,0.98,1.00,0.98,0.83,0.85,0.97,0.97,0.99,0.98,1.00,0.62,0.97,0.94,0.85,0.02,0.21,0.26,0.03,0.14,0.30,0.17,0.01,0.05,0.02,0.04,0.03,0.12,0.92,0.97,0.38,0.76,0.78,0.93,0.60,0.95,0.89,0.60,0.44,0.45,0.13,0.06,0.03,0.27,0.02,0.10,0.08,0.26,0.41,0.84,0.99,0.99,0.88,0.98,0.96,0.79,0.96,0.02,0.01,0.21,0.03,0.00,0.00,0.00,0.00,0.00,0.00,0.00,0.00,0.00,0.00,0.00,0.00,0.09,0.04,0.35,0.05,0.34,0.52,0.06,0.06,0.62,0.05,0.00,0.02,0.00,0.01,0.00,0.01,0.01,0.01,0.00,0.01,0.00,0.02,0.04,0.03,0.02,0.02,0.04,0.00,0.01,0.03,0.00,0.00,0.01,0.00,0.00,0.00,0.00,0.04,0.07,0.14,0.04,0.06,0.01,0.02,0.02,0.00,0.02,0.00,0.00,0.03,0.00,0.00,0.00,0.07,0.01,0.04,0.12,0.04,0.11,0.01,0.03,0.09,0.08,0.00,0.01,0.01,0.00,0.00,0.00,0.00,0.00,0.00,0.00,0.00,0.00,0.00,0.00,0.00,0.00,0.00,0.01,0.00,0.03,0.02,0.03,0.23,0.07,0.37,0.48,0.33,0.04,0.00,0.00,0.00,0.00,0.00,0.00,0.00,0.00,0.00,0.00,0.00,0.00,0.00,0.01,0.00,0.00,0.00,0.01,0.00,0.05,0.01,0.06,0.01,0.01,0.02,0.00,0.01,0.02,0.10,0.00,0.01,0.01,0.00,0.00,0.00,0.00,0.00,0.00,0.00,0.00,0.00,0.00,0.00,0.00,0.00,0.00,0.00,0.00,0.00,0.01,0.00,0.03,0.09,0.03,0.11,0.01,0.01,0.04,0.01,0.01,0.07,0.13,0.01,0.02,0.00,0.00,0.00,0.01,0.00,0.00,0.00,0.00,0.00,0.00,0.01,0.00,0.00,0.00,0.00,0.00,0.13,0.05,0.95,0.14,0.98
Prediction from RNABindRPlus:		0,0,0,0,0,0,0,0,0,0,0,0,0,0,0,0,0,0,0,0,0,0,0,0,0,0,0,0,0,0,0,0,0,0,0,0,0,0,0,0,0,0,0,0,0,0,0,0,0,0,0,0,0,0,0,0,0,0,0,0,0,0,0,0,0,0,0,0,0,0,0,0,0,0,0,0,0,0,0,0,0,0,0,0,0,0,0,0,0,0,0,0,0,0,0,0,0,0,0,0,0,0,0,0,0,0,0,0,0,0,0,0,0,0,0,0,0,0,0,0,1,1,0,1,1,1,0,1,1,0,1,0,0,0,0,0,0,0,0,0,0,0,1,0,0,0,0,0,0,0,0,1,1,1,0,1,1,1,1,1,1,1,1,1,1,1,1,0,1,1,1,1,1,1,0,1,1,1,0,0,0,0,0,0,0,0,0,0,0,0,0,1,1,0,0,0,1,0,1,1,0,0,0,0,0,0,0,0,0,0,0,0,0,1,1,0,1,0,0,0,0,0,0,0,0,0,0,0,0,0,0,0,0,0,0,0,0,0,0,0,0,0,0,0,0,0,0,0,0,0,0,0,0,0,0,0,0,0,0,0,0,0,0,0,0,0,0,0,0,0,0,0,0,0,0,0,0,0,0,0,0,0,0,0,0,0,0,0,0,0,0,0,0,0,0,0,0,0,0,0,0,0,0,0,0,0,0,0,0,0,0,0,0,0,0,0,0,0,0,0,0,0,0,0,0,0,0,0,0,0,0,0,0,0,0,0,0,0,0,0,0,0,0,0,0,0,0,0,0,0,0,0,0,0,0,0,0,0,0,0,0,0,0,0,0,0,0,0,0,0,0,0,0,0,0,0,0,0,0,0,0,0,0,0,0,0,0,0,0,0,0,0,0,0,0,0,0,0,0,0,0,0,0,0,0,0,0,0,0,1,0,1
Predicted score from RNABindRPlus:	0.01,0.01,0.01,0.01,0.01,0.01,0.01,0.01,0.01,0.01,0.01,0.01,0.01,0.01,0.02,0.01,0.01,0.01,0.01,0.01,0.01,0.02,0.01,0.01,0.01,0.01,0.01,0.01,0.01,0.01,0.01,0.01,0.01,0.01,0.01,0.01,0.01,0.01,0.01,0.01,0.01,0.01,0.01,0.01,0.01,0.01,0.01,0.01,0.01,0.01,0.01,0.01,0.01,0.01,0.07,0.12,0.04,0.02,0.13,0.04,0.03,0.05,0.11,0.19,0.15,0.10,0.10,0.24,0.11,0.07,0.01,0.01,0.01,0.01,0.01,0.01,0.01,0.01,0.01,0.01,0.01,0.01,0.01,0.01,0.01,0.01,0.01,0.01,0.01,0.01,0.04,0.06,0.13,0.20,0.43,0.11,0.01,0.19,0.02,0.01,0.01,0.01,0.01,0.01,0.01,0.01,0.02,0.01,0.01,0.02,0.15,0.03,0.05,0.09,0.06,0.01,0.07,0.03,0.31,0.09,0.64,0.70,0.38,0.69,0.64,0.70,0.23,0.60,0.69,0.03,0.66,0.03,0.03,0.01,0.01,0.04,0.01,0.01,0.03,0.01,0.01,0.06,0.69,0.01,0.05,0.45,0.43,0.03,0.25,0.07,0.18,0.69,0.70,0.66,0.23,0.69,0.69,0.62,0.69,0.70,0.70,0.68,0.70,0.68,0.68,0.70,0.68,0.47,0.50,0.66,0.66,0.69,0.68,0.70,0.22,0.66,0.62,0.50,0.01,0.03,0.04,0.01,0.02,0.05,0.02,0.01,0.01,0.01,0.01,0.01,0.02,0.60,0.66,0.07,0.38,0.41,0.61,0.20,0.64,0.56,0.20,0.09,0.10,0.01,0.01,0.01,0.02,0.01,0.01,0.01,0.02,0.04,0.32,0.52,0.52,0.37,0.51,0.48,0.26,0.48,0.01,0.01,0.01,0.01,0.01,0.01,0.01,0.01,0.01,0.01,0.01,0.01,0.01,0.01,0.01,0.01,0.02,0.01,0.03,0.01,0.03,0.07,0.01,0.01,0.12,0.01,0.01,0.01,0.01,0.01,0.01,0.01,0.01,0.01,0.01,0.01,0.01,0.01,0.01,0.01,0.01,0.01,0.01,0.01,0.01,0.01,0.01,0.01,0.01,0.01,0.01,0.01,0.01,0.01,0.01,0.01,0.01,0.01,0.01,0.01,0.01,0.01,0.01,0.01,0.01,0.01,0.01,0.01,0.01,0.01,0.01,0.01,0.01,0.01,0.01,0.01,0.01,0.01,0.01,0.01,0.01,0.01,0.01,0.01,0.01,0.01,0.01,0.01,0.01,0.01,0.01,0.01,0.01,0.01,0.01,0.01,0.01,0.01,0.01,0.01,0.01,0.02,0.01,0.03,0.06,0.03,0.01,0.01,0.01,0.01,0.01,0.01,0.01,0.01,0.01,0.01,0.01,0.01,0.01,0.01,0.01,0.01,0.01,0.01,0.01,0.01,0.01,0.01,0.01,0.01,0.01,0.01,0.01,0.01,0.01,0.02,0.01,0.01,0.01,0.01,0.01,0.01,0.01,0.01,0.01,0.01,0.01,0.01,0.01,0.01,0.01,0.01,0.01,0.01,0.01,0.01,0.01,0.01,0.01,0.02,0.01,0.02,0.01,0.01,0.01,0.01,0.01,0.01,0.02,0.01,0.01,0.01,0.01,0.01,0.01,0.01,0.01,0.01,0.01,0.01,0.01,0.01,0.01,0.01,0.01,0.01,0.01,0.02,0.01,0.64,0.02,0.68
    #Input sequence length: 311
#Number of binding residues predicted by HomPRIP: 61
#Number of binding residues predicted by SVM: 47
#Number of binding residues predicted by RNABindRPlus: 42
>Q2FYZ2_AF_A
sequence:							M,N,K,N,K,P,F,I,V,V,I,V,G,P,T,A,S,G,K,T,E,L,S,I,E,L,A,K,R,I,N,G,E,I,I,S,G,D,S,M,Q,V,Y,K,H,M,N,I,G,T,A,K,V,T,P,E,E,M,D,G,I,P,H,H,L,I,D,I,L,N,P,D,D,T,F,S,A,Y,E,F,K,R,L,A,E,D,L,I,T,D,I,T,N,R,G,K,V,P,I,I,A,G,G,T,G,L,Y,I,Q,S,L,I,Y,N,Y,E,L,E,D,E,T,V,T,P,A,Q,L,S,I,V,K,Q,K,L,S,A,L,E,H,L,D,N,Q,Q,L,H,D,Y,L,A,Q,F,D,A,V,S,A,E,N,I,H,P,N,N,R,Q,R,V,L,R,A,I,E,Y,Y,L,K,T,K,K,L,L,S,N,R,K,K,V,Q,Q,F,T,E,N,Y,D,T,L,L,L,G,I,E,M,S,R,K,T,L,Y,S,R,I,N,K,R,V,D,I,M,L,D,H,G,L,F,R,E,V,Q,Q,L,V,E,Q,G,Y,E,S,C,Q,S,M,Q,A,I,G,Y,K,E,L,I,P,V,I,N,G,Q,M,I,Y,E,D,A,V,N,D,L,K,Q,H,S,R,Q,Y,A,K,R,Q,M,T,W,F,K,N,K,M,S,V,H,W,L,D,K,E,N,M,S,L,Q,M,M,L,D,E,I,T,T,Q,I,K
Prediction from HomPRIP:			?,?,?,?,?,0,0,0,0,0,0,0,0,0,0,0,0,0,0,0,0,0,0,0,0,0,0,0,0,0,0,0,0,0,0,0,0,1,1,1,1,0,1,0,0,0,0,0,1,1,0,0,0,0,0,0,0,0,0,0,0,0,0,0,0,0,0,0,0,0,0,0,0,1,1,1,1,1,0,0,0,0,0,0,0,0,0,0,0,0,0,0,0,0,0,0,0,0,0,0,0,0,1,1,1,1,1,0,0,0,0,?,?,?,?,?,0,0,0,1,1,1,1,1,1,1,0,0,0,0,1,0,0,0,0,0,0,0,0,?,0,0,0,0,0,0,0,0,0,0,0,0,0,0,0,0,0,0,1,0,1,0,1,1,1,1,1,0,1,1,0,0,0,0,0,0,0,0,0,0,0,0,0,0,0,1,0,0,0,0,0,0,0,0,0,0,0,0,0,0,0,0,0,1,1,1,0,0,0,1,0,0,0,0,0,0,0,0,0,0,0,0,0,0,0,0,0,0,0,0,0,0,0,0,0,0,0,0,1,0,1,0,0,1,1,1,0,0,0,0,0,0,0,0,0,0,0,0,0,0,0,0,0,0,0,1,0,0,0,1,0,0,1,1,1,0,1,1,1,1,1,1,1,1,1,1,0,0,1,0,1,0,0,0,0,0,?,?,?,?,?,?,?,?,?,?,?,?,?,?,?
Predicted score from HomPRIP:		?,?,?,?,?,0.00,0.00,0.00,0.00,0.00,0.00,0.00,0.00,0.00,0.00,0.00,0.00,0.00,0.00,0.00,0.00,0.00,0.00,0.00,0.00,0.00,0.00,0.00,0.00,0.00,0.00,0.00,0.00,0.00,0.00,0.00,0.00,1.00,1.00,1.00,1.00,0.00,0.67,0.00,0.00,0.00,0.00,0.00,1.00,1.00,0.17,0.00,0.00,0.00,0.00,0.00,0.00,0.00,0.00,0.00,0.00,0.00,0.00,0.00,0.00,0.00,0.00,0.00,0.00,0.00,0.00,0.00,0.00,1.00,1.00,1.00,1.00,1.00,0.00,0.00,0.00,0.00,0.00,0.00,0.00,0.00,0.00,0.00,0.00,0.00,0.00,0.00,0.00,0.00,0.00,0.00,0.00,0.00,0.00,0.00,0.00,0.00,1.00,1.00,1.00,1.00,1.00,0.00,0.17,0.00,0.00,?,?,?,?,?,0.00,0.00,0.00,1.00,1.00,1.00,1.00,1.00,1.00,1.00,0.00,0.00,0.00,0.00,1.00,0.00,0.00,0.00,0.33,0.00,0.00,0.00,0.00,?,0.00,0.00,0.00,0.00,0.00,0.00,0.00,0.00,0.00,0.00,0.00,0.00,0.00,0.00,0.00,0.00,0.00,0.00,1.00,0.17,1.00,0.00,1.00,1.00,1.00,1.00,1.00,0.00,1.00,1.00,0.00,0.00,0.00,0.00,0.00,0.00,0.00,0.00,0.00,0.00,0.00,0.33,0.00,0.00,0.00,1.00,0.00,0.00,0.00,0.00,0.00,0.00,0.00,0.00,0.00,0.00,0.00,0.00,0.00,0.00,0.00,0.00,0.00,0.50,0.50,1.00,0.33,0.00,0.00,1.00,0.00,0.00,0.00,0.00,0.33,0.00,0.00,0.00,0.33,0.00,0.00,0.00,0.00,0.00,0.00,0.00,0.00,0.00,0.00,0.00,0.00,0.00,0.00,0.00,0.00,0.00,0.00,0.00,1.00,0.00,1.00,0.00,0.00,1.00,1.00,1.00,0.00,0.17,0.33,0.00,0.00,0.00,0.00,0.00,0.00,0.00,0.00,0.00,0.00,0.00,0.00,0.00,0.00,0.00,0.00,1.00,0.17,0.00,0.00,1.00,0.00,0.00,1.00,1.00,1.00,0.00,1.00,1.00,0.50,0.50,1.00,1.00,0.50,1.00,0.50,0.50,0.17,0.00,0.50,0.00,0.50,0.00,0.00,0.00,0.00,0.33,?,?,?,?,?,?,?,?,?,?,?,?,?,?,?
Prediction from SVM:				0,0,0,0,0,0,0,0,0,0,0,0,0,0,0,0,0,0,0,0,0,0,0,0,0,0,0,0,0,0,0,0,0,0,0,0,0,1,1,1,1,0,1,0,0,0,0,1,1,1,1,1,0,0,0,0,0,0,0,0,0,0,0,0,0,0,0,0,0,0,0,0,0,1,1,1,1,1,0,0,0,0,0,0,0,0,0,0,0,0,0,0,0,0,0,0,0,0,0,0,0,0,1,1,1,1,1,0,0,0,0,0,0,0,0,0,0,0,0,0,0,0,0,0,0,0,0,0,0,0,0,0,0,0,0,0,0,0,0,0,0,0,0,0,0,0,0,0,0,0,0,0,0,0,0,0,0,0,1,0,1,0,1,1,0,1,1,0,1,1,1,0,0,0,0,0,0,0,0,0,0,0,0,0,0,1,0,0,0,0,0,0,0,0,0,0,0,0,0,0,0,0,0,0,0,0,0,0,0,0,0,0,0,0,0,0,0,0,0,0,0,0,0,0,0,0,0,0,0,0,0,0,0,0,0,0,0,0,0,0,0,0,0,1,1,1,0,0,1,0,0,0,0,0,0,0,0,0,0,0,0,0,0,0,0,0,0,0,0,1,1,1,1,1,1,1,1,1,1,0,1,1,0,1,0,0,0,0,0,0,0,0,0,0,0,0,0,0,0,0,0,0,0,0,0,0,0,0,0,0,0
Predicted score from SVM:			0.00,0.00,0.00,0.00,0.00,0.00,0.00,0.00,0.00,0.00,0.01,0.02,0.10,0.29,0.35,0.33,0.14,0.18,0.17,0.10,0.03,0.01,0.02,0.02,0.01,0.00,0.02,0.04,0.01,0.00,0.00,0.01,0.01,0.01,0.09,0.16,0.07,1.00,1.00,1.00,1.00,0.08,1.00,0.47,0.19,0.09,0.18,0.52,1.00,1.00,0.93,0.74,0.03,0.28,0.05,0.05,0.03,0.06,0.04,0.16,0.09,0.12,0.10,0.09,0.01,0.00,0.03,0.00,0.01,0.00,0.00,0.01,0.01,0.68,0.82,0.87,0.75,0.84,0.02,0.01,0.04,0.01,0.02,0.01,0.12,0.07,0.02,0.01,0.02,0.03,0.01,0.05,0.03,0.05,0.01,0.05,0.00,0.03,0.01,0.02,0.01,0.04,0.99,0.99,0.98,0.97,0.95,0.01,0.10,0.01,0.00,0.00,0.01,0.01,0.00,0.00,0.01,0.00,0.00,0.00,0.00,0.00,0.00,0.00,0.00,0.00,0.00,0.00,0.00,0.00,0.00,0.00,0.00,0.00,0.00,0.00,0.00,0.00,0.00,0.01,0.01,0.01,0.01,0.00,0.00,0.01,0.00,0.01,0.01,0.01,0.00,0.00,0.00,0.00,0.00,0.01,0.01,0.00,0.98,0.15,1.00,0.01,1.00,0.99,0.47,1.00,1.00,0.03,0.98,1.00,0.74,0.02,0.34,0.25,0.04,0.01,0.09,0.04,0.04,0.03,0.09,0.32,0.02,0.02,0.03,0.59,0.00,0.00,0.01,0.00,0.01,0.01,0.00,0.01,0.00,0.00,0.00,0.00,0.00,0.00,0.00,0.01,0.01,0.01,0.03,0.18,0.07,0.02,0.01,0.02,0.01,0.02,0.03,0.04,0.03,0.03,0.00,0.01,0.00,0.01,0.00,0.01,0.00,0.01,0.01,0.00,0.01,0.02,0.01,0.01,0.03,0.02,0.01,0.00,0.06,0.04,0.01,0.07,0.11,0.10,0.10,0.25,0.15,0.93,0.72,0.94,0.33,0.33,1.00,0.02,0.00,0.00,0.00,0.00,0.00,0.00,0.00,0.01,0.00,0.01,0.01,0.00,0.01,0.01,0.01,0.25,0.18,0.14,0.36,1.00,0.94,0.58,1.00,1.00,1.00,0.69,1.00,1.00,1.00,0.14,1.00,1.00,0.10,0.99,0.18,0.04,0.03,0.04,0.01,0.01,0.01,0.01,0.00,0.01,0.01,0.01,0.01,0.01,0.00,0.01,0.00,0.00,0.00,0.00,0.00,0.00,0.00,0.00,0.00,0.00,0.00
Prediction from RNABindRPlus:		0,0,0,0,0,0,0,0,0,0,0,0,0,0,0,0,0,0,0,0,0,0,0,0,0,0,0,0,0,0,0,0,0,0,0,0,0,1,1,1,1,0,1,0,0,0,0,0,1,1,1,0,0,0,0,0,0,0,0,0,0,0,0,0,0,0,0,0,0,0,0,0,0,1,1,1,1,1,0,0,0,0,0,0,0,0,0,0,0,0,0,0,0,0,0,0,0,0,0,0,0,0,1,1,1,1,1,0,0,0,0,0,0,0,0,0,0,0,0,0,0,0,0,0,0,0,0,0,0,0,0,0,0,0,0,0,0,0,0,0,0,0,0,0,0,0,0,0,0,0,0,0,0,0,0,0,0,0,1,0,1,0,1,1,1,1,1,0,1,1,0,0,0,0,0,0,0,0,0,0,0,0,0,0,0,1,0,0,0,0,0,0,0,0,0,0,0,0,0,0,0,0,0,0,0,0,0,0,0,0,0,0,0,0,0,0,0,0,0,0,0,0,0,0,0,0,0,0,0,0,0,0,0,0,0,0,0,0,0,0,0,0,0,1,1,1,0,0,1,0,0,0,0,0,0,0,0,0,0,0,0,0,0,0,0,0,0,0,0,1,0,0,1,1,1,0,1,1,1,0,1,1,0,1,0,0,0,0,0,0,0,0,0,0,0,0,0,0,0,0,0,0,0,0,0,0,0,0,0,0,0
Predicted score from RNABindRPlus:	0.01,0.01,0.01,0.01,0.01,0.01,0.01,0.01,0.01,0.01,0.01,0.01,0.01,0.02,0.03,0.03,0.01,0.01,0.01,0.01,0.01,0.01,0.01,0.01,0.01,0.01,0.01,0.01,0.01,0.01,0.01,0.01,0.01,0.01,0.01,0.01,0.01,0.98,0.98,0.98,0.98,0.01,0.93,0.06,0.01,0.01,0.01,0.07,0.98,0.98,0.59,0.21,0.01,0.02,0.01,0.01,0.01,0.01,0.01,0.01,0.01,0.01,0.01,0.01,0.01,0.01,0.01,0.01,0.01,0.01,0.01,0.01,0.01,0.88,0.94,0.95,0.92,0.95,0.01,0.01,0.01,0.01,0.01,0.01,0.01,0.01,0.01,0.01,0.01,0.01,0.01,0.01,0.01,0.01,0.01,0.01,0.01,0.01,0.01,0.01,0.01,0.01,0.98,0.98,0.97,0.97,0.97,0.01,0.01,0.01,0.01,0.01,0.01,0.01,0.01,0.01,0.01,0.01,0.01,0.15,0.15,0.15,0.15,0.15,0.15,0.15,0.01,0.01,0.01,0.01,0.15,0.01,0.01,0.01,0.02,0.01,0.01,0.01,0.01,0.01,0.01,0.01,0.01,0.01,0.01,0.01,0.01,0.01,0.01,0.01,0.01,0.01,0.01,0.01,0.01,0.01,0.01,0.01,0.97,0.02,0.98,0.01,0.98,0.98,0.70,0.98,0.98,0.01,0.97,0.98,0.21,0.01,0.03,0.02,0.01,0.01,0.01,0.01,0.01,0.01,0.01,0.08,0.01,0.01,0.01,0.82,0.01,0.01,0.01,0.01,0.01,0.01,0.01,0.01,0.01,0.01,0.01,0.01,0.01,0.01,0.01,0.01,0.01,0.03,0.03,0.32,0.02,0.01,0.01,0.16,0.01,0.01,0.01,0.01,0.02,0.01,0.01,0.01,0.02,0.01,0.01,0.01,0.01,0.01,0.01,0.01,0.01,0.01,0.01,0.01,0.01,0.01,0.01,0.01,0.01,0.01,0.01,0.01,0.24,0.01,0.23,0.02,0.01,0.97,0.90,0.97,0.03,0.05,0.79,0.01,0.01,0.01,0.01,0.01,0.01,0.01,0.01,0.01,0.01,0.01,0.01,0.01,0.01,0.01,0.01,0.41,0.02,0.01,0.03,0.98,0.45,0.10,0.98,0.98,0.98,0.17,0.98,0.98,0.88,0.06,0.98,0.98,0.05,0.98,0.07,0.03,0.01,0.01,0.03,0.01,0.03,0.01,0.01,0.01,0.01,0.02,0.01,0.01,0.01,0.01,0.01,0.01,0.01,0.01,0.01,0.01,0.01,0.01,0.01,0.01,0.01
    #Input sequence length: 514
#Number of binding residues predicted by HomPRIP: 0
#Number of binding residues predicted by SVM: 101
#Number of binding residues predicted by RNABindRPlus: 37
>Q2FZ02_AF_A
sequence:							M,N,E,E,Q,R,K,A,S,S,V,D,V,L,A,E,R,D,K,K,A,E,K,D,Y,S,K,Y,F,E,H,V,Y,Q,P,P,N,L,K,E,A,K,K,R,G,K,Q,E,V,R,Y,N,R,D,F,Q,I,D,E,K,Y,R,G,M,G,N,E,R,T,F,L,I,K,T,Y,G,C,Q,M,N,A,H,D,T,E,V,I,A,G,I,L,E,A,L,G,Y,Q,A,T,T,D,I,N,T,A,D,V,I,L,I,N,T,C,A,I,R,E,N,A,E,N,K,V,F,S,E,I,G,N,L,K,H,L,K,K,E,R,P,D,I,L,I,G,V,C,G,C,M,S,Q,E,E,S,V,V,N,K,I,L,K,S,Y,Q,N,V,D,M,I,F,G,T,H,N,I,H,H,L,P,E,I,L,E,E,A,Y,L,S,K,A,M,V,V,E,V,W,S,K,E,G,D,V,I,E,N,L,P,K,V,R,E,G,N,I,K,A,W,V,N,I,M,Y,G,C,D,K,F,C,T,Y,C,I,V,P,F,T,R,G,K,E,R,S,R,R,P,E,D,I,I,D,E,V,R,E,L,A,R,E,G,Y,K,E,I,T,L,L,G,Q,N,V,N,S,Y,G,K,D,L,Q,D,I,E,Y,D,L,G,D,L,L,Q,A,I,S,K,I,A,I,P,R,V,R,F,T,T,S,H,P,W,D,F,T,D,H,M,I,D,V,I,S,E,G,G,N,I,V,P,H,I,H,L,P,V,Q,S,G,N,N,A,V,L,K,I,M,G,R,K,Y,T,R,E,S,Y,L,D,L,V,K,R,I,K,D,R,I,P,N,V,A,L,T,T,D,I,I,V,G,Y,P,N,E,S,E,E,Q,F,E,E,T,L,T,L,Y,D,E,V,G,F,E,H,A,Y,T,Y,L,Y,S,Q,R,D,G,T,P,A,A,K,M,K,D,N,V,P,L,N,V,K,K,E,R,L,Q,R,L,N,K,K,V,G,H,Y,S,Q,I,A,M,S,K,Y,E,G,Q,T,V,T,V,L,C,E,G,S,S,K,K,D,D,Q,V,L,A,G,Y,T,D,K,N,K,L,V,N,F,K,A,P,K,E,M,I,G,K,L,V,E,V,R,I,D,E,A,K,Q,Y,S,L,N,G,S,F,I,K,E,V,E,P,E,M,V,I,Q
Prediction from HomPRIP:			??????????????????????????????????????????????????????????????????????????????????????????????????????????????????????????????????????????????????????????????????????????????????????????????????????????????????????????????????????????????????????????????????????????????????????????????????????????????????????????????????????????????????????????????????????????????????????????????????????????????????????????????????????????????????????????????????????????????????????????????????????????????????????????????????
Predicted score from HomPRIP:		?,?,?,?,?,?,?,?,?,?,?,?,?,?,?,?,?,?,?,?,?,?,?,?,?,?,?,?,?,?,?,?,?,?,?,?,?,?,?,?,?,?,?,?,?,?,?,?,?,?,?,?,?,?,?,?,?,?,?,?,?,?,?,?,?,?,?,?,?,?,?,?,?,?,?,?,?,?,?,?,?,?,?,?,?,?,?,?,?,?,?,?,?,?,?,?,?,?,?,?,?,?,?,?,?,?,?,?,?,?,?,?,?,?,?,?,?,?,?,?,?,?,?,?,?,?,?,?,?,?,?,?,?,?,?,?,?,?,?,?,?,?,?,?,?,?,?,?,?,?,?,?,?,?,?,?,?,?,?,?,?,?,?,?,?,?,?,?,?,?,?,?,?,?,?,?,?,?,?,?,?,?,?,?,?,?,?,?,?,?,?,?,?,?,?,?,?,?,?,?,?,?,?,?,?,?,?,?,?,?,?,?,?,?,?,?,?,?,?,?,?,?,?,?,?,?,?,?,?,?,?,?,?,?,?,?,?,?,?,?,?,?,?,?,?,?,?,?,?,?,?,?,?,?,?,?,?,?,?,?,?,?,?,?,?,?,?,?,?,?,?,?,?,?,?,?,?,?,?,?,?,?,?,?,?,?,?,?,?,?,?,?,?,?,?,?,?,?,?,?,?,?,?,?,?,?,?,?,?,?,?,?,?,?,?,?,?,?,?,?,?,?,?,?,?,?,?,?,?,?,?,?,?,?,?,?,?,?,?,?,?,?,?,?,?,?,?,?,?,?,?,?,?,?,?,?,?,?,?,?,?,?,?,?,?,?,?,?,?,?,?,?,?,?,?,?,?,?,?,?,?,?,?,?,?,?,?,?,?,?,?,?,?,?,?,?,?,?,?,?,?,?,?,?,?,?,?,?,?,?,?,?,?,?,?,?,?,?,?,?,?,?,?,?,?,?,?,?,?,?,?,?,?,?,?,?,?,?,?,?,?,?,?,?,?,?,?,?,?,?,?,?,?,?,?,?,?,?,?,?,?,?,?,?,?,?,?,?,?,?,?,?,?,?,?,?,?,?,?,?,?,?,?,?,?,?,?,?,?,?,?,?,?,?,?,?,?,?,?,?,?,?,?,?,?,?,?,?,?,?,?,?,?,?
Prediction from SVM:				0,0,0,0,0,0,0,0,0,0,0,0,0,0,0,0,0,0,0,0,0,0,0,0,0,0,0,0,0,0,0,0,0,0,0,0,0,0,0,0,0,0,0,0,0,0,0,0,0,0,0,0,0,0,0,0,0,0,0,0,0,0,0,0,0,0,0,0,0,0,0,0,1,1,1,1,1,1,0,1,0,1,0,0,0,0,0,0,0,0,0,0,0,0,0,0,0,0,0,0,0,0,0,0,0,0,0,0,0,0,0,1,0,0,0,1,0,0,0,0,0,1,0,1,1,1,0,1,1,0,1,1,0,1,1,1,0,0,0,0,0,0,0,0,0,1,1,0,0,1,0,0,0,0,0,0,0,0,0,0,0,0,0,0,0,0,0,0,0,0,0,1,1,0,0,0,0,0,0,0,0,0,0,0,0,0,0,0,0,0,0,0,0,0,0,0,0,0,0,0,0,0,0,0,0,0,0,0,0,0,0,0,0,1,1,0,0,1,1,0,1,1,1,1,1,1,1,1,1,1,0,1,1,1,1,1,1,1,1,1,1,1,1,0,0,0,0,0,0,0,0,0,0,0,0,0,0,0,0,0,0,0,0,0,0,0,1,1,0,0,0,1,0,0,0,0,0,0,0,0,0,0,0,0,0,0,0,0,0,0,0,0,0,0,0,0,1,0,1,1,1,1,1,1,1,1,1,0,0,0,0,0,0,0,0,0,0,0,0,0,0,0,0,0,0,0,0,0,0,0,1,1,1,1,1,1,0,1,1,1,1,1,1,1,1,1,1,1,1,1,0,0,0,0,0,0,0,0,0,0,0,0,0,0,0,0,0,0,0,0,0,0,0,0,0,0,0,0,0,0,0,0,0,0,0,0,0,0,0,0,0,0,0,0,0,0,0,0,0,1,0,1,1,1,1,1,1,1,1,0,0,0,0,0,0,0,0,0,0,0,0,0,0,0,0,0,0,1,0,0,0,0,0,0,0,0,0,0,0,0,0,0,0,0,0,0,0,0,0,0,0,0,0,0,0,0,0,0,0,0,0,0,0,0,0,1,1,0,1,1,1,1,0,0,0,0,0,0,0,0,0,0,0,0,0,0,0,0,0,0,0,0,0,0,1,0,0,0,0,0,0,0,0,0,0,0,0,0,0,0,0,0,0,0
Predicted score from SVM:			0.00,0.01,0.00,0.00,0.00,0.00,0.00,0.00,0.00,0.00,0.00,0.00,0.00,0.00,0.00,0.00,0.00,0.00,0.00,0.01,0.00,0.00,0.15,0.01,0.01,0.00,0.01,0.00,0.00,0.00,0.00,0.00,0.00,0.00,0.00,0.02,0.01,0.01,0.02,0.01,0.01,0.05,0.04,0.07,0.02,0.05,0.02,0.01,0.00,0.00,0.00,0.00,0.00,0.00,0.00,0.00,0.00,0.00,0.00,0.01,0.01,0.01,0.02,0.00,0.05,0.11,0.19,0.03,0.20,0.20,0.08,0.04,0.69,0.53,0.89,0.71,0.74,0.95,0.49,0.64,0.04,0.65,0.06,0.03,0.03,0.15,0.00,0.02,0.03,0.00,0.00,0.03,0.03,0.00,0.01,0.03,0.01,0.00,0.00,0.00,0.00,0.00,0.00,0.00,0.00,0.00,0.00,0.01,0.00,0.00,0.10,0.56,0.49,0.39,0.37,0.70,0.44,0.38,0.13,0.27,0.43,0.93,0.12,0.66,0.84,0.86,0.27,0.95,0.96,0.28,0.89,0.94,0.39,0.56,0.54,0.56,0.17,0.11,0.12,0.01,0.01,0.01,0.06,0.02,0.22,0.78,0.89,0.22,0.10,0.61,0.06,0.01,0.04,0.01,0.01,0.01,0.08,0.01,0.08,0.08,0.27,0.07,0.21,0.13,0.01,0.12,0.04,0.11,0.41,0.27,0.30,0.59,0.69,0.09,0.20,0.17,0.00,0.00,0.02,0.01,0.00,0.00,0.01,0.00,0.01,0.00,0.00,0.01,0.00,0.03,0.00,0.00,0.01,0.00,0.01,0.00,0.02,0.01,0.01,0.01,0.01,0.00,0.02,0.02,0.03,0.13,0.46,0.25,0.34,0.25,0.27,0.47,0.19,0.50,0.56,0.45,0.21,0.62,0.50,0.25,0.81,0.55,0.53,0.57,0.72,0.74,0.53,0.58,0.81,0.87,0.21,0.79,0.88,1.00,0.94,1.00,0.99,1.00,0.95,1.00,0.88,0.97,0.72,0.28,0.33,0.12,0.02,0.00,0.01,0.01,0.00,0.02,0.00,0.00,0.00,0.01,0.00,0.00,0.01,0.01,0.01,0.01,0.10,0.09,0.34,0.42,0.90,0.75,0.25,0.49,0.09,0.56,0.03,0.12,0.02,0.00,0.00,0.00,0.00,0.00,0.01,0.14,0.08,0.04,0.03,0.00,0.00,0.00,0.00,0.00,0.00,0.00,0.00,0.00,0.00,0.05,0.67,0.05,0.73,0.65,0.67,0.95,0.94,0.99,0.83,0.91,0.68,0.01,0.04,0.02,0.05,0.00,0.00,0.01,0.00,0.01,0.04,0.17,0.01,0.02,0.31,0.02,0.01,0.18,0.14,0.02,0.37,0.07,0.42,0.14,0.93,0.59,0.66,0.64,0.92,0.85,0.19,0.51,0.90,0.78,0.74,0.68,1.00,0.92,0.82,0.92,0.94,0.64,0.73,0.56,0.08,0.09,0.02,0.02,0.02,0.21,0.00,0.01,0.03,0.02,0.01,0.02,0.05,0.01,0.01,0.01,0.03,0.03,0.06,0.01,0.01,0.00,0.03,0.06,0.01,0.02,0.00,0.00,0.00,0.00,0.00,0.00,0.00,0.00,0.00,0.00,0.00,0.00,0.00,0.00,0.01,0.00,0.00,0.04,0.22,0.09,0.17,0.33,0.42,0.73,0.06,0.52,0.69,0.59,0.99,0.82,0.85,0.92,0.69,0.27,0.07,0.29,0.03,0.00,0.01,0.00,0.00,0.01,0.00,0.00,0.01,0.01,0.01,0.02,0.48,0.01,0.03,0.54,0.01,0.02,0.04,0.02,0.01,0.01,0.01,0.02,0.01,0.01,0.02,0.05,0.04,0.01,0.09,0.01,0.00,0.00,0.00,0.00,0.00,0.01,0.00,0.02,0.00,0.02,0.01,0.03,0.05,0.05,0.19,0.03,0.01,0.05,0.16,0.01,0.27,0.62,0.87,0.36,0.72,0.82,0.52,0.74,0.11,0.23,0.37,0.15,0.13,0.04,0.29,0.14,0.46,0.03,0.00,0.01,0.02,0.01,0.00,0.02,0.01,0.12,0.01,0.11,0.35,0.15,0.82,0.08,0.26,0.27,0.03,0.02,0.01,0.01,0.00,0.00,0.00,0.00,0.00,0.00,0.00,0.00,0.00,0.00,0.00,0.00
Prediction from RNABindRPlus:		0,0,0,0,0,0,0,0,0,0,0,0,0,0,0,0,0,0,0,0,0,0,0,0,0,0,0,0,0,0,0,0,0,0,0,0,0,0,0,0,0,0,0,0,0,0,0,0,0,0,0,0,0,0,0,0,0,0,0,0,0,0,0,0,0,0,0,0,0,0,0,0,0,0,1,0,0,1,0,0,0,0,0,0,0,0,0,0,0,0,0,0,0,0,0,0,0,0,0,0,0,0,0,0,0,0,0,0,0,0,0,0,0,0,0,0,0,0,0,0,0,1,0,0,0,1,0,1,1,0,1,1,0,0,0,0,0,0,0,0,0,0,0,0,0,0,1,0,0,0,0,0,0,0,0,0,0,0,0,0,0,0,0,0,0,0,0,0,0,0,0,0,0,0,0,0,0,0,0,0,0,0,0,0,0,0,0,0,0,0,0,0,0,0,0,0,0,0,0,0,0,0,0,0,0,0,0,0,0,0,0,0,0,0,0,0,0,0,0,0,0,0,0,0,0,0,0,0,0,1,0,0,1,1,1,1,1,1,1,1,1,1,0,0,0,0,0,0,0,0,0,0,0,0,0,0,0,0,0,0,0,0,0,0,0,0,1,0,0,0,0,0,0,0,0,0,0,0,0,0,0,0,0,0,0,0,0,0,0,0,0,0,0,0,0,0,0,0,0,0,0,1,1,1,0,1,0,0,0,0,0,0,0,0,0,0,0,0,0,0,0,0,0,0,0,0,0,0,0,0,1,0,0,0,1,1,0,0,1,0,0,0,1,1,0,1,1,0,0,0,0,0,0,0,0,0,0,0,0,0,0,0,0,0,0,0,0,0,0,0,0,0,0,0,0,0,0,0,0,0,0,0,0,0,0,0,0,0,0,0,0,0,0,0,0,0,0,0,0,0,0,0,0,0,1,0,1,1,0,0,0,0,0,0,0,0,0,0,0,0,0,0,0,0,0,0,0,0,0,0,0,0,0,0,0,0,0,0,0,0,0,0,0,0,0,0,0,0,0,0,0,0,0,0,0,0,0,0,0,0,0,0,0,0,0,0,1,0,0,0,0,0,0,0,0,0,0,0,0,0,0,0,0,0,0,0,0,0,0,0,0,0,0,0,0,0,0,0,0,0,0,0,0,0,0,0,0,0,0,0,0,0,0,0
Predicted score from RNABindRPlus:	0.01,0.01,0.01,0.01,0.01,0.01,0.01,0.01,0.01,0.01,0.01,0.01,0.01,0.01,0.01,0.01,0.01,0.01,0.01,0.01,0.01,0.01,0.02,0.01,0.01,0.01,0.01,0.01,0.01,0.01,0.01,0.01,0.01,0.01,0.01,0.01,0.01,0.01,0.01,0.01,0.01,0.01,0.01,0.01,0.01,0.01,0.01,0.01,0.01,0.01,0.01,0.01,0.01,0.01,0.01,0.01,0.01,0.01,0.01,0.01,0.01,0.01,0.01,0.01,0.01,0.02,0.03,0.01,0.03,0.03,0.01,0.01,0.29,0.15,0.56,0.32,0.35,0.64,0.12,0.24,0.01,0.25,0.01,0.01,0.01,0.02,0.01,0.01,0.01,0.01,0.01,0.01,0.01,0.01,0.01,0.01,0.01,0.01,0.01,0.01,0.01,0.01,0.01,0.01,0.01,0.01,0.01,0.01,0.01,0.01,0.02,0.17,0.12,0.07,0.07,0.31,0.09,0.07,0.02,0.04,0.09,0.61,0.02,0.26,0.49,0.52,0.04,0.64,0.65,0.04,0.56,0.62,0.07,0.17,0.15,0.17,0.02,0.02,0.02,0.01,0.01,0.01,0.01,0.01,0.03,0.41,0.56,0.03,0.02,0.21,0.01,0.01,0.01,0.01,0.01,0.01,0.01,0.01,0.01,0.01,0.04,0.01,0.03,0.02,0.01,0.02,0.01,0.02,0.08,0.04,0.05,0.19,0.29,0.02,0.03,0.02,0.01,0.01,0.01,0.01,0.01,0.01,0.01,0.01,0.01,0.01,0.01,0.01,0.01,0.01,0.01,0.01,0.01,0.01,0.01,0.01,0.01,0.01,0.01,0.01,0.01,0.01,0.01,0.01,0.01,0.02,0.10,0.04,0.06,0.04,0.04,0.11,0.03,0.13,0.17,0.10,0.03,0.22,0.13,0.04,0.45,0.16,0.15,0.18,0.33,0.35,0.15,0.19,0.45,0.53,0.03,0.42,0.54,0.70,0.62,0.70,0.69,0.70,0.64,0.70,0.54,0.66,0.33,0.04,0.05,0.02,0.01,0.01,0.01,0.01,0.01,0.01,0.01,0.01,0.01,0.01,0.01,0.01,0.01,0.01,0.01,0.01,0.02,0.02,0.06,0.09,0.57,0.37,0.04,0.12,0.02,0.17,0.01,0.02,0.01,0.01,0.01,0.01,0.01,0.01,0.01,0.02,0.01,0.01,0.01,0.01,0.01,0.01,0.01,0.01,0.01,0.01,0.01,0.01,0.01,0.01,0.27,0.01,0.34,0.25,0.27,0.64,0.62,0.69,0.47,0.58,0.28,0.01,0.01,0.01,0.01,0.01,0.01,0.01,0.01,0.01,0.01,0.02,0.01,0.01,0.05,0.01,0.01,0.02,0.02,0.01,0.07,0.01,0.09,0.02,0.61,0.19,0.26,0.24,0.60,0.50,0.03,0.13,0.57,0.41,0.35,0.28,0.70,0.60,0.46,0.60,0.62,0.24,0.34,0.17,0.01,0.02,0.01,0.01,0.01,0.03,0.01,0.01,0.01,0.01,0.01,0.01,0.01,0.01,0.01,0.01,0.01,0.01,0.01,0.01,0.01,0.01,0.01,0.01,0.01,0.01,0.01,0.01,0.01,0.01,0.01,0.01,0.01,0.01,0.01,0.01,0.01,0.01,0.01,0.01,0.01,0.01,0.01,0.01,0.03,0.02,0.02,0.05,0.09,0.34,0.01,0.14,0.29,0.19,0.69,0.46,0.50,0.60,0.29,0.04,0.01,0.04,0.01,0.01,0.01,0.01,0.01,0.01,0.01,0.01,0.01,0.01,0.01,0.01,0.11,0.01,0.01,0.15,0.01,0.01,0.01,0.01,0.01,0.01,0.01,0.01,0.01,0.01,0.01,0.01,0.01,0.01,0.02,0.01,0.01,0.01,0.01,0.01,0.01,0.01,0.01,0.01,0.01,0.01,0.01,0.01,0.01,0.01,0.03,0.01,0.01,0.01,0.02,0.01,0.04,0.22,0.53,0.06,0.33,0.46,0.14,0.35,0.02,0.03,0.07,0.02,0.02,0.01,0.04,0.02,0.10,0.01,0.01,0.01,0.01,0.01,0.01,0.01,0.01,0.02,0.01,0.02,0.06,0.02,0.46,0.01,0.04,0.04,0.01,0.01,0.01,0.01,0.01,0.01,0.01,0.01,0.01,0.01,0.01,0.01,0.01,0.01,0.01,0.01
    #Input sequence length: 557
#Number of binding residues predicted by HomPRIP: 49
#Number of binding residues predicted by SVM: 116
#Number of binding residues predicted by RNABindRPlus: 34
>Q2FZ19_AF_A
sequence:							M,S,L,I,K,K,K,N,K,D,I,R,I,I,P,L,G,G,V,G,E,I,A,K,N,M,Y,I,V,E,V,D,D,E,M,F,M,L,D,A,G,L,M,F,P,E,D,E,M,L,G,I,D,I,V,I,P,D,I,S,Y,V,L,E,N,K,D,K,L,K,G,I,F,L,T,H,G,H,E,H,A,I,G,A,V,S,Y,V,L,E,Q,L,D,A,P,V,Y,G,S,K,L,T,I,A,L,I,K,E,N,M,K,A,R,N,I,D,K,K,V,R,Y,Y,T,V,N,N,D,S,I,M,R,F,K,N,V,N,I,S,F,F,N,T,T,H,S,I,P,D,S,L,G,V,C,I,H,T,S,Y,G,A,I,V,Y,T,G,E,F,K,F,D,Q,S,L,H,G,H,Y,A,P,D,I,K,R,M,A,E,I,G,E,E,G,V,F,V,L,I,S,D,S,T,E,A,E,K,P,G,Y,N,T,P,E,N,V,I,E,H,H,M,Y,D,A,F,A,K,V,R,G,R,L,I,V,S,C,Y,A,S,N,F,I,R,I,Q,Q,V,L,N,I,A,S,K,L,N,R,K,V,S,F,L,G,R,S,L,E,S,S,F,N,I,A,R,K,M,G,Y,F,D,I,P,K,D,L,L,I,P,I,T,E,V,D,N,Y,P,K,N,E,V,I,I,I,A,T,G,M,Q,G,E,P,V,E,A,L,S,Q,M,A,Q,H,K,H,K,I,M,N,I,E,E,G,D,S,V,F,L,A,I,T,A,S,A,N,M,E,V,I,I,A,N,T,L,N,E,L,V,R,A,G,A,H,I,I,P,N,N,K,K,I,H,A,S,S,H,G,C,M,E,E,L,K,M,M,I,N,I,M,K,P,E,Y,F,I,P,V,Q,G,E,F,K,M,Q,I,A,H,A,K,L,A,A,E,A,G,V,A,P,E,K,I,F,L,V,E,K,G,D,V,I,N,Y,N,G,K,D,M,I,L,N,E,K,V,N,S,G,N,I,L,I,D,G,I,G,I,G,D,V,G,N,I,V,L,R,D,R,H,L,L,A,E,D,G,I,F,I,A,V,V,T,L,D,P,K,N,R,R,I,A,A,G,P,E,I,Q,S,R,G,F,V,Y,V,R,E,S,E,D,L,L,R,E,A,E,E,K,V,R,E,I,V,E,A,G,L,Q,E,K,R,I,E,W,S,E,I,K,Q,N,M,R,D,Q,I,S,K,L,L,F,E,S,T,K,R,R,P,M,I,I,P,V,I,S,E,I
Prediction from HomPRIP:			?,?,?,?,?,?,?,?,?,?,0,0,0,0,0,0,0,0,0,0,0,1,1,0,0,0,0,0,0,0,0,0,0,0,0,0,0,0,0,0,0,1,0,1,1,1,0,0,0,0,0,0,1,1,0,0,0,0,0,0,0,0,0,0,0,0,0,0,0,0,0,0,0,0,0,0,0,0,1,1,0,0,0,0,0,0,0,0,0,0,0,0,0,0,0,0,0,0,0,0,0,0,0,0,0,0,0,0,0,0,0,?,?,?,?,1,0,0,0,0,0,0,0,0,0,0,0,0,0,0,0,0,0,0,0,0,0,0,0,0,0,0,0,1,1,0,0,0,0,0,0,0,0,0,0,0,0,0,0,0,0,0,0,0,0,1,0,0,0,0,0,0,0,0,0,0,0,0,0,0,0,0,0,0,0,0,0,0,0,0,0,0,0,0,0,0,0,0,0,1,0,0,0,0,0,0,0,0,0,0,0,0,0,0,0,0,0,0,0,0,0,0,0,0,0,0,0,0,0,0,0,0,1,1,1,1,1,0,0,0,0,0,0,0,0,0,0,0,0,0,0,0,0,0,0,0,0,1,1,1,1,1,0,0,0,0,0,0,0,0,0,0,0,0,0,0,0,?,0,0,0,0,0,0,0,0,0,0,0,0,0,0,0,0,0,0,0,0,0,0,1,1,1,1,0,1,1,1,1,1,0,0,1,0,0,0,0,1,1,1,0,0,0,0,0,0,0,0,0,0,0,0,0,0,0,0,1,1,0,1,0,0,0,0,0,0,0,0,0,0,0,0,0,0,0,0,0,0,0,0,0,0,0,0,0,1,1,1,1,1,0,0,0,0,0,0,0,0,0,0,0,0,0,0,0,0,0,0,0,0,0,1,0,1,0,0,1,0,0,0,0,0,0,0,0,0,0,0,0,0,0,0,0,0,0,0,0,0,0,0,0,0,0,0,0,0,0,0,0,0,0,0,0,0,0,0,0,0,0,0,0,0,0,0,0,0,0,0,0,0,0,0,0,0,0,0,0,0,0,0,0,0,0,0,0,0,0,0,0,0,0,0,0,0,0,0,0,0,0,?,?,?,?,?,?,?,0,0,0,0,0,0,0,?,?,0,0,0,0,0,0,0,0,0,0,0,0,0,0,0,0,0,0,0,0,0,0,0,0,0,0,0,?,0,0,0,0,0,0,0,0,0,0,0,0,0,0,0,0,0,0,0,0,0,0,0,0,0,0,0,0,0,0,0,0,0,?
Predicted score from HomPRIP:		?,?,?,?,?,?,?,?,?,?,0.00,0.00,0.00,0.00,0.00,0.00,0.00,0.00,0.00,0.00,0.00,1.00,0.50,0.00,0.00,0.00,0.00,0.00,0.00,0.00,0.00,0.00,0.00,0.00,0.00,0.00,0.00,0.00,0.00,0.00,0.00,0.50,0.00,1.00,0.50,0.50,0.00,0.00,0.00,0.00,0.00,0.00,1.00,1.00,0.00,0.00,0.00,0.00,0.00,0.00,0.00,0.00,0.00,0.00,0.00,0.00,0.00,0.00,0.00,0.00,0.00,0.00,0.00,0.00,0.00,0.00,0.00,0.00,1.00,1.00,0.00,0.00,0.00,0.00,0.00,0.00,0.00,0.00,0.00,0.00,0.00,0.00,0.00,0.00,0.00,0.00,0.00,0.00,0.00,0.00,0.00,0.00,0.00,0.00,0.00,0.00,0.00,0.00,0.00,0.00,0.00,?,?,?,?,0.50,0.00,0.00,0.00,0.00,0.00,0.00,0.00,0.00,0.00,0.00,0.00,0.00,0.00,0.00,0.00,0.00,0.00,0.00,0.00,0.00,0.00,0.00,0.00,0.00,0.00,0.00,0.00,1.00,1.00,0.00,0.00,0.00,0.00,0.00,0.00,0.00,0.00,0.00,0.00,0.00,0.00,0.00,0.00,0.00,0.00,0.00,0.00,0.00,0.00,0.50,0.00,0.00,0.00,0.00,0.00,0.00,0.00,0.00,0.00,0.00,0.00,0.00,0.00,0.00,0.00,0.00,0.00,0.00,0.00,0.00,0.00,0.00,0.00,0.00,0.00,0.00,0.00,0.00,0.00,0.00,0.00,0.00,0.00,1.00,0.00,0.00,0.00,0.00,0.00,0.00,0.00,0.00,0.00,0.00,0.00,0.00,0.00,0.00,0.00,0.00,0.00,0.00,0.00,0.00,0.00,0.00,0.00,0.00,0.00,0.00,0.00,0.00,0.00,0.00,0.00,0.00,1.00,1.00,1.00,1.00,0.50,0.00,0.00,0.00,0.00,0.00,0.00,0.00,0.00,0.00,0.00,0.00,0.00,0.00,0.00,0.00,0.00,0.00,0.00,0.00,0.00,0.50,1.00,1.00,1.00,1.00,0.00,0.00,0.00,0.00,0.00,0.00,0.00,0.00,0.00,0.00,0.00,0.00,0.00,0.00,0.00,?,0.00,0.00,0.00,0.00,0.00,0.00,0.00,0.00,0.00,0.00,0.00,0.00,0.00,0.00,0.00,0.00,0.00,0.00,0.00,0.00,0.00,0.00,1.00,1.00,1.00,1.00,0.00,1.00,0.50,1.00,1.00,1.00,0.00,0.00,1.00,0.00,0.00,0.00,0.00,0.50,0.50,0.50,0.00,0.00,0.00,0.00,0.00,0.00,0.00,0.00,0.00,0.00,0.00,0.00,0.00,0.00,0.00,0.00,1.00,1.00,0.00,1.00,0.00,0.00,0.00,0.00,0.00,0.00,0.00,0.00,0.00,0.00,0.00,0.00,0.00,0.00,0.00,0.00,0.00,0.00,0.00,0.00,0.00,0.00,0.00,0.00,0.00,1.00,1.00,1.00,1.00,1.00,0.00,0.00,0.00,0.00,0.00,0.00,0.00,0.00,0.00,0.00,0.00,0.00,0.00,0.00,0.00,0.00,0.00,0.00,0.00,0.00,0.00,0.50,0.00,0.50,0.00,0.00,0.50,0.00,0.00,0.00,0.00,0.00,0.00,0.00,0.00,0.00,0.00,0.00,0.00,0.00,0.00,0.00,0.00,0.00,0.00,0.00,0.00,0.00,0.00,0.00,0.00,0.00,0.00,0.00,0.00,0.00,0.00,0.00,0.00,0.00,0.00,0.00,0.00,0.00,0.00,0.00,0.00,0.00,0.00,0.00,0.00,0.00,0.00,0.00,0.00,0.00,0.00,0.00,0.00,0.00,0.00,0.00,0.00,0.00,0.00,0.00,0.00,0.00,0.00,0.00,0.00,0.00,0.00,0.00,0.00,0.00,0.00,0.00,0.00,0.00,0.00,0.00,0.00,0.00,0.00,0.00,0.00,0.00,0.00,?,?,?,?,?,?,?,0.00,0.00,0.00,0.00,0.00,0.00,0.00,?,?,0.00,0.00,0.00,0.00,0.00,0.00,0.00,0.00,0.00,0.00,0.00,0.00,0.00,0.00,0.00,0.00,0.00,0.00,0.00,0.00,0.00,0.00,0.00,0.00,0.00,0.00,0.00,?,0.00,0.00,0.00,0.00,0.00,0.00,0.00,0.00,0.00,0.00,0.00,0.00,0.00,0.00,0.00,0.00,0.00,0.00,0.00,0.00,0.00,0.00,0.00,0.00,0.00,0.00,0.00,0.00,0.00,0.00,0.00,0.00,0.00,?
Prediction from SVM:				0,0,0,0,0,0,0,0,0,0,0,0,0,0,0,0,1,1,0,1,1,1,0,1,0,0,0,0,0,0,0,0,0,0,0,0,0,0,0,0,0,0,0,0,0,0,0,0,0,0,0,0,0,0,0,0,0,0,0,0,0,0,0,0,0,0,0,0,0,0,0,0,0,0,1,0,1,1,0,0,0,0,0,0,0,0,0,0,0,0,0,0,0,0,0,0,0,0,0,1,1,1,0,0,0,0,0,0,0,0,0,0,0,0,0,0,0,0,0,0,0,0,0,0,0,0,0,0,0,0,0,0,0,0,0,0,0,0,0,0,1,0,1,1,1,1,1,0,0,0,0,0,0,0,0,0,0,0,0,0,0,0,0,0,0,0,0,1,0,0,0,0,0,0,0,0,0,0,0,0,0,0,0,0,0,0,0,0,0,0,0,0,0,0,0,0,0,0,0,0,0,0,0,1,0,0,0,1,0,1,0,0,0,0,0,0,0,0,0,0,0,0,0,0,0,0,0,0,0,0,0,0,1,1,1,1,1,0,1,1,0,0,1,0,0,0,0,0,0,0,0,1,1,1,0,1,1,1,0,1,1,0,0,1,0,0,0,0,0,0,0,0,0,0,0,0,0,0,0,0,0,0,0,0,0,0,0,0,0,0,0,0,0,0,0,0,0,0,0,0,0,0,1,1,1,1,1,0,1,1,0,0,1,0,0,1,0,0,0,1,0,0,0,0,0,0,0,0,0,0,0,0,0,0,1,1,1,1,1,1,0,1,0,0,0,1,0,0,0,0,0,0,1,0,0,0,0,0,0,0,0,0,0,0,0,1,0,1,1,1,1,1,1,1,0,0,0,0,0,0,0,0,0,0,0,0,0,0,0,1,1,1,1,1,1,1,1,1,0,0,0,0,0,0,0,0,0,0,0,0,0,0,0,0,0,0,0,0,0,0,0,0,0,0,0,0,0,0,0,0,0,1,0,1,1,1,1,1,1,1,1,0,0,0,0,0,0,0,0,1,1,0,1,1,0,1,1,1,1,1,1,0,0,0,0,0,0,0,0,0,0,0,0,0,0,0,1,0,0,0,0,0,0,0,0,1,1,1,1,1,1,0,1,0,1,0,1,0,0,0,0,0,0,0,0,0,0,0,0,0,0,0,0,0,0,0,0,0,0,0,0,0,0,0,0,0,0,0,0,0,0,0,0,0,0,0,1,1,1,0,1,0,1,1,1,1,1,1,1,0,0,1,0,0,0,0,0
Predicted score from SVM:			0.00,0.11,0.07,0.08,0.01,0.01,0.01,0.00,0.00,0.03,0.01,0.06,0.01,0.39,0.09,0.27,0.70,0.70,0.29,0.78,0.83,0.52,0.43,0.69,0.34,0.09,0.04,0.00,0.00,0.01,0.00,0.00,0.00,0.00,0.00,0.00,0.00,0.00,0.00,0.00,0.06,0.01,0.01,0.03,0.00,0.00,0.00,0.00,0.00,0.00,0.00,0.00,0.00,0.00,0.00,0.00,0.05,0.15,0.02,0.33,0.46,0.03,0.01,0.11,0.03,0.03,0.01,0.37,0.01,0.07,0.01,0.01,0.01,0.03,0.75,0.41,0.66,0.66,0.37,0.28,0.19,0.05,0.35,0.34,0.01,0.04,0.12,0.00,0.00,0.04,0.01,0.00,0.02,0.00,0.16,0.01,0.32,0.15,0.38,0.89,0.51,0.54,0.05,0.05,0.02,0.00,0.01,0.00,0.12,0.01,0.03,0.11,0.26,0.09,0.01,0.01,0.17,0.03,0.00,0.01,0.00,0.01,0.00,0.01,0.03,0.01,0.07,0.01,0.01,0.01,0.01,0.01,0.02,0.04,0.01,0.05,0.01,0.10,0.10,0.19,0.64,0.20,0.71,0.72,0.93,0.60,0.51,0.33,0.14,0.02,0.06,0.01,0.01,0.00,0.02,0.01,0.01,0.00,0.09,0.06,0.02,0.01,0.25,0.36,0.06,0.03,0.15,0.61,0.01,0.06,0.03,0.02,0.04,0.03,0.01,0.01,0.04,0.02,0.05,0.09,0.05,0.09,0.09,0.01,0.01,0.03,0.02,0.02,0.04,0.04,0.02,0.00,0.00,0.01,0.01,0.00,0.03,0.12,0.04,0.06,0.01,0.01,0.24,0.56,0.49,0.19,0.35,0.68,0.14,0.84,0.29,0.28,0.16,0.01,0.00,0.01,0.01,0.00,0.00,0.01,0.01,0.01,0.02,0.03,0.01,0.02,0.01,0.22,0.01,0.02,0.09,0.20,0.94,0.71,0.50,0.95,0.88,0.11,0.84,0.89,0.01,0.14,0.80,0.05,0.01,0.12,0.30,0.12,0.04,0.34,0.42,0.57,0.83,0.92,0.23,0.75,0.83,0.61,0.35,0.99,0.81,0.17,0.09,0.74,0.03,0.01,0.18,0.05,0.06,0.06,0.14,0.12,0.04,0.04,0.00,0.01,0.00,0.00,0.00,0.01,0.01,0.00,0.01,0.02,0.00,0.09,0.03,0.01,0.01,0.01,0.01,0.01,0.00,0.00,0.00,0.00,0.00,0.00,0.01,0.06,0.15,0.30,0.97,0.91,0.86,0.94,0.66,0.15,0.77,0.69,0.37,0.35,0.97,0.28,0.07,0.51,0.32,0.17,0.21,0.54,0.11,0.01,0.10,0.01,0.04,0.01,0.04,0.01,0.01,0.02,0.01,0.01,0.03,0.03,0.57,0.56,0.85,0.89,0.83,0.57,0.48,0.80,0.48,0.03,0.22,0.79,0.02,0.02,0.35,0.11,0.02,0.16,0.74,0.15,0.14,0.15,0.20,0.01,0.03,0.14,0.08,0.06,0.10,0.26,0.02,0.54,0.11,0.93,0.87,0.92,0.78,0.89,0.82,0.68,0.21,0.02,0.41,0.03,0.01,0.03,0.21,0.03,0.04,0.39,0.14,0.29,0.13,0.28,0.23,0.83,0.80,0.99,0.99,0.87,0.86,0.99,0.69,0.54,0.31,0.19,0.07,0.04,0.07,0.02,0.03,0.06,0.01,0.01,0.01,0.02,0.02,0.01,0.03,0.03,0.01,0.01,0.01,0.01,0.05,0.15,0.14,0.06,0.02,0.05,0.01,0.01,0.13,0.02,0.14,0.14,0.05,0.54,0.18,0.70,0.61,0.94,0.92,0.91,0.85,0.83,0.95,0.18,0.24,0.02,0.12,0.13,0.05,0.18,0.27,0.66,0.95,0.37,0.74,0.95,0.16,0.80,0.55,0.97,0.54,0.89,0.95,0.06,0.02,0.10,0.01,0.00,0.04,0.01,0.00,0.02,0.06,0.03,0.04,0.34,0.09,0.20,0.51,0.48,0.21,0.41,0.41,0.15,0.10,0.47,0.48,0.66,0.79,0.75,0.67,0.91,0.99,0.34,0.78,0.10,0.69,0.14,0.86,0.24,0.10,0.01,0.02,0.01,0.00,0.00,0.01,0.00,0.01,0.00,0.02,0.01,0.04,0.03,0.03,0.00,0.01,0.01,0.00,0.00,0.00,0.00,0.00,0.00,0.04,0.01,0.05,0.05,0.04,0.01,0.30,0.08,0.18,0.01,0.40,0.02,0.08,0.10,0.62,0.80,0.77,0.11,0.62,0.48,0.97,0.90,0.98,0.88,0.99,0.66,0.77,0.39,0.19,0.96,0.35,0.01,0.13,0.02,0.00
Prediction from RNABindRPlus:		0,0,0,0,0,0,0,0,0,0,0,0,0,0,0,0,0,0,0,0,0,1,0,0,0,0,0,0,0,0,0,0,0,0,0,0,0,0,0,0,0,0,0,0,0,0,0,0,0,0,0,0,0,0,0,0,0,0,0,0,0,0,0,0,0,0,0,0,0,0,0,0,0,0,0,0,0,0,1,0,0,0,0,0,0,0,0,0,0,0,0,0,0,0,0,0,0,0,0,0,0,0,0,0,0,0,0,0,0,0,0,0,0,0,0,0,0,0,0,0,0,0,0,0,0,0,0,0,0,0,0,0,0,0,0,0,0,0,0,0,0,0,0,1,1,0,0,0,0,0,0,0,0,0,0,0,0,0,0,0,0,0,0,0,0,0,0,0,0,0,0,0,0,0,0,0,0,0,0,0,0,0,0,0,0,0,0,0,0,0,0,0,0,0,0,0,0,0,0,0,0,0,0,0,0,0,0,0,0,0,0,0,0,0,0,0,0,0,0,0,0,0,0,0,0,0,0,0,0,0,0,0,1,1,1,1,1,0,0,0,0,0,0,0,0,0,0,0,0,0,0,0,0,0,0,0,0,0,1,1,1,0,0,0,0,0,0,0,0,0,0,0,0,0,0,0,0,0,0,0,0,0,0,0,0,0,0,0,0,0,0,0,0,0,0,0,0,0,0,0,0,0,1,1,0,1,1,0,1,1,0,0,1,0,0,0,0,0,0,0,0,0,0,0,0,0,0,0,0,0,0,0,0,0,0,0,1,1,0,1,0,0,0,0,0,0,0,0,0,0,0,0,0,0,0,0,0,0,0,0,0,0,0,0,0,1,0,1,1,1,0,0,0,0,0,0,0,0,0,0,0,0,0,0,0,0,0,0,0,0,0,1,1,1,0,1,1,0,0,0,0,0,0,0,0,0,0,0,0,0,0,0,0,0,0,0,0,0,0,0,0,0,0,0,0,0,0,0,0,0,0,0,0,0,0,0,0,0,0,0,0,0,0,0,0,0,0,0,0,0,0,0,0,0,0,0,0,0,0,0,0,0,0,0,0,0,0,0,0,0,0,0,0,0,0,0,0,0,0,0,0,0,0,0,0,0,0,0,0,0,1,0,0,0,0,0,0,0,0,0,0,0,0,0,0,0,0,0,0,0,0,0,0,0,0,0,0,0,0,0,0,0,0,0,0,0,0,0,0,0,0,0,0,0,0,0,0,0,0,0,0,0,0,0,1,0,1,0,0,0,0,0,0,0,0,0,0
Predicted score from RNABindRPlus:	0.01,0.02,0.01,0.01,0.01,0.01,0.01,0.01,0.01,0.01,0.01,0.01,0.01,0.04,0.01,0.02,0.18,0.18,0.02,0.25,0.31,0.75,0.23,0.17,0.03,0.01,0.01,0.01,0.01,0.01,0.01,0.01,0.01,0.01,0.01,0.01,0.01,0.01,0.01,0.01,0.01,0.03,0.01,0.17,0.03,0.03,0.01,0.01,0.01,0.01,0.01,0.01,0.15,0.15,0.01,0.01,0.01,0.01,0.01,0.03,0.06,0.01,0.01,0.01,0.01,0.01,0.01,0.03,0.01,0.01,0.01,0.01,0.01,0.01,0.22,0.04,0.15,0.15,0.57,0.45,0.01,0.01,0.03,0.03,0.01,0.01,0.01,0.01,0.01,0.01,0.01,0.01,0.01,0.01,0.01,0.01,0.03,0.01,0.04,0.38,0.07,0.08,0.01,0.01,0.01,0.01,0.01,0.01,0.01,0.01,0.01,0.02,0.04,0.02,0.01,0.03,0.01,0.01,0.01,0.01,0.01,0.01,0.01,0.01,0.01,0.01,0.01,0.01,0.01,0.01,0.01,0.01,0.01,0.01,0.01,0.01,0.01,0.01,0.01,0.01,0.14,0.01,0.19,0.90,0.97,0.11,0.07,0.03,0.01,0.01,0.01,0.01,0.01,0.01,0.01,0.01,0.01,0.01,0.01,0.01,0.01,0.01,0.02,0.03,0.01,0.03,0.01,0.12,0.01,0.01,0.01,0.01,0.01,0.01,0.01,0.01,0.01,0.01,0.01,0.01,0.01,0.01,0.01,0.01,0.01,0.01,0.01,0.01,0.01,0.01,0.01,0.01,0.01,0.01,0.01,0.01,0.01,0.01,0.01,0.19,0.01,0.01,0.02,0.09,0.06,0.01,0.03,0.16,0.01,0.32,0.02,0.02,0.01,0.01,0.01,0.01,0.01,0.01,0.01,0.01,0.01,0.01,0.01,0.01,0.01,0.01,0.01,0.02,0.01,0.01,0.01,0.01,0.97,0.90,0.73,0.97,0.78,0.01,0.32,0.38,0.01,0.01,0.27,0.01,0.01,0.01,0.02,0.01,0.01,0.03,0.04,0.10,0.31,0.42,0.02,0.22,0.31,0.45,0.54,0.98,0.94,0.31,0.01,0.21,0.01,0.01,0.01,0.01,0.01,0.01,0.01,0.01,0.01,0.01,0.01,0.01,0.01,0.01,0.01,0.01,0.01,0.01,0.01,0.01,0.01,0.01,0.01,0.01,0.01,0.01,0.01,0.01,0.01,0.01,0.01,0.01,0.01,0.01,0.01,0.01,0.28,0.47,0.97,0.96,0.34,0.97,0.52,0.28,0.92,0.89,0.03,0.03,0.97,0.02,0.01,0.07,0.03,0.07,0.08,0.36,0.01,0.01,0.01,0.01,0.01,0.01,0.01,0.01,0.01,0.01,0.01,0.01,0.01,0.01,0.10,0.09,0.95,0.96,0.31,0.80,0.06,0.27,0.06,0.01,0.02,0.26,0.01,0.01,0.03,0.01,0.01,0.01,0.21,0.01,0.01,0.01,0.01,0.01,0.01,0.01,0.01,0.01,0.01,0.02,0.01,0.77,0.24,0.97,0.95,0.96,0.25,0.38,0.30,0.16,0.01,0.01,0.04,0.01,0.01,0.01,0.01,0.01,0.01,0.04,0.01,0.02,0.01,0.02,0.02,0.31,0.27,0.87,0.52,0.77,0.34,0.52,0.56,0.08,0.03,0.01,0.01,0.01,0.01,0.01,0.01,0.01,0.01,0.01,0.01,0.01,0.01,0.01,0.01,0.01,0.01,0.01,0.01,0.01,0.01,0.01,0.01,0.01,0.01,0.01,0.01,0.01,0.01,0.01,0.01,0.01,0.01,0.08,0.01,0.18,0.12,0.45,0.42,0.41,0.33,0.31,0.46,0.01,0.02,0.01,0.01,0.01,0.01,0.01,0.02,0.15,0.46,0.03,0.21,0.46,0.01,0.27,0.09,0.49,0.08,0.38,0.46,0.01,0.01,0.01,0.01,0.01,0.01,0.01,0.01,0.01,0.01,0.01,0.01,0.03,0.01,0.01,0.07,0.06,0.01,0.08,0.08,0.02,0.02,0.11,0.11,0.26,0.26,0.22,0.16,0.41,0.52,0.03,0.25,0.02,0.29,0.01,0.34,0.02,0.01,0.01,0.01,0.01,0.01,0.01,0.01,0.01,0.01,0.01,0.01,0.01,0.01,0.01,0.01,0.01,0.01,0.01,0.01,0.01,0.01,0.01,0.01,0.01,0.01,0.01,0.01,0.01,0.01,0.01,0.02,0.01,0.01,0.01,0.04,0.01,0.01,0.01,0.12,0.27,0.24,0.01,0.12,0.06,0.49,0.40,0.51,0.37,0.52,0.15,0.24,0.04,0.01,0.48,0.03,0.01,0.01,0.01,0.01
    #Input sequence length: 511
#Number of binding residues predicted by HomPRIP: 0
#Number of binding residues predicted by SVM: 82
#Number of binding residues predicted by RNABindRPlus: 21
>Q2FZ20_5XEX_A
sequence:							E,K,K,V,F,K,T,E,W,A,G,R,S,L,T,I,E,T,G,Q,L,A,K,Q,A,N,G,A,V,L,V,R,Y,G,D,T,V,V,L,S,T,A,T,A,S,K,E,P,R,D,G,D,F,F,P,L,T,V,N,Y,E,E,K,M,Y,A,A,G,K,D,D,A,T,L,T,A,R,L,I,D,R,P,I,R,P,L,F,P,K,G,Y,K,H,D,V,Q,I,M,N,M,V,L,S,A,D,P,D,C,S,P,Q,M,A,A,M,I,G,S,S,M,A,L,S,V,S,D,I,P,F,Q,G,P,I,A,G,V,N,V,G,Y,I,D,G,K,Y,I,I,N,P,T,V,E,E,K,E,V,S,R,L,D,L,E,V,A,G,H,K,D,A,V,N,M,V,E,A,G,A,S,E,I,T,E,Q,E,M,L,E,A,I,F,F,G,H,E,E,I,Q,R,L,V,D,F,Q,Q,Q,I,V,D,H,I,Q,P,V,K,Q,E,F,I,P,A,E,R,D,E,A,L,V,E,R,V,K,S,L,T,E,E,K,G,L,K,E,T,V,L,T,F,D,K,Q,Q,R,D,E,N,L,D,N,L,K,E,E,I,V,N,E,F,E,L,L,I,K,E,V,Y,A,I,L,N,E,L,V,K,E,E,V,R,R,L,I,A,D,E,K,I,R,P,D,G,R,K,P,D,E,I,R,P,L,D,S,E,V,G,I,L,P,R,T,H,G,S,G,L,F,T,R,G,Q,T,Q,A,L,S,V,L,T,L,G,A,L,K,R,F,M,H,H,Y,N,F,P,N,F,S,V,G,E,T,G,P,V,R,A,P,G,R,R,E,I,G,H,G,A,L,G,E,R,A,L,K,Y,I,I,P,D,T,A,D,F,P,Y,T,I,R,I,V,S,E,V,L,E,S,N,G,S,S,S,Q,A,S,I,C,G,S,T,L,A,L,M,D,A,G,V,P,I,K,A,P,V,A,G,I,A,M,G,L,V,T,R,E,D,S,Y,T,I,L,T,D,I,Q,G,M,E,D,A,L,G,D,M,D,F,K,V,A,G,T,K,E,G,I,T,A,I,Q,M,D,I,K,I,D,G,L,T,R,E,I,I,E,E,A,L,E,Q,A,R,R,G,R,L,E,I,M,N,H,M,L,Q,T,I,D,Q,P,R
Prediction from HomPRIP:			?,?,?,?,?,?,?,0,0,0,0,0,0,0,0,0,0,0,0,0,0,0,0,0,0,0,0,0,0,0,0,0,0,0,0,0,0,0,0,0,0,0,0,0,0,0,0,0,0,0,0,0,0,0,0,0,0,0,0,0,0,0,0,0,0,0,0,0,0,0,0,0,0,0,0,0,0,0,0,0,0,0,0,0,0,0,0,0,0,0,0,0,0,0,0,0,0,0,0,0,0,0,0,0,0,0,0,0,0,0,0,0,0,0,0,0,0,0,0,0,0,0,0,0,0,0,0,0,0,0,0,0,0,0,0,0,0,0,0,0,0,0,0,0,0,0,0,0,0,0,0,0,0,0,0,0,0,0,0,0,0,0,0,0,0,0,0,0,0,0,0,0,0,0,0,0,0,0,0,0,0,0,0,0,0,0,0,0,0,0,0,0,0,0,0,0,0,0,0,0,0,0,0,0,0,0,0,0,0,0,0,0,0,0,0,0,0,0,0,0,0,0,0,?,0,0,0,0,0,0,0,0,0,0,0,0,0,?,0,0,0,0,0,0,0,0,0,0,0,0,0,0,0,0,0,0,0,0,0,0,0,0,0,0,0,0,0,0,0,?,?,0,0,0,0,0,0,0,0,0,0,0,0,0,0,0,0,0,0,0,0,0,0,0,0,0,0,0,0,0,0,0,0,0,0,0,0,0,0,0,0,0,0,0,0,0,0,0,0,0,0,0,0,0,0,0,0,0,0,0,0,0,0,0,0,0,0,0,0,0,0,0,0,0,0,0,0,0,0,0,0,0,0,0,0,0,0,0,0,0,0,0,0,0,0,0,0,0,0,0,0,0,0,0,0,0,0,0,0,0,0,0,0,0,0,0,0,0,0,0,0,0,0,0,0,0,0,0,0,0,0,0,0,0,0,0,0,0,0,0,0,0,0,0,0,0,0,0,0,0,0,0,0,0,0,0,0,0,0,0,0,0,0,0,0,0,0,0,0,0,0,0,0,0,0,0,0,0,0,0,0,0,0,0,0,0,0,0,0,0,0,0,0,0,0,0,0,0,0,0,0,0,0,0,0,0,0,0,0,0,0,0,0,0,0,0,0,0,0,0,0,0,0,0,0,0,0,0,0,0,0,0,0,0,0,0,0,0,0,0,0
Predicted score from HomPRIP:		?,?,?,?,?,?,?,0.00,0.00,0.00,0.00,0.00,0.00,0.00,0.00,0.00,0.00,0.00,0.00,0.00,0.00,0.00,0.00,0.00,0.00,0.00,0.00,0.00,0.00,0.00,0.00,0.00,0.00,0.00,0.00,0.00,0.00,0.00,0.00,0.00,0.00,0.00,0.00,0.00,0.00,0.00,0.00,0.00,0.00,0.00,0.00,0.00,0.00,0.00,0.00,0.00,0.00,0.00,0.00,0.00,0.00,0.00,0.00,0.00,0.00,0.00,0.00,0.00,0.00,0.00,0.00,0.00,0.00,0.00,0.00,0.00,0.00,0.00,0.00,0.00,0.00,0.00,0.00,0.00,0.00,0.00,0.00,0.00,0.00,0.00,0.00,0.00,0.00,0.00,0.00,0.00,0.00,0.00,0.00,0.00,0.00,0.00,0.00,0.00,0.00,0.00,0.00,0.00,0.00,0.00,0.00,0.00,0.00,0.00,0.00,0.00,0.00,0.00,0.00,0.00,0.00,0.00,0.00,0.00,0.00,0.00,0.00,0.00,0.00,0.00,0.00,0.00,0.00,0.00,0.00,0.00,0.00,0.00,0.00,0.00,0.00,0.00,0.00,0.00,0.00,0.00,0.00,0.00,0.00,0.00,0.00,0.00,0.00,0.00,0.00,0.00,0.00,0.00,0.00,0.00,0.00,0.00,0.00,0.00,0.00,0.00,0.00,0.00,0.00,0.00,0.00,0.00,0.00,0.00,0.00,0.00,0.00,0.00,0.00,0.00,0.00,0.00,0.00,0.00,0.00,0.00,0.00,0.00,0.00,0.00,0.00,0.00,0.00,0.00,0.00,0.00,0.00,0.00,0.00,0.00,0.00,0.00,0.00,0.00,0.00,0.00,0.00,0.00,0.00,0.00,0.00,0.00,0.00,0.00,0.00,0.00,0.00,0.00,0.00,0.00,0.00,0.00,0.00,?,0.00,0.00,0.00,0.00,0.00,0.00,0.00,0.00,0.00,0.00,0.00,0.00,0.00,?,0.00,0.00,0.00,0.00,0.00,0.00,0.00,0.00,0.00,0.00,0.00,0.00,0.00,0.00,0.00,0.00,0.00,0.00,0.00,0.00,0.00,0.00,0.00,0.00,0.00,0.00,0.00,0.00,0.00,0.00,0.00,?,?,0.00,0.00,0.00,0.00,0.00,0.00,0.00,0.00,0.00,0.00,0.00,0.00,0.00,0.00,0.00,0.00,0.00,0.00,0.00,0.00,0.00,0.00,0.00,0.00,0.00,0.00,0.00,0.00,0.00,0.00,0.00,0.00,0.00,0.00,0.00,0.00,0.00,0.00,0.00,0.00,0.00,0.00,0.00,0.00,0.00,0.00,0.00,0.00,0.00,0.00,0.00,0.00,0.00,0.00,0.00,0.00,0.00,0.00,0.00,0.00,0.00,0.00,0.00,0.00,0.00,0.00,0.00,0.00,0.00,0.00,0.00,0.00,0.00,0.00,0.00,0.00,0.00,0.00,0.00,0.00,0.00,0.00,0.00,0.00,0.00,0.00,0.00,0.00,0.33,0.33,0.33,0.00,0.00,0.00,0.00,0.00,0.00,0.00,0.00,0.00,0.00,0.00,0.00,0.00,0.00,0.00,0.00,0.00,0.00,0.00,0.00,0.00,0.00,0.00,0.00,0.00,0.00,0.00,0.00,0.00,0.00,0.00,0.00,0.00,0.00,0.00,0.00,0.00,0.00,0.00,0.00,0.00,0.00,0.00,0.00,0.00,0.00,0.00,0.00,0.00,0.00,0.00,0.00,0.00,0.00,0.00,0.00,0.00,0.00,0.00,0.00,0.00,0.00,0.00,0.00,0.00,0.00,0.00,0.00,0.00,0.00,0.00,0.00,0.00,0.00,0.00,0.00,0.00,0.00,0.00,0.00,0.00,0.00,0.00,0.00,0.00,0.00,0.00,0.00,0.00,0.00,0.00,0.00,0.00,0.00,0.00,0.00,0.00,0.00,0.00,0.00,0.00,0.00,0.00,0.00,0.00,0.00,0.00,0.00,0.00,0.00,0.00,0.00,0.00,0.00,0.00,0.00,0.00,0.00,0.00,0.00,0.00,0.00,0.00,0.00,0.00,0.00,0.00,0.00,0.00,0.00,0.00,0.00,0.00,0.00,0.00,0.00,0.00,0.00,0.00,0.00,0.00,0.00,0.00,0.00,0.00,0.00,0.00,0.00,0.00
Prediction from SVM:				0,0,0,0,0,0,0,0,0,0,0,0,0,0,0,0,0,0,0,0,0,0,1,1,0,1,0,1,0,0,0,1,0,0,0,0,0,0,0,0,0,0,0,0,0,1,0,0,0,0,0,0,0,0,0,0,0,0,0,0,0,0,0,0,0,0,0,0,1,0,0,0,1,0,0,0,1,0,0,1,1,1,0,1,1,0,0,0,0,0,0,0,0,0,0,0,0,0,0,0,0,0,0,0,0,0,0,0,0,0,0,0,0,0,0,0,0,0,0,0,0,0,0,0,0,0,0,0,0,0,0,1,0,0,0,0,0,0,0,0,0,0,0,0,0,0,0,0,0,0,0,0,0,0,0,0,0,0,0,0,0,0,0,0,0,0,0,0,0,0,0,0,0,0,0,0,0,0,0,0,0,0,0,0,0,0,0,0,0,0,0,0,0,0,0,0,0,0,0,0,0,0,0,0,0,0,0,0,0,0,0,0,0,0,0,0,0,0,0,0,0,0,0,0,0,0,0,0,0,0,0,0,0,0,0,0,0,0,0,0,0,0,0,0,0,0,0,0,0,0,0,0,0,0,0,0,0,0,0,0,0,0,0,0,0,0,0,0,0,0,0,0,0,0,0,0,0,0,0,0,0,0,0,0,0,0,0,0,0,0,0,0,1,0,1,1,1,0,1,0,0,0,0,0,0,0,0,0,0,0,0,0,0,0,0,1,0,1,1,1,1,0,1,1,1,0,0,1,0,0,0,1,0,1,1,1,1,1,0,1,1,0,0,1,1,0,1,1,1,1,1,1,1,1,1,1,1,1,1,1,1,1,1,1,1,1,1,1,1,1,1,0,0,0,0,0,0,0,0,0,0,0,0,0,0,0,0,0,0,0,0,0,0,0,0,0,0,0,0,1,1,1,1,1,1,1,0,1,0,1,0,0,0,0,1,0,0,0,0,0,0,0,0,0,0,1,0,0,1,0,0,0,0,0,0,0,0,0,0,0,0,0,0,0,0,0,0,0,0,0,0,0,0,0,0,0,0,0,0,1,0,0,0,0,0,1,1,0,1,0,0,1,0,0,0,0,0,0,0,0,0,0,0,0,0,0,0,0,0,0,0,0,0,0,0,0,0,0,0,0,0,0,0,0,0,0,0,0,0,0,1
Predicted score from SVM:			0.00,0.01,0.01,0.00,0.00,0.01,0.00,0.03,0.03,0.02,0.06,0.29,0.28,0.01,0.01,0.01,0.04,0.00,0.15,0.22,0.00,0.35,0.91,0.85,0.49,0.93,0.38,0.96,0.02,0.08,0.00,0.91,0.18,0.01,0.01,0.39,0.34,0.07,0.09,0.13,0.16,0.07,0.12,0.02,0.23,0.61,0.12,0.01,0.39,0.08,0.01,0.07,0.18,0.06,0.04,0.10,0.21,0.00,0.07,0.00,0.01,0.02,0.28,0.00,0.04,0.09,0.06,0.12,0.66,0.17,0.31,0.14,0.71,0.16,0.37,0.47,0.99,0.38,0.05,0.87,0.99,0.78,0.07,0.98,0.88,0.13,0.35,0.14,0.26,0.06,0.14,0.07,0.03,0.01,0.00,0.01,0.00,0.00,0.00,0.01,0.00,0.01,0.01,0.01,0.01,0.01,0.01,0.00,0.00,0.04,0.01,0.00,0.00,0.01,0.01,0.00,0.01,0.06,0.10,0.00,0.20,0.03,0.01,0.00,0.02,0.10,0.01,0.03,0.07,0.06,0.04,0.54,0.14,0.14,0.22,0.03,0.12,0.01,0.15,0.15,0.00,0.04,0.08,0.26,0.14,0.07,0.02,0.01,0.01,0.01,0.00,0.00,0.00,0.00,0.00,0.00,0.00,0.00,0.00,0.00,0.00,0.00,0.01,0.01,0.18,0.32,0.21,0.40,0.06,0.01,0.04,0.01,0.00,0.00,0.00,0.00,0.00,0.00,0.00,0.00,0.00,0.00,0.00,0.00,0.00,0.00,0.00,0.00,0.00,0.00,0.06,0.01,0.04,0.01,0.00,0.00,0.01,0.00,0.00,0.00,0.00,0.00,0.00,0.00,0.00,0.00,0.00,0.00,0.00,0.00,0.00,0.00,0.00,0.01,0.01,0.00,0.00,0.00,0.00,0.00,0.00,0.00,0.00,0.00,0.00,0.00,0.00,0.00,0.00,0.00,0.00,0.00,0.00,0.00,0.00,0.00,0.00,0.00,0.00,0.01,0.02,0.01,0.00,0.15,0.01,0.01,0.03,0.08,0.08,0.00,0.23,0.00,0.00,0.00,0.00,0.00,0.00,0.00,0.00,0.00,0.00,0.00,0.00,0.00,0.00,0.00,0.00,0.00,0.00,0.00,0.00,0.00,0.00,0.00,0.00,0.00,0.00,0.00,0.00,0.00,0.00,0.00,0.00,0.00,0.00,0.27,0.13,0.00,0.03,0.03,0.24,0.04,0.73,0.18,0.96,0.88,0.94,0.36,0.85,0.18,0.02,0.26,0.11,0.01,0.09,0.03,0.01,0.00,0.09,0.19,0.00,0.02,0.00,0.01,0.20,0.97,0.13,0.98,0.73,1.00,0.95,0.36,0.94,0.99,0.99,0.10,0.20,0.56,0.14,0.00,0.07,0.57,0.04,0.57,0.85,0.65,0.93,0.69,0.12,0.84,0.94,0.49,0.13,0.78,0.72,0.42,0.81,0.57,0.57,0.92,0.91,0.54,0.73,0.98,0.97,0.86,1.00,0.98,0.90,1.00,1.00,1.00,1.00,1.00,1.00,0.99,0.90,0.96,0.99,0.93,0.86,0.47,0.33,0.10,0.29,0.01,0.00,0.00,0.00,0.00,0.00,0.00,0.00,0.00,0.01,0.00,0.01,0.03,0.02,0.00,0.00,0.34,0.00,0.00,0.00,0.00,0.00,0.00,0.04,0.95,0.99,0.88,0.96,1.00,0.99,0.63,0.31,0.89,0.18,0.51,0.16,0.33,0.29,0.02,0.82,0.09,0.02,0.01,0.05,0.32,0.02,0.14,0.02,0.26,0.01,0.81,0.08,0.43,0.89,0.28,0.10,0.29,0.34,0.03,0.00,0.01,0.00,0.00,0.00,0.00,0.00,0.00,0.00,0.00,0.01,0.07,0.00,0.01,0.05,0.01,0.01,0.07,0.11,0.00,0.00,0.04,0.00,0.00,0.08,0.65,0.00,0.02,0.19,0.17,0.06,0.69,0.55,0.05,0.62,0.46,0.03,0.52,0.06,0.18,0.01,0.41,0.00,0.02,0.00,0.00,0.00,0.07,0.03,0.00,0.01,0.03,0.09,0.01,0.01,0.00,0.07,0.03,0.32,0.10,0.09,0.40,0.00,0.12,0.01,0.00,0.00,0.03,0.01,0.00,0.00,0.00,0.00,0.00,0.00,0.00,0.52
Prediction from RNABindRPlus:		0,0,0,0,0,0,0,0,0,0,0,0,0,0,0,0,0,0,0,0,0,0,0,0,0,0,0,0,0,0,0,0,0,0,0,0,0,0,0,0,0,0,0,0,0,0,0,0,0,0,0,0,0,0,0,0,0,0,0,0,0,0,0,0,0,0,0,0,0,0,0,0,0,0,0,0,1,0,0,0,1,0,0,1,0,0,0,0,0,0,0,0,0,0,0,0,0,0,0,0,0,0,0,0,0,0,0,0,0,0,0,0,0,0,0,0,0,0,0,0,0,0,0,0,0,0,0,0,0,0,0,0,0,0,0,0,0,0,0,0,0,0,0,0,0,0,0,0,0,0,0,0,0,0,0,0,0,0,0,0,0,0,0,0,0,0,0,0,0,0,0,0,0,0,0,0,0,0,0,0,0,0,0,0,0,0,0,0,0,0,0,0,0,0,0,0,0,0,0,0,0,0,0,0,0,0,0,0,0,0,0,0,0,0,0,0,0,0,0,0,0,0,0,0,0,0,0,0,0,0,0,0,0,0,0,0,0,0,0,0,0,0,0,0,0,0,0,0,0,0,0,0,0,0,0,0,0,0,0,0,0,0,0,0,0,0,0,0,0,0,0,0,0,0,0,0,0,0,0,0,0,0,0,0,0,0,0,0,0,0,0,0,0,0,0,0,0,0,0,0,0,0,0,0,0,0,0,0,0,0,0,0,0,0,0,0,0,1,0,1,0,0,0,1,1,0,0,0,0,0,0,0,0,0,0,0,0,0,0,0,0,0,0,0,0,0,0,0,0,0,0,0,0,1,0,0,1,1,0,1,1,1,1,1,1,1,0,0,1,0,0,0,0,0,0,0,0,0,0,0,0,0,0,0,0,0,0,0,0,0,0,0,0,0,0,0,0,0,0,0,1,0,0,1,1,0,0,0,0,0,0,0,0,0,0,0,0,0,0,0,0,0,0,0,0,0,0,0,0,0,0,0,0,0,0,0,0,0,0,0,0,0,0,0,0,0,0,0,0,0,0,0,0,0,0,0,0,0,0,0,0,0,0,0,0,0,0,0,0,0,0,0,0,0,0,0,0,0,0,0,0,0,0,0,0,0,0,0,0,0,0,0,0,0,0,0,0,0,0,0,0,0,0,0,0,0,0,0,0,0,0
Predicted score from RNABindRPlus:	0.01,0.01,0.01,0.01,0.01,0.01,0.01,0.01,0.01,0.01,0.01,0.02,0.02,0.01,0.01,0.01,0.01,0.01,0.01,0.02,0.01,0.03,0.41,0.33,0.06,0.44,0.04,0.48,0.01,0.01,0.01,0.41,0.01,0.01,0.01,0.04,0.03,0.01,0.01,0.01,0.01,0.01,0.01,0.01,0.02,0.12,0.01,0.01,0.04,0.01,0.01,0.01,0.01,0.01,0.01,0.01,0.01,0.01,0.01,0.01,0.01,0.01,0.02,0.01,0.01,0.01,0.01,0.01,0.15,0.01,0.03,0.01,0.19,0.01,0.03,0.06,0.52,0.04,0.01,0.36,0.52,0.25,0.01,0.51,0.37,0.01,0.03,0.01,0.02,0.01,0.01,0.01,0.01,0.01,0.01,0.01,0.01,0.01,0.01,0.01,0.01,0.01,0.01,0.01,0.01,0.01,0.01,0.01,0.01,0.01,0.01,0.01,0.01,0.01,0.01,0.01,0.01,0.01,0.01,0.01,0.01,0.01,0.01,0.01,0.01,0.01,0.01,0.01,0.01,0.01,0.01,0.08,0.01,0.01,0.02,0.01,0.01,0.01,0.01,0.01,0.01,0.01,0.01,0.02,0.01,0.01,0.01,0.01,0.01,0.01,0.01,0.01,0.01,0.01,0.01,0.01,0.01,0.01,0.01,0.01,0.01,0.01,0.01,0.01,0.01,0.03,0.01,0.04,0.01,0.01,0.01,0.01,0.01,0.01,0.01,0.01,0.01,0.01,0.01,0.01,0.01,0.01,0.01,0.01,0.01,0.01,0.01,0.01,0.01,0.01,0.01,0.01,0.01,0.01,0.01,0.01,0.01,0.01,0.01,0.01,0.01,0.01,0.01,0.01,0.01,0.01,0.01,0.01,0.01,0.01,0.01,0.01,0.01,0.01,0.01,0.01,0.01,0.01,0.01,0.01,0.01,0.01,0.01,0.01,0.01,0.01,0.01,0.01,0.01,0.01,0.01,0.01,0.01,0.01,0.01,0.01,0.01,0.01,0.01,0.01,0.01,0.01,0.01,0.01,0.01,0.01,0.01,0.01,0.01,0.01,0.02,0.01,0.01,0.01,0.01,0.01,0.01,0.01,0.01,0.01,0.01,0.01,0.01,0.01,0.01,0.01,0.01,0.01,0.01,0.01,0.01,0.01,0.01,0.01,0.01,0.01,0.01,0.01,0.01,0.01,0.01,0.01,0.01,0.01,0.01,0.02,0.01,0.01,0.01,0.01,0.02,0.01,0.20,0.01,0.48,0.37,0.45,0.03,0.33,0.01,0.01,0.02,0.01,0.01,0.01,0.01,0.01,0.01,0.01,0.01,0.01,0.01,0.01,0.01,0.01,0.49,0.01,0.51,0.20,0.53,0.46,0.03,0.45,0.52,0.52,0.01,0.01,0.09,0.01,0.01,0.01,0.10,0.01,0.10,0.33,0.14,0.44,0.17,0.01,0.32,0.45,0.06,0.01,0.25,0.19,0.04,0.29,0.10,0.10,0.42,0.41,0.08,0.20,0.51,0.49,0.34,0.53,0.51,0.40,0.79,0.79,0.79,0.53,0.53,0.53,0.52,0.40,0.48,0.52,0.44,0.34,0.06,0.03,0.01,0.02,0.01,0.01,0.01,0.01,0.01,0.01,0.01,0.01,0.01,0.01,0.01,0.01,0.01,0.01,0.01,0.01,0.03,0.01,0.01,0.01,0.01,0.01,0.01,0.01,0.46,0.52,0.37,0.48,0.53,0.52,0.13,0.03,0.38,0.01,0.07,0.01,0.03,0.02,0.01,0.30,0.01,0.01,0.01,0.01,0.03,0.01,0.01,0.01,0.02,0.01,0.29,0.01,0.05,0.38,0.02,0.01,0.02,0.03,0.01,0.01,0.01,0.01,0.01,0.01,0.01,0.01,0.01,0.01,0.01,0.01,0.01,0.01,0.01,0.01,0.01,0.01,0.01,0.01,0.01,0.01,0.01,0.01,0.01,0.01,0.14,0.01,0.01,0.01,0.01,0.01,0.17,0.09,0.01,0.12,0.06,0.01,0.07,0.01,0.01,0.01,0.04,0.01,0.01,0.01,0.01,0.01,0.01,0.01,0.01,0.01,0.01,0.01,0.01,0.01,0.01,0.01,0.01,0.03,0.01,0.01,0.04,0.01,0.01,0.01,0.01,0.01,0.01,0.01,0.01,0.01,0.01,0.01,0.01,0.01,0.01,0.07
    #Input sequence length: 163
#Number of binding residues predicted by HomPRIP: 15
#Number of binding residues predicted by SVM: 38
#Number of binding residues predicted by RNABindRPlus: 18
>Q2FZ25_7BGD_b
sequence:							M,K,Q,L,L,E,A,G,V,H,F,G,H,Q,T,R,R,W,N,P,K,M,K,K,Y,I,F,T,E,R,N,G,I,Y,I,I,D,L,Q,K,T,V,K,K,V,D,E,A,Y,N,F,L,K,Q,V,S,E,D,G,G,Q,V,L,F,V,G,T,K,K,Q,A,Q,E,S,V,K,S,E,A,E,R,A,G,Q,F,Y,I,N,Q,R,W,L,G,G,L,K,F,L,G,G,I,R,D,M,K,S,M,P,Q,A,L,F,V,V,D,P,R,K,E,P,I,V,G,I,V,D,T,N,C,D,P,D,E,I,D,Y,V,I,P,A,N,D,D,A,I,R,A,V,K,L,L,T,A,K,M,A,D,A,I,L,E,G,Q
Prediction from HomPRIP:			0,0,0,0,0,0,0,0,0,0,0,0,0,0,0,1,1,1,0,1,1,0,0,0,0,0,0,0,1,0,1,0,0,0,0,0,0,0,0,0,0,0,0,0,0,0,0,0,0,0,0,0,0,0,0,0,0,0,0,0,0,0,0,0,0,0,0,0,0,0,0,0,0,0,0,0,0,0,0,0,0,0,0,0,0,0,0,0,1,1,0,1,1,1,0,1,1,0,0,0,0,0,0,0,0,0,0,0,0,0,0,0,0,0,0,0,0,1,0,0,0,0,0,0,0,0,0,0,0,0,0,0,0,0,0,0,0,0,0,0,0,0,0,0,0,0,0,0,0,0,0,0,0,0,0,0,0,0,0,0,0,0,0
Predicted score from HomPRIP:		0.00,0.00,0.00,0.00,0.00,0.00,0.00,0.00,0.00,0.00,0.00,0.00,0.00,0.00,0.00,1.00,1.00,1.00,0.00,1.00,1.00,0.00,0.00,0.00,0.00,0.00,0.00,0.00,1.00,0.00,1.00,0.00,0.00,0.00,0.00,0.00,0.00,0.00,0.00,0.00,0.00,0.00,0.00,0.00,0.00,0.00,0.00,0.00,0.00,0.00,0.00,0.00,0.00,0.00,0.00,0.00,0.00,0.00,0.00,0.00,0.00,0.00,0.00,0.00,0.00,0.00,0.00,0.00,0.00,0.00,0.00,0.00,0.00,0.00,0.00,0.00,0.00,0.00,0.00,0.00,0.00,0.00,0.00,0.00,0.00,0.00,0.00,0.00,1.00,1.00,0.00,1.00,1.00,1.00,0.00,1.00,1.00,0.00,0.00,0.00,0.00,0.00,0.00,0.00,0.00,0.00,0.00,0.00,0.00,0.00,0.00,0.00,0.00,0.00,0.00,0.00,0.00,1.00,0.00,0.00,0.00,0.00,0.00,0.00,0.00,0.00,0.00,0.00,0.00,0.00,0.00,0.00,0.00,0.00,0.00,0.00,0.00,0.00,0.00,0.00,0.00,0.00,0.00,0.00,0.00,0.00,0.00,0.00,0.00,0.00,0.00,0.00,0.00,0.00,0.00,0.00,0.00,0.00,0.00,0.00,0.00,0.00,0.00
Prediction from SVM:				0,1,0,0,0,0,0,0,0,1,1,1,1,1,1,1,1,1,1,1,1,1,0,1,1,0,0,0,0,0,1,0,0,1,0,0,1,0,0,1,0,0,0,0,0,0,0,0,0,0,0,0,0,0,0,0,0,0,0,0,0,0,0,0,0,1,1,1,1,0,0,0,0,0,0,0,0,0,0,0,1,0,0,0,0,1,0,1,1,1,1,1,1,1,0,1,1,0,0,0,0,0,0,0,0,0,0,0,0,0,0,0,0,0,0,0,0,0,0,0,0,0,0,0,0,0,0,0,0,0,0,0,0,0,0,0,0,0,0,0,0,0,0,0,0,1,0,0,0,0,0,0,0,1,0,0,0,0,0,0,0,0,1
Predicted score from SVM:			0.00,0.74,0.20,0.00,0.00,0.06,0.20,0.48,0.13,0.97,0.94,0.89,0.99,0.98,0.99,1.00,1.00,1.00,0.91,1.00,1.00,0.68,0.28,0.97,0.80,0.00,0.01,0.01,0.02,0.38,0.86,0.01,0.46,0.61,0.01,0.00,0.78,0.10,0.27,0.67,0.13,0.01,0.36,0.04,0.00,0.00,0.05,0.00,0.03,0.11,0.01,0.00,0.03,0.00,0.00,0.00,0.00,0.00,0.01,0.01,0.00,0.00,0.01,0.06,0.07,0.80,0.96,0.98,0.64,0.48,0.08,0.03,0.02,0.01,0.00,0.00,0.02,0.01,0.00,0.02,0.73,0.13,0.19,0.26,0.35,0.94,0.07,0.72,0.81,1.00,0.98,0.84,0.97,0.98,0.39,0.99,0.97,0.08,0.36,0.34,0.03,0.10,0.02,0.00,0.01,0.07,0.00,0.01,0.01,0.00,0.00,0.00,0.00,0.00,0.00,0.13,0.48,0.05,0.17,0.10,0.00,0.00,0.02,0.00,0.00,0.00,0.07,0.01,0.00,0.00,0.00,0.00,0.00,0.00,0.00,0.00,0.00,0.00,0.01,0.00,0.06,0.05,0.23,0.01,0.13,0.72,0.00,0.00,0.04,0.05,0.00,0.01,0.40,0.92,0.01,0.03,0.07,0.00,0.00,0.00,0.01,0.00,0.86
Prediction from RNABindRPlus:		0,0,0,0,0,0,0,0,0,0,0,0,1,1,1,1,1,1,0,1,1,0,0,0,0,0,0,0,0,0,1,0,0,0,0,0,0,0,0,0,0,0,0,0,0,0,0,0,0,0,0,0,0,0,0,0,0,0,0,0,0,0,0,0,0,0,0,1,0,0,0,0,0,0,0,0,0,0,0,0,0,0,0,0,0,0,0,0,1,1,1,1,1,1,0,1,1,0,0,0,0,0,0,0,0,0,0,0,0,0,0,0,0,0,0,0,0,0,0,0,0,0,0,0,0,0,0,0,0,0,0,0,0,0,0,0,0,0,0,0,0,0,0,0,0,0,0,0,0,0,0,0,0,0,0,0,0,0,0,0,0,0,0
Predicted score from RNABindRPlus:	0.01,0.21,0.01,0.01,0.01,0.01,0.01,0.06,0.01,0.49,0.45,0.38,0.52,0.51,0.52,0.98,0.98,0.98,0.41,0.98,0.98,0.16,0.02,0.49,0.27,0.01,0.01,0.01,0.16,0.04,0.95,0.01,0.06,0.12,0.01,0.01,0.25,0.01,0.02,0.16,0.01,0.01,0.03,0.01,0.01,0.01,0.01,0.01,0.01,0.01,0.01,0.01,0.01,0.01,0.01,0.01,0.01,0.01,0.01,0.01,0.01,0.01,0.01,0.01,0.01,0.27,0.48,0.51,0.14,0.06,0.01,0.01,0.01,0.01,0.01,0.01,0.01,0.01,0.01,0.01,0.20,0.01,0.01,0.02,0.03,0.45,0.01,0.19,0.94,0.98,0.51,0.95,0.97,0.97,0.04,0.98,0.97,0.01,0.03,0.03,0.01,0.01,0.01,0.01,0.01,0.01,0.01,0.01,0.01,0.01,0.01,0.01,0.01,0.01,0.01,0.01,0.06,0.19,0.01,0.01,0.01,0.01,0.01,0.01,0.01,0.01,0.01,0.01,0.01,0.01,0.01,0.01,0.01,0.01,0.01,0.01,0.01,0.01,0.01,0.01,0.01,0.01,0.02,0.01,0.01,0.19,0.01,0.01,0.01,0.01,0.01,0.01,0.04,0.42,0.01,0.01,0.01,0.01,0.01,0.01,0.01,0.01,0.34
    #Input sequence length: 689
#Number of binding residues predicted by HomPRIP: 0
#Number of binding residues predicted by SVM: 235
#Number of binding residues predicted by RNABindRPlus: 158
>Q2FZ32_AF_A
sequence:							M,A,D,N,L,V,I,V,E,S,P,A,K,A,K,T,I,E,K,Y,L,G,K,K,Y,K,V,I,A,S,M,G,H,V,R,D,L,P,R,S,Q,M,G,V,D,T,E,D,N,Y,E,P,K,Y,I,T,I,R,G,K,G,P,V,V,K,E,L,K,K,H,A,K,K,A,K,N,V,F,L,A,S,D,P,D,R,E,G,E,A,I,A,W,H,L,S,K,I,L,E,L,E,D,S,K,E,N,R,V,V,F,N,E,I,T,K,D,A,V,K,E,S,F,K,N,P,R,E,I,E,M,N,L,V,D,A,Q,Q,A,R,R,I,L,D,R,L,V,G,Y,N,I,S,P,V,L,W,K,K,V,K,K,G,L,S,A,G,R,V,Q,S,V,A,L,R,L,V,I,D,R,E,N,E,I,R,N,F,K,P,E,E,Y,W,T,I,E,G,E,F,R,Y,K,K,S,K,F,N,A,K,F,L,H,Y,K,N,K,P,F,K,L,K,T,K,K,D,V,E,K,I,T,A,A,L,D,G,D,Q,F,E,I,T,N,V,T,K,K,E,K,T,R,N,P,A,N,P,F,T,T,S,T,L,Q,Q,E,A,A,R,K,L,N,F,K,A,R,K,T,M,M,V,A,Q,Q,L,Y,E,G,I,D,L,K,K,Q,G,T,I,G,L,I,T,Y,M,R,T,D,S,T,R,I,S,D,T,A,K,V,E,A,K,Q,Y,I,T,D,K,Y,G,E,S,Y,T,S,K,R,K,A,S,G,K,Q,G,D,Q,D,A,H,E,A,I,R,P,S,S,T,M,R,T,P,D,D,M,K,S,F,L,T,K,D,Q,Y,R,L,Y,K,L,I,W,E,R,F,V,A,S,Q,M,A,P,A,I,L,D,T,V,S,L,D,I,T,Q,G,D,I,K,F,R,A,N,G,Q,T,I,K,F,K,G,F,M,T,L,Y,V,E,T,K,D,D,S,D,S,E,K,E,N,K,L,P,K,L,E,Q,G,D,K,V,T,A,T,Q,I,E,P,A,Q,H,Y,T,Q,P,P,P,R,Y,T,E,A,R,L,V,K,T,L,E,E,L,K,I,G,R,P,S,T,Y,A,P,T,I,D,T,I,Q,K,R,N,Y,V,K,L,E,S,K,R,F,V,P,T,E,L,G,E,I,V,H,E,Q,V,K,E,Y,F,P,E,I,I,D,V,E,F,T,V,N,M,E,T,L,L,D,K,I,A,E,G,D,I,T,W,R,K,V,I,D,G,F,F,S,S,F,K,Q,D,V,E,R,A,E,E,E,M,E,K,I,E,I,K,D,E,P,A,G,E,D,C,E,I,C,G,S,P,M,V,I,K,M,G,R,Y,G,K,F,M,A,C,S,N,F,P,D,C,R,N,T,K,A,I,V,K,S,I,G,V,K,C,P,K,C,N,D,G,D,V,V,E,R,K,S,K,K,N,R,V,F,Y,G,C,S,K,Y,P,E,C,D,F,I,S,W,D,K,P,I,G,R,D,C,P,K,C,N,Q,Y,L,V,E,N,K,K,G,K,T,T,Q,V,I,C,S,N,C,D,Y,K,E,A,A,Q,K
Prediction from HomPRIP:			?????????????????????????????????????????????????????????????????????????????????????????????????????????????????????????????????????????????????????????????????????????????????????????????????????????????????????????????????????????????????????????????????????????????????????????????????????????????????????????????????????????????????????????????????????????????????????????????????????????????????????????????????????????????????????????????????????????????????????????????????????????????????????????????????????????????????????????????????????????????????????????????????????????????????????????????????????????????????????????????????????????????????????????????????????????????????
Predicted score from HomPRIP:		?,?,?,?,?,?,?,?,?,?,?,?,?,?,?,?,?,?,?,?,?,?,?,?,?,?,?,?,?,?,?,?,?,?,?,?,?,?,?,?,?,?,?,?,?,?,?,?,?,?,?,?,?,?,?,?,?,?,?,?,?,?,?,?,?,?,?,?,?,?,?,?,?,?,?,?,?,?,?,?,?,?,?,?,?,?,?,?,?,?,?,?,?,?,?,?,?,?,?,?,?,?,?,?,?,?,?,?,?,?,?,?,?,?,?,?,?,?,?,?,?,?,?,?,?,?,?,?,?,?,?,?,?,?,?,?,?,?,?,?,?,?,?,?,?,?,?,?,?,?,?,?,?,?,?,?,?,?,?,?,?,?,?,?,?,?,?,?,?,?,?,?,?,?,?,?,?,?,?,?,?,?,?,?,?,?,?,?,?,?,?,?,?,?,?,?,?,?,?,?,?,?,?,?,?,?,?,?,?,?,?,?,?,?,?,?,?,?,?,?,?,?,?,?,?,?,?,?,?,?,?,?,?,?,?,?,?,?,?,?,?,?,?,?,?,?,?,?,?,?,?,?,?,?,?,?,?,?,?,?,?,?,?,?,?,?,?,?,?,?,?,?,?,?,?,?,?,?,?,?,?,?,?,?,?,?,?,?,?,?,?,?,?,?,?,?,?,?,?,?,?,?,?,?,?,?,?,?,?,?,?,?,?,?,?,?,?,?,?,?,?,?,?,?,?,?,?,?,?,?,?,?,?,?,?,?,?,?,?,?,?,?,?,?,?,?,?,?,?,?,?,?,?,?,?,?,?,?,?,?,?,?,?,?,?,?,?,?,?,?,?,?,?,?,?,?,?,?,?,?,?,?,?,?,?,?,?,?,?,?,?,?,?,?,?,?,?,?,?,?,?,?,?,?,?,?,?,?,?,?,?,?,?,?,?,?,?,?,?,?,?,?,?,?,?,?,?,?,?,?,?,?,?,?,?,?,?,?,?,?,?,?,?,?,?,?,?,?,?,?,?,?,?,?,?,?,?,?,?,?,?,?,?,?,?,?,?,?,?,?,?,?,?,?,?,?,?,?,?,?,?,?,?,?,?,?,?,?,?,?,?,?,?,?,?,?,?,?,?,?,?,?,?,?,?,?,?,?,?,?,?,?,?,?,?,?,?,?,?,?,?,?,?,?,?,?,?,?,?,?,?,?,?,?,?,?,?,?,?,?,?,?,?,?,?,?,?,?,?,?,?,?,?,?,?,?,?,?,?,?,?,?,?,?,?,?,?,?,?,?,?,?,?,?,?,?,?,?,?,?,?,?,?,?,?,?,?,?,?,?,?,?,?,?,?,?,?,?,?,?,?,?,?,?,?,?,?,?,?,?,?,?,?,?,?,?,?,?,?,?,?,?,?,?,?,?,?,?,?,?,?,?,?,?,?,?,?,?,?,?,?,?,?,?,?,?,?,?,?,?,?,?,?,?,?,?,?,?,?,?,?,?,?,?,?,?,?,?,?,?,?,?,?,?,?,?,?,?,?,?,?,?,?,?,?,?,?,?,?
Prediction from SVM:				0,0,0,0,0,0,0,0,0,1,1,1,1,1,1,1,1,1,1,1,1,1,1,1,1,1,0,1,1,1,1,1,1,1,1,1,0,1,1,1,1,0,0,0,0,0,0,0,0,0,0,0,0,0,0,0,0,1,1,1,1,1,1,0,1,1,0,1,1,0,0,1,1,0,1,1,0,1,0,1,1,1,0,0,1,0,0,0,0,0,0,0,0,0,0,0,0,0,0,0,0,0,0,0,0,0,0,0,0,0,0,0,0,0,1,0,0,0,0,0,0,0,0,0,0,1,0,0,0,0,0,0,0,0,0,1,1,0,1,1,0,0,0,1,0,0,1,1,1,0,1,1,1,0,1,1,1,1,1,1,1,1,1,1,1,1,1,1,1,1,0,0,1,0,0,0,0,0,0,0,0,0,0,0,0,0,0,0,0,0,0,0,0,0,0,0,0,0,0,0,0,0,0,0,0,0,0,0,1,0,0,0,0,0,0,0,0,0,0,0,0,0,0,0,0,0,0,0,0,0,0,0,0,0,0,0,0,0,0,0,0,0,0,1,0,1,1,1,1,1,1,0,1,1,1,1,1,1,0,1,1,1,0,1,1,1,1,1,1,1,1,1,1,1,1,1,0,0,1,0,0,0,0,0,0,0,0,0,0,0,0,0,0,1,0,0,1,1,1,1,1,1,1,1,1,0,0,0,0,0,0,0,0,0,0,0,0,0,0,0,0,0,0,0,0,0,0,0,0,0,0,0,0,0,0,0,1,1,1,1,0,1,1,1,0,1,0,1,1,0,0,0,0,0,0,0,0,0,0,0,0,0,1,0,0,0,1,0,0,0,0,0,0,0,1,0,0,0,1,1,0,0,0,0,0,0,0,0,0,0,0,0,0,0,0,0,0,0,0,0,1,0,0,1,1,1,0,1,1,1,0,1,0,0,0,0,0,0,0,0,0,0,0,0,0,0,0,0,0,0,0,0,0,0,0,0,0,0,0,0,0,0,0,0,0,0,0,0,0,0,0,1,1,1,1,1,1,1,1,0,0,1,0,0,1,0,0,0,0,0,0,0,1,1,1,1,1,1,1,1,1,0,0,1,0,1,1,1,0,1,0,0,0,0,0,0,0,0,0,0,0,0,0,0,0,0,0,0,0,0,0,0,0,0,0,0,0,0,0,0,0,0,0,0,0,0,0,0,0,0,0,0,0,0,0,0,0,0,0,0,0,0,0,0,0,0,0,0,0,0,0,0,0,0,0,0,0,0,0,0,0,0,0,0,0,0,0,0,0,0,0,0,0,0,0,0,0,0,0,0,0,1,1,0,0,1,1,0,1,1,1,0,1,1,1,1,1,1,1,1,1,1,1,1,1,1,1,0,0,0,0,0,0,0,0,1,0,1,1,1,1,1,1,1,1,1,1,1,1,1,1,1,1,1,1,1,1,1,1,1,1,1,0,0,0,0,0,0,0,0,0,0,0,0,0,1,0,0,1,1,1,1,1,1,1,0,1,1,1,0,1,1,1,1,1,0,0,0,1,1,1,0,1,0,0,0,0,0,0
Predicted score from SVM:			0.00,0.00,0.00,0.00,0.00,0.00,0.00,0.01,0.45,0.63,0.91,0.99,1.00,0.99,1.00,1.00,0.97,0.96,1.00,1.00,0.98,1.00,1.00,1.00,1.00,0.99,0.20,0.84,0.96,0.99,0.96,1.00,1.00,0.66,1.00,0.88,0.37,0.97,0.91,0.90,0.84,0.10,0.10,0.03,0.01,0.00,0.01,0.07,0.02,0.05,0.01,0.01,0.06,0.02,0.02,0.47,0.28,1.00,0.97,1.00,0.91,0.99,0.68,0.32,1.00,0.73,0.28,0.81,0.77,0.28,0.39,0.94,0.75,0.04,0.77,0.74,0.08,0.83,0.31,0.54,0.74,0.92,0.47,0.36,0.76,0.04,0.02,0.05,0.15,0.01,0.00,0.19,0.07,0.00,0.01,0.11,0.00,0.00,0.00,0.00,0.00,0.00,0.00,0.00,0.00,0.00,0.08,0.00,0.00,0.01,0.09,0.06,0.04,0.41,0.73,0.11,0.03,0.01,0.04,0.06,0.04,0.31,0.20,0.24,0.10,0.83,0.04,0.01,0.08,0.06,0.44,0.03,0.18,0.47,0.45,0.99,0.78,0.05,0.99,1.00,0.02,0.04,0.42,0.98,0.05,0.11,0.75,0.97,0.93,0.28,1.00,0.99,0.78,0.28,0.98,1.00,0.99,0.68,1.00,1.00,0.99,0.93,1.00,1.00,1.00,1.00,0.68,0.96,0.95,0.86,0.17,0.02,0.99,0.07,0.01,0.01,0.01,0.04,0.01,0.04,0.01,0.01,0.06,0.01,0.02,0.01,0.00,0.06,0.01,0.36,0.17,0.09,0.02,0.03,0.01,0.07,0.00,0.00,0.15,0.05,0.13,0.03,0.14,0.04,0.10,0.11,0.49,0.22,0.68,0.30,0.07,0.12,0.05,0.07,0.04,0.04,0.03,0.01,0.09,0.10,0.04,0.01,0.00,0.00,0.00,0.00,0.00,0.00,0.00,0.01,0.00,0.00,0.00,0.00,0.00,0.01,0.01,0.00,0.02,0.03,0.03,0.07,0.10,0.91,0.12,0.97,0.97,0.96,0.96,0.93,0.96,0.47,0.93,0.98,0.83,0.99,0.99,0.94,0.37,0.90,0.98,0.84,0.42,0.83,1.00,1.00,0.82,1.00,1.00,1.00,0.95,1.00,1.00,0.99,0.99,0.70,0.08,0.36,0.74,0.09,0.00,0.09,0.00,0.00,0.00,0.00,0.00,0.03,0.07,0.20,0.16,0.02,0.06,0.87,0.48,0.26,0.98,0.99,0.64,0.85,0.97,0.95,0.72,0.90,0.98,0.01,0.06,0.02,0.01,0.01,0.08,0.01,0.03,0.01,0.01,0.00,0.01,0.00,0.00,0.00,0.02,0.05,0.01,0.00,0.01,0.04,0.01,0.00,0.01,0.03,0.06,0.00,0.04,0.10,0.12,0.38,0.95,0.80,0.90,0.87,0.47,0.99,0.73,0.52,0.37,0.90,0.10,0.79,0.57,0.04,0.02,0.07,0.04,0.00,0.00,0.01,0.00,0.02,0.03,0.03,0.02,0.04,0.78,0.02,0.12,0.23,0.63,0.03,0.23,0.48,0.04,0.10,0.10,0.23,0.73,0.23,0.03,0.05,0.61,0.75,0.11,0.12,0.19,0.06,0.01,0.00,0.02,0.03,0.00,0.01,0.00,0.01,0.00,0.00,0.00,0.00,0.01,0.01,0.04,0.47,0.91,0.10,0.45,0.83,0.97,0.99,0.44,0.99,0.89,0.65,0.43,0.90,0.13,0.27,0.04,0.48,0.00,0.00,0.00,0.02,0.00,0.00,0.00,0.00,0.00,0.00,0.00,0.00,0.01,0.00,0.00,0.01,0.01,0.00,0.00,0.01,0.00,0.00,0.00,0.00,0.00,0.00,0.00,0.00,0.00,0.00,0.02,0.38,0.16,0.40,0.17,0.58,0.93,0.83,0.99,0.92,0.99,0.94,0.86,0.03,0.09,0.98,0.01,0.01,0.57,0.04,0.00,0.01,0.21,0.27,0.12,0.05,0.60,1.00,0.88,0.93,1.00,1.00,0.81,0.98,0.95,0.06,0.46,0.54,0.19,0.78,0.99,0.98,0.19,0.57,0.06,0.15,0.03,0.12,0.09,0.16,0.26,0.07,0.00,0.01,0.18,0.16,0.00,0.01,0.00,0.00,0.00,0.00,0.00,0.00,0.00,0.00,0.00,0.00,0.00,0.00,0.00,0.00,0.00,0.00,0.00,0.00,0.01,0.01,0.00,0.00,0.00,0.00,0.00,0.00,0.00,0.00,0.00,0.00,0.00,0.00,0.00,0.00,0.00,0.01,0.00,0.00,0.01,0.00,0.00,0.01,0.02,0.11,0.14,0.06,0.01,0.04,0.00,0.01,0.01,0.00,0.00,0.01,0.00,0.00,0.00,0.00,0.00,0.00,0.00,0.00,0.00,0.00,0.01,0.00,0.01,0.02,0.01,0.00,0.00,0.00,0.00,0.04,0.01,0.05,0.04,0.63,0.80,0.17,0.04,0.75,0.81,0.12,0.94,0.98,0.84,0.34,0.87,0.78,0.69,0.81,0.99,0.87,0.95,0.96,0.91,0.94,0.95,0.98,0.97,0.75,0.97,0.35,0.14,0.00,0.46,0.13,0.02,0.32,0.17,0.54,0.41,0.93,0.91,0.74,0.97,0.82,0.74,0.97,0.75,0.88,0.97,1.00,1.00,0.98,1.00,1.00,1.00,1.00,0.77,0.95,1.00,0.89,0.89,0.66,0.98,0.87,0.13,0.04,0.02,0.03,0.03,0.02,0.10,0.37,0.16,0.21,0.26,0.06,0.07,0.90,0.21,0.36,0.91,0.94,0.56,0.55,0.63,0.58,0.50,0.19,0.81,0.87,0.90,0.44,0.94,0.98,0.79,0.50,0.95,0.45,0.49,0.38,0.87,0.96,0.79,0.43,0.69,0.09,0.00,0.00,0.00,0.00,0.00
Prediction from RNABindRPlus:		0,0,0,0,0,0,0,0,0,0,1,1,1,1,1,1,1,1,1,1,1,1,1,1,1,1,0,0,1,1,1,1,1,0,1,1,0,1,1,1,0,0,0,0,0,0,0,0,0,0,0,0,0,0,0,0,0,1,1,1,1,1,0,0,1,0,0,0,0,0,0,1,0,0,0,0,0,0,0,0,0,1,0,0,0,0,0,0,0,0,0,0,0,0,0,0,0,0,0,0,0,0,0,0,0,0,0,0,0,0,0,0,0,0,0,0,0,0,0,0,0,0,0,0,0,0,0,0,0,0,0,0,0,0,0,1,0,0,1,1,0,0,0,1,0,0,0,1,1,0,1,1,0,0,1,1,1,0,1,1,1,1,1,1,1,1,0,1,1,1,0,0,1,0,0,0,0,0,0,0,0,0,0,0,0,0,0,0,0,0,0,0,0,0,0,0,0,0,0,0,0,0,0,0,0,0,0,0,0,0,0,0,0,0,0,0,0,0,0,0,0,0,0,0,0,0,0,0,0,0,0,0,0,0,0,0,0,0,0,0,0,0,0,1,0,1,1,1,1,1,1,0,1,1,0,1,1,1,0,1,1,0,0,0,1,1,0,1,1,1,1,1,1,1,1,0,0,0,0,0,0,0,0,0,0,0,0,0,0,0,0,0,0,1,0,0,1,1,0,1,1,1,0,1,1,0,0,0,0,0,0,0,0,0,0,0,0,0,0,0,0,0,0,0,0,0,0,0,0,0,0,0,0,0,0,0,1,0,1,1,0,1,0,0,0,1,0,0,0,0,0,0,0,0,0,0,0,0,0,0,0,0,0,0,0,0,0,0,0,0,0,0,0,0,0,0,0,0,0,0,0,0,0,0,0,0,0,0,0,0,0,0,0,0,0,0,0,0,0,0,1,0,0,0,1,1,0,1,1,0,0,1,0,0,0,0,0,0,0,0,0,0,0,0,0,0,0,0,0,0,0,0,0,0,0,0,0,0,0,0,0,0,0,0,0,0,0,0,0,0,0,0,1,0,1,1,1,1,1,0,0,1,0,0,0,0,0,0,0,0,0,0,0,1,1,1,1,1,0,1,1,0,0,0,0,0,1,1,0,0,0,0,0,0,0,0,0,0,0,0,0,0,0,0,0,0,0,0,0,0,0,0,0,0,0,0,0,0,0,0,0,0,0,0,0,0,0,0,0,0,0,0,0,0,0,0,0,0,0,0,0,0,0,0,0,0,0,0,0,0,0,0,0,0,0,0,0,0,0,0,0,0,0,0,0,0,0,0,0,0,0,0,0,0,0,0,0,0,0,0,0,0,0,0,0,0,0,0,1,1,0,0,1,0,0,0,1,1,1,1,1,1,1,1,1,0,1,0,0,0,0,0,0,0,0,0,0,1,1,0,1,0,0,1,0,1,1,1,1,1,1,1,1,1,0,1,1,1,1,0,1,1,0,0,0,0,0,0,0,0,0,0,0,0,0,1,0,0,1,1,0,0,0,0,0,0,0,1,1,0,1,1,0,0,1,0,0,0,1,1,0,0,0,0,0,0,0,0,0
Predicted score from RNABindRPlus:	0.01,0.01,0.01,0.01,0.01,0.01,0.01,0.01,0.10,0.23,0.58,0.69,0.70,0.69,0.70,0.70,0.66,0.65,0.70,0.70,0.68,0.70,0.70,0.70,0.70,0.69,0.03,0.49,0.65,0.69,0.65,0.70,0.70,0.26,0.70,0.54,0.07,0.66,0.58,0.57,0.49,0.02,0.02,0.01,0.01,0.01,0.01,0.01,0.01,0.01,0.01,0.01,0.01,0.01,0.01,0.11,0.04,0.70,0.66,0.70,0.58,0.69,0.28,0.05,0.70,0.34,0.04,0.45,0.39,0.04,0.07,0.62,0.37,0.01,0.39,0.35,0.01,0.47,0.05,0.15,0.35,0.60,0.11,0.06,0.38,0.01,0.01,0.01,0.02,0.01,0.01,0.03,0.01,0.01,0.01,0.02,0.01,0.01,0.01,0.01,0.01,0.01,0.01,0.01,0.01,0.01,0.01,0.01,0.01,0.01,0.02,0.01,0.01,0.08,0.34,0.02,0.01,0.01,0.01,0.01,0.01,0.05,0.03,0.03,0.02,0.47,0.01,0.01,0.01,0.01,0.09,0.01,0.02,0.11,0.10,0.69,0.41,0.01,0.69,0.70,0.01,0.01,0.09,0.68,0.01,0.02,0.37,0.66,0.61,0.04,0.70,0.69,0.41,0.04,0.68,0.70,0.69,0.28,0.70,0.70,0.69,0.61,0.70,0.70,0.70,0.70,0.28,0.65,0.64,0.52,0.02,0.01,0.69,0.01,0.01,0.01,0.01,0.01,0.01,0.01,0.01,0.01,0.01,0.01,0.01,0.01,0.01,0.01,0.01,0.06,0.02,0.02,0.01,0.01,0.01,0.01,0.01,0.01,0.02,0.01,0.02,0.01,0.02,0.01,0.02,0.02,0.12,0.03,0.28,0.05,0.01,0.02,0.01,0.01,0.01,0.01,0.01,0.01,0.02,0.02,0.01,0.01,0.01,0.01,0.01,0.01,0.01,0.01,0.01,0.01,0.01,0.01,0.01,0.01,0.01,0.01,0.01,0.01,0.01,0.01,0.01,0.01,0.02,0.58,0.02,0.66,0.66,0.65,0.65,0.61,0.65,0.11,0.61,0.68,0.47,0.69,0.69,0.62,0.07,0.57,0.68,0.49,0.09,0.47,0.70,0.70,0.46,0.70,0.70,0.70,0.64,0.70,0.70,0.69,0.69,0.31,0.01,0.06,0.35,0.02,0.01,0.02,0.01,0.01,0.01,0.01,0.01,0.01,0.01,0.03,0.02,0.01,0.01,0.53,0.11,0.04,0.68,0.69,0.24,0.50,0.66,0.64,0.33,0.57,0.68,0.01,0.01,0.01,0.01,0.01,0.01,0.01,0.01,0.01,0.01,0.01,0.01,0.01,0.01,0.01,0.01,0.01,0.01,0.01,0.01,0.01,0.01,0.01,0.01,0.01,0.01,0.01,0.01,0.02,0.02,0.07,0.64,0.43,0.57,0.53,0.11,0.69,0.34,0.14,0.07,0.57,0.02,0.42,0.18,0.01,0.01,0.01,0.01,0.01,0.01,0.01,0.01,0.01,0.01,0.01,0.01,0.01,0.41,0.01,0.02,0.03,0.23,0.01,0.03,0.11,0.01,0.02,0.02,0.03,0.34,0.03,0.01,0.01,0.21,0.37,0.02,0.02,0.03,0.01,0.01,0.01,0.01,0.01,0.01,0.01,0.01,0.01,0.01,0.01,0.01,0.01,0.01,0.01,0.01,0.11,0.58,0.02,0.10,0.47,0.66,0.69,0.09,0.69,0.56,0.25,0.09,0.57,0.02,0.04,0.01,0.11,0.01,0.01,0.01,0.01,0.01,0.01,0.01,0.01,0.01,0.01,0.01,0.01,0.01,0.01,0.01,0.01,0.01,0.01,0.01,0.01,0.01,0.01,0.01,0.01,0.01,0.01,0.01,0.01,0.01,0.01,0.01,0.07,0.02,0.08,0.02,0.19,0.61,0.47,0.69,0.60,0.69,0.62,0.52,0.01,0.02,0.68,0.01,0.01,0.18,0.01,0.01,0.01,0.03,0.04,0.02,0.01,0.20,0.70,0.54,0.61,0.70,0.70,0.45,0.68,0.64,0.01,0.10,0.15,0.03,0.41,0.69,0.68,0.03,0.18,0.01,0.02,0.01,0.02,0.02,0.02,0.04,0.01,0.01,0.01,0.02,0.02,0.01,0.01,0.01,0.01,0.01,0.01,0.01,0.01,0.01,0.01,0.01,0.01,0.01,0.01,0.01,0.01,0.01,0.01,0.01,0.01,0.01,0.01,0.01,0.01,0.01,0.01,0.01,0.01,0.01,0.01,0.01,0.01,0.01,0.01,0.01,0.01,0.01,0.01,0.01,0.01,0.01,0.01,0.01,0.01,0.01,0.02,0.02,0.01,0.01,0.01,0.01,0.01,0.01,0.01,0.01,0.01,0.01,0.01,0.01,0.01,0.01,0.01,0.01,0.01,0.01,0.01,0.01,0.01,0.01,0.01,0.01,0.01,0.01,0.01,0.01,0.01,0.01,0.01,0.01,0.23,0.43,0.02,0.01,0.37,0.45,0.02,0.62,0.68,0.49,0.06,0.53,0.41,0.29,0.45,0.69,0.53,0.64,0.65,0.58,0.62,0.64,0.68,0.66,0.37,0.66,0.06,0.02,0.01,0.10,0.02,0.01,0.05,0.02,0.15,0.08,0.61,0.58,0.35,0.66,0.46,0.35,0.66,0.37,0.54,0.66,0.70,0.70,0.68,0.70,0.70,0.70,0.70,0.39,0.64,0.70,0.56,0.56,0.26,0.68,0.53,0.02,0.01,0.01,0.01,0.01,0.01,0.02,0.07,0.02,0.03,0.04,0.01,0.01,0.57,0.03,0.06,0.58,0.62,0.17,0.16,0.23,0.19,0.13,0.03,0.45,0.53,0.57,0.09,0.62,0.68,0.42,0.13,0.64,0.10,0.12,0.07,0.53,0.65,0.42,0.09,0.29,0.02,0.01,0.01,0.01,0.01,0.01
    #Input sequence length: 294
#Number of binding residues predicted by HomPRIP: 13
#Number of binding residues predicted by SVM: 72
#Number of binding residues predicted by RNABindRPlus: 33
>Q2FZ39_AF_A
sequence:							M,V,I,Q,W,Y,P,G,H,M,A,K,A,K,R,E,V,S,E,Q,L,K,K,V,D,V,V,F,E,L,V,D,A,R,I,P,Y,S,S,R,N,P,M,I,D,E,V,I,N,Q,K,P,R,V,V,I,L,N,K,K,D,M,S,N,L,N,E,M,S,K,W,E,Q,F,F,I,D,K,G,Y,Y,P,V,S,V,D,A,K,H,G,K,N,L,K,K,V,E,A,A,A,I,K,A,T,A,E,K,F,E,R,E,K,A,K,G,L,K,P,R,A,I,R,A,M,I,V,G,I,P,N,V,G,K,S,T,L,I,N,K,L,A,K,R,S,I,A,Q,T,G,N,K,P,G,V,T,K,Q,Q,Q,W,I,K,V,G,N,A,L,Q,L,L,D,T,P,G,I,L,W,P,K,F,E,D,E,E,V,G,K,K,L,S,L,T,G,A,I,K,D,S,I,V,H,L,D,E,V,A,I,Y,G,L,N,F,L,I,Q,N,D,L,A,R,L,K,S,H,Y,N,I,E,V,P,E,D,A,E,I,I,A,W,F,D,A,I,G,K,K,R,G,L,I,R,R,G,N,E,I,D,Y,E,A,V,I,E,L,I,I,Y,D,I,R,N,A,K,I,G,N,Y,C,F,D,I,F,K,D,M,T,E,E,L,A,N,D,A,N,N
Prediction from HomPRIP:			?,?,?,?,?,?,?,?,?,?,?,?,?,?,?,?,?,?,?,?,?,?,?,?,?,?,?,?,?,?,?,?,?,?,?,?,?,?,?,?,?,?,?,?,?,?,?,?,?,?,?,?,?,?,?,?,?,?,?,?,?,?,?,?,?,?,?,?,?,?,?,?,?,?,?,?,?,?,?,?,?,?,?,?,?,?,?,0,0,0,0,0,0,0,0,0,0,0,0,0,0,0,0,?,?,?,?,0,0,0,0,0,0,0,0,0,0,0,0,0,0,0,0,0,0,0,0,0,0,0,0,0,0,0,0,?,0,0,0,0,0,0,0,0,0,0,0,0,0,0,0,0,1,0,1,1,1,0,0,0,0,0,0,0,0,0,0,0,0,0,0,0,0,0,0,0,0,0,0,0,0,0,?,?,?,0,0,0,0,0,0,0,0,1,1,1,1,0,0,0,0,0,0,0,?,?,0,0,0,0,0,0,1,1,1,1,0,0,0,0,1,?,?,?,?,?,?,?,?,?,?,?,?,?,?,?,?,?,?,?,?,?,?,?,?,?,?,?,?,?,?,?,?,?,?,?,?,?,?,?,?,?,?,?,?,?,?,?,?,?,?,?,?,?,?,?,?,?,?,?,?,?,?,?,?,?,?,?,?,?,?,?,?,?
Predicted score from HomPRIP:		?,?,?,?,?,?,?,?,?,?,?,?,?,?,?,?,?,?,?,?,?,?,?,?,?,?,?,?,?,?,?,?,?,?,?,?,?,?,?,?,?,?,?,?,?,?,?,?,?,?,?,?,?,?,?,?,?,?,?,?,?,?,?,?,?,?,?,?,?,?,?,?,?,?,?,?,?,?,?,?,?,?,?,?,?,?,?,0.00,0.00,0.00,0.00,0.00,0.00,0.00,0.00,0.00,0.00,0.00,0.00,0.00,0.00,0.00,0.00,?,?,?,?,0.00,0.00,0.00,0.00,0.00,0.00,0.00,0.00,0.00,0.00,0.00,0.00,0.00,0.00,0.00,0.00,0.00,0.00,0.00,0.00,0.00,0.00,0.00,0.00,0.00,0.00,0.00,0.00,?,0.00,0.00,0.00,0.00,0.00,0.00,0.00,0.00,0.00,0.00,0.00,0.00,0.00,0.00,0.00,0.00,0.75,0.00,1.00,1.00,1.00,0.00,0.00,0.25,0.00,0.25,0.00,0.00,0.00,0.00,0.00,0.00,0.00,0.00,0.00,0.00,0.00,0.00,0.00,0.00,0.00,0.00,0.00,0.00,0.00,0.00,?,?,?,0.00,0.00,0.00,0.00,0.00,0.00,0.25,0.00,1.00,1.00,1.00,1.00,0.00,0.00,0.00,0.00,0.00,0.00,0.00,?,?,0.00,0.00,0.00,0.00,0.00,0.00,1.00,1.00,1.00,1.00,0.00,0.00,0.00,0.00,1.00,?,?,?,?,?,?,?,?,?,?,?,?,?,?,?,?,?,?,?,?,?,?,?,?,?,?,?,?,?,?,?,?,?,?,?,?,?,?,?,?,?,?,?,?,?,?,?,?,?,?,?,?,?,?,?,?,?,?,?,?,?,?,?,?,?,?,?,?,?,?,?,?,?
Prediction from SVM:				0,1,0,1,1,1,1,1,1,1,1,1,1,1,1,0,0,0,0,0,0,0,0,0,0,0,0,0,0,0,0,0,0,0,0,0,0,0,1,1,0,1,0,0,0,0,0,0,0,0,0,0,0,0,0,0,0,1,1,1,1,0,0,0,0,0,0,0,0,0,0,0,0,0,0,0,0,0,0,0,0,0,0,0,0,1,0,1,1,1,1,0,0,1,0,0,0,0,0,0,0,0,0,0,0,0,0,0,0,1,0,0,1,1,1,0,1,1,1,1,0,1,1,0,0,0,1,0,1,1,1,1,1,1,1,1,1,1,1,1,1,1,1,1,0,1,1,1,1,1,1,1,1,1,1,1,1,1,1,1,0,1,0,0,0,0,0,0,0,0,0,0,0,0,0,0,0,0,0,0,0,0,0,0,0,0,0,0,0,0,0,0,0,0,0,0,0,0,0,0,0,0,0,0,0,0,0,0,0,0,0,0,0,0,0,0,0,0,0,0,0,0,0,0,0,0,0,0,0,0,0,0,0,0,0,0,0,0,0,0,0,0,0,0,0,1,0,0,1,0,1,0,0,0,0,0,0,0,0,0,0,0,0,0,0,0,0,0,0,0,0,0,0,0,0,0,0,0,0,0,0,0,0,0,0,0,0,0,0,0,0,0,0,0
Predicted score from SVM:			0.10,0.80,0.49,1.00,1.00,1.00,0.99,1.00,1.00,0.98,0.99,1.00,0.57,0.85,0.57,0.08,0.00,0.04,0.04,0.05,0.00,0.15,0.00,0.00,0.00,0.00,0.00,0.00,0.00,0.01,0.00,0.01,0.09,0.45,0.00,0.32,0.24,0.40,0.60,0.67,0.30,0.61,0.33,0.02,0.11,0.04,0.01,0.00,0.11,0.36,0.14,0.07,0.30,0.02,0.02,0.08,0.14,0.79,0.84,0.91,0.76,0.13,0.07,0.19,0.06,0.08,0.02,0.05,0.01,0.02,0.06,0.03,0.01,0.08,0.06,0.03,0.03,0.05,0.03,0.07,0.08,0.07,0.10,0.18,0.34,0.73,0.24,0.94,0.78,0.92,0.90,0.39,0.13,0.50,0.15,0.00,0.01,0.03,0.02,0.01,0.16,0.05,0.08,0.06,0.06,0.11,0.48,0.14,0.06,0.64,0.10,0.12,0.51,0.85,0.77,0.47,0.95,0.95,0.99,0.88,0.44,0.97,0.62,0.25,0.03,0.14,0.73,0.01,0.87,0.94,0.86,0.99,0.99,0.98,1.00,0.88,0.63,0.99,0.99,0.80,0.85,0.98,0.97,0.82,0.36,0.90,0.99,0.99,0.98,0.99,1.00,1.00,1.00,1.00,1.00,1.00,0.99,0.99,0.84,0.65,0.32,0.57,0.04,0.04,0.43,0.01,0.00,0.01,0.01,0.00,0.01,0.36,0.12,0.25,0.11,0.07,0.08,0.08,0.26,0.01,0.01,0.01,0.00,0.00,0.01,0.12,0.01,0.14,0.12,0.10,0.01,0.08,0.12,0.29,0.02,0.06,0.03,0.00,0.00,0.00,0.00,0.00,0.00,0.01,0.00,0.00,0.00,0.01,0.00,0.00,0.01,0.01,0.01,0.01,0.02,0.12,0.04,0.01,0.01,0.01,0.00,0.00,0.00,0.01,0.00,0.00,0.00,0.00,0.00,0.00,0.00,0.00,0.00,0.00,0.00,0.00,0.00,0.00,0.00,0.00,0.00,0.02,0.01,0.26,0.44,0.74,0.40,0.12,0.56,0.48,0.90,0.31,0.47,0.26,0.12,0.15,0.12,0.02,0.38,0.01,0.00,0.01,0.00,0.00,0.00,0.12,0.01,0.02,0.17,0.10,0.03,0.38,0.08,0.17,0.18,0.04,0.07,0.01,0.01,0.01,0.00,0.00,0.00,0.00,0.00,0.00,0.00,0.00,0.00,0.00,0.00,0.00,0.00,0.00
Prediction from RNABindRPlus:		0,0,0,1,1,1,1,1,1,1,1,1,0,1,0,0,0,0,0,0,0,0,0,0,0,0,0,0,0,0,0,0,0,0,0,0,0,0,0,0,0,0,0,0,0,0,0,0,0,0,0,0,0,0,0,0,0,0,0,1,0,0,0,0,0,0,0,0,0,0,0,0,0,0,0,0,0,0,0,0,0,0,0,0,0,0,0,0,0,0,0,0,0,0,0,0,0,0,0,0,0,0,0,0,0,0,0,0,0,0,0,0,0,0,0,0,0,0,1,0,0,0,0,0,0,0,0,0,0,0,0,1,1,1,1,1,0,1,1,0,0,1,0,0,0,0,1,1,1,1,1,1,1,1,1,1,1,1,0,0,0,0,0,0,0,0,0,0,0,0,0,0,0,0,0,0,0,0,0,0,0,0,0,0,0,0,0,0,0,0,0,0,0,0,0,0,0,0,0,0,0,0,0,0,0,0,0,0,0,0,0,0,0,0,0,0,0,0,0,0,0,0,0,0,0,0,0,0,0,0,0,0,0,0,0,0,0,0,0,0,0,0,0,0,0,0,0,0,0,0,1,0,0,0,0,0,0,0,0,0,0,0,0,0,0,0,0,0,0,0,0,0,0,0,0,0,0,0,0,0,0,0,0,0,0,0,0,0,0,0,0,0,0,0
Predicted score from RNABindRPlus:	0.02,0.43,0.12,0.70,0.70,0.70,0.69,0.70,0.70,0.68,0.69,0.70,0.18,0.50,0.18,0.01,0.01,0.01,0.01,0.01,0.01,0.02,0.01,0.01,0.01,0.01,0.01,0.01,0.01,0.01,0.01,0.01,0.02,0.10,0.01,0.05,0.03,0.08,0.20,0.27,0.05,0.21,0.05,0.01,0.02,0.01,0.01,0.01,0.02,0.06,0.02,0.01,0.05,0.01,0.01,0.01,0.02,0.42,0.49,0.58,0.38,0.02,0.01,0.03,0.01,0.01,0.01,0.01,0.01,0.01,0.01,0.01,0.01,0.01,0.01,0.01,0.01,0.01,0.01,0.01,0.01,0.01,0.02,0.02,0.06,0.34,0.03,0.45,0.25,0.42,0.40,0.04,0.01,0.07,0.01,0.01,0.01,0.01,0.01,0.01,0.01,0.01,0.01,0.01,0.01,0.02,0.11,0.01,0.01,0.14,0.01,0.01,0.07,0.33,0.24,0.06,0.46,0.46,0.52,0.37,0.05,0.49,0.12,0.02,0.01,0.01,0.20,0.01,0.36,0.45,0.34,0.52,0.52,0.51,0.53,0.54,0.13,0.52,0.52,0.27,0.33,0.51,0.49,0.30,0.03,0.40,0.52,0.52,0.51,0.52,0.53,0.53,0.95,0.53,0.98,0.98,0.98,0.52,0.32,0.29,0.03,0.21,0.01,0.01,0.05,0.01,0.01,0.01,0.01,0.01,0.01,0.03,0.01,0.02,0.01,0.01,0.01,0.01,0.02,0.01,0.01,0.01,0.01,0.01,0.01,0.01,0.01,0.01,0.01,0.01,0.01,0.02,0.01,0.46,0.16,0.19,0.17,0.01,0.01,0.01,0.01,0.01,0.01,0.01,0.01,0.01,0.01,0.01,0.01,0.01,0.01,0.01,0.15,0.15,0.16,0.25,0.01,0.01,0.01,0.01,0.15,0.01,0.01,0.01,0.01,0.01,0.01,0.01,0.01,0.01,0.01,0.01,0.01,0.01,0.01,0.01,0.01,0.01,0.01,0.01,0.01,0.01,0.01,0.04,0.09,0.35,0.08,0.02,0.17,0.11,0.57,0.05,0.11,0.04,0.02,0.02,0.02,0.01,0.07,0.01,0.01,0.01,0.01,0.01,0.01,0.02,0.01,0.01,0.02,0.02,0.01,0.07,0.01,0.02,0.02,0.01,0.01,0.01,0.01,0.01,0.01,0.01,0.01,0.01,0.01,0.01,0.01,0.01,0.01,0.01,0.01,0.01,0.01,0.01
    #Input sequence length: 245
#Number of binding residues predicted by HomPRIP: 0
#Number of binding residues predicted by SVM: 42
#Number of binding residues predicted by RNABindRPlus: 14
>Q2FZ43_AF_A
sequence:							M,K,I,D,Y,L,T,L,F,P,E,M,F,D,G,V,L,N,H,S,I,M,K,R,A,Q,E,N,N,K,L,Q,I,N,T,V,N,F,R,D,Y,A,I,N,K,H,N,Q,V,D,D,Y,P,Y,G,G,G,Q,G,M,V,L,K,P,E,P,V,F,N,A,M,E,D,L,D,V,T,E,Q,T,R,V,I,L,M,C,P,Q,G,E,P,F,S,H,Q,K,A,V,E,L,S,K,A,D,H,I,V,F,I,C,G,H,Y,E,G,Y,D,E,R,I,R,T,H,L,V,T,D,E,I,S,M,G,D,Y,V,L,T,G,G,E,L,P,A,M,T,M,T,D,A,I,V,R,L,I,P,G,V,L,G,N,E,Q,S,H,Q,D,D,S,F,S,D,G,L,L,E,F,P,Q,Y,T,R,P,R,E,F,K,G,L,T,V,P,D,V,L,L,S,G,N,H,A,N,I,D,A,W,R,H,E,Q,K,L,I,R,T,Y,N,K,R,P,D,L,I,E,K,Y,P,L,T,N,A,D,K,Q,I,L,E,R,Y,K,I,G,L,K,K,G
Prediction from HomPRIP:			?????????????????????????????????????????????????????????????????????????????????????????????????????????????????????????????????????????????????????????????????????????????????????????????????????????????????????????????????????????????????????
Predicted score from HomPRIP:		?,?,?,?,?,?,?,?,?,?,?,?,?,?,?,?,?,?,?,?,?,?,?,?,?,?,?,?,?,?,?,?,?,?,?,?,?,?,?,?,?,?,?,?,?,?,?,?,?,?,?,?,?,?,?,?,?,?,?,?,?,?,?,?,?,?,?,?,?,?,?,?,?,?,?,?,?,?,?,?,?,?,?,?,?,?,?,?,?,?,?,?,?,?,?,?,?,?,?,?,?,?,?,?,?,?,?,?,?,?,?,?,?,?,?,?,?,?,?,?,?,?,?,?,?,?,?,?,?,?,?,?,?,?,?,?,?,?,?,?,?,?,?,?,?,?,?,?,?,?,?,?,?,?,?,?,?,?,?,?,?,?,?,?,?,?,?,?,?,?,?,?,?,?,?,?,?,?,?,?,?,?,?,?,?,?,?,?,?,?,?,?,?,?,?,?,?,?,?,?,?,?,?,?,?,?,?,?,?,?,?,?,?,?,?,?,?,?,?,?,?,?,?,?,?,?,?,?,?,?,?,?,?,?,?,?,?,?,?,?,?,?,?,?,?
Prediction from SVM:				0,1,0,0,0,0,0,0,0,0,0,0,0,0,0,0,0,0,0,0,0,0,0,1,0,0,0,0,0,0,0,0,0,0,0,0,0,0,1,0,0,0,0,0,1,1,0,1,0,0,0,1,1,1,1,1,1,1,1,0,0,0,0,0,0,0,0,0,0,0,0,0,0,0,0,0,0,0,0,0,0,0,0,0,0,1,1,1,0,1,0,0,0,0,0,0,0,0,0,0,0,0,0,0,0,0,0,0,0,0,0,1,0,0,0,0,0,0,0,0,0,0,0,0,0,0,0,0,0,0,0,0,0,0,0,0,0,0,0,0,0,0,0,0,0,0,0,0,0,0,0,1,0,0,0,0,0,0,0,0,0,0,0,0,0,0,0,0,0,0,0,0,0,0,0,1,1,1,1,1,1,1,0,0,0,0,0,0,0,0,0,0,0,1,0,1,1,1,1,0,0,0,0,0,1,1,1,1,1,1,0,0,1,1,0,0,1,1,0,0,0,0,0,0,0,0,0,0,0,0,0,0,0,0,0,0,0,0,0,0,0,0,0,0,0
Predicted score from SVM:			0.00,0.68,0.00,0.00,0.00,0.00,0.02,0.00,0.07,0.03,0.07,0.02,0.01,0.01,0.01,0.03,0.01,0.02,0.03,0.19,0.01,0.01,0.26,0.66,0.06,0.04,0.01,0.09,0.00,0.01,0.00,0.01,0.00,0.02,0.00,0.00,0.05,0.07,0.55,0.03,0.15,0.09,0.24,0.48,0.83,0.67,0.37,0.50,0.14,0.05,0.13,0.69,0.64,0.99,0.94,0.95,0.91,0.50,0.64,0.23,0.03,0.11,0.17,0.01,0.01,0.07,0.02,0.02,0.01,0.01,0.00,0.00,0.00,0.00,0.00,0.00,0.00,0.00,0.00,0.01,0.02,0.01,0.02,0.14,0.14,0.64,0.72,0.88,0.38,0.66,0.11,0.15,0.09,0.11,0.03,0.01,0.01,0.02,0.00,0.00,0.00,0.01,0.00,0.00,0.00,0.00,0.00,0.00,0.00,0.02,0.24,0.95,0.26,0.08,0.04,0.01,0.00,0.01,0.26,0.00,0.01,0.00,0.00,0.00,0.00,0.00,0.00,0.00,0.00,0.03,0.00,0.00,0.00,0.00,0.00,0.00,0.01,0.03,0.10,0.05,0.04,0.01,0.01,0.00,0.01,0.00,0.00,0.00,0.00,0.00,0.01,0.60,0.03,0.01,0.04,0.03,0.00,0.00,0.01,0.06,0.00,0.00,0.01,0.01,0.00,0.00,0.01,0.07,0.03,0.01,0.26,0.14,0.08,0.07,0.16,0.65,0.66,0.53,0.81,0.95,0.96,0.63,0.29,0.23,0.28,0.37,0.09,0.10,0.13,0.02,0.14,0.04,0.32,0.57,0.29,0.90,0.84,0.97,0.82,0.17,0.15,0.09,0.28,0.18,0.57,0.78,0.81,0.92,0.78,0.96,0.29,0.25,0.95,0.84,0.49,0.21,0.96,0.50,0.04,0.06,0.02,0.01,0.00,0.00,0.00,0.00,0.00,0.01,0.00,0.01,0.00,0.00,0.01,0.00,0.00,0.00,0.00,0.00,0.00,0.00,0.00,0.00,0.00,0.00,0.00
Prediction from RNABindRPlus:		0,0,0,0,0,0,0,0,0,0,0,0,0,0,0,0,0,0,0,0,0,0,0,0,0,0,0,0,0,0,0,0,0,0,0,0,0,0,0,0,0,0,0,0,0,0,0,0,0,0,0,0,0,1,1,1,1,0,0,0,0,0,0,0,0,0,0,0,0,0,0,0,0,0,0,0,0,0,0,0,0,0,0,0,0,0,0,1,0,0,0,0,0,0,0,0,0,0,0,0,0,0,0,0,0,0,0,0,0,0,0,1,0,0,0,0,0,0,0,0,0,0,0,0,0,0,0,0,0,0,0,0,0,0,0,0,0,0,0,0,0,0,0,0,0,0,0,0,0,0,0,0,0,0,0,0,0,0,0,0,0,0,0,0,0,0,0,0,0,0,0,0,0,0,0,0,0,0,0,1,1,0,0,0,0,0,0,0,0,0,0,0,0,0,0,1,0,1,0,0,0,0,0,0,0,0,0,1,0,1,0,0,1,0,0,0,1,0,0,0,0,0,0,0,0,0,0,0,0,0,0,0,0,0,0,0,0,0,0,0,0,0,0,0,0
Predicted score from RNABindRPlus:	0.01,0.28,0.01,0.01,0.01,0.01,0.01,0.01,0.01,0.01,0.01,0.01,0.01,0.01,0.01,0.01,0.01,0.01,0.01,0.03,0.01,0.01,0.04,0.26,0.01,0.01,0.01,0.02,0.01,0.01,0.01,0.01,0.01,0.01,0.01,0.01,0.01,0.01,0.16,0.01,0.02,0.02,0.03,0.11,0.47,0.27,0.07,0.13,0.02,0.01,0.02,0.29,0.24,0.69,0.62,0.64,0.58,0.13,0.24,0.03,0.01,0.02,0.02,0.01,0.01,0.01,0.01,0.01,0.01,0.01,0.01,0.01,0.01,0.01,0.01,0.01,0.01,0.01,0.01,0.01,0.01,0.01,0.01,0.02,0.02,0.24,0.33,0.54,0.07,0.26,0.02,0.02,0.02,0.02,0.01,0.01,0.01,0.01,0.01,0.01,0.01,0.01,0.01,0.01,0.01,0.01,0.01,0.01,0.01,0.01,0.03,0.64,0.04,0.01,0.01,0.01,0.01,0.01,0.04,0.01,0.01,0.01,0.01,0.01,0.01,0.01,0.01,0.01,0.01,0.01,0.01,0.01,0.01,0.01,0.01,0.01,0.01,0.01,0.02,0.01,0.01,0.01,0.01,0.01,0.01,0.01,0.01,0.01,0.01,0.01,0.01,0.20,0.01,0.01,0.01,0.01,0.01,0.01,0.01,0.01,0.01,0.01,0.01,0.01,0.01,0.01,0.01,0.01,0.01,0.01,0.04,0.02,0.01,0.01,0.02,0.25,0.26,0.15,0.45,0.64,0.65,0.23,0.04,0.03,0.04,0.07,0.02,0.02,0.02,0.01,0.02,0.01,0.05,0.18,0.04,0.57,0.49,0.66,0.46,0.02,0.02,0.02,0.04,0.02,0.18,0.41,0.45,0.60,0.41,0.65,0.04,0.04,0.64,0.49,0.12,0.03,0.65,0.13,0.01,0.01,0.01,0.01,0.01,0.01,0.01,0.01,0.01,0.01,0.01,0.01,0.01,0.01,0.01,0.01,0.01,0.01,0.01,0.01,0.01,0.01,0.01,0.01,0.01,0.01,0.01
    #Input sequence length: 455
#Number of binding residues predicted by HomPRIP: 23
#Number of binding residues predicted by SVM: 122
#Number of binding residues predicted by RNABindRPlus: 58
>Q2FZ46_AF_A
sequence:							M,A,F,E,G,L,S,E,R,L,Q,A,T,M,Q,K,M,R,G,K,G,K,L,T,E,A,D,I,K,I,M,M,R,E,V,R,L,A,L,L,E,A,D,V,N,F,K,V,V,K,E,F,I,K,T,V,S,E,R,A,L,G,S,D,V,M,Q,S,L,T,P,G,Q,Q,V,I,K,I,V,Q,D,E,L,T,Q,L,M,G,G,E,N,T,S,I,N,M,S,N,K,P,P,T,V,V,M,M,V,G,L,Q,G,A,G,K,T,T,T,A,G,K,L,A,L,L,M,R,K,K,Y,N,K,K,P,M,L,V,A,A,D,I,Y,R,P,A,A,I,N,Q,L,Q,T,V,G,K,Q,I,D,I,P,V,Y,S,E,G,D,Q,V,K,P,Q,Q,I,V,T,N,A,L,K,H,A,K,E,E,H,L,D,F,V,I,I,D,T,A,G,R,L,H,I,D,E,A,L,M,N,E,L,K,E,V,K,D,I,A,K,P,N,E,I,M,L,V,V,D,S,M,T,G,Q,D,A,V,N,V,A,E,S,F,D,D,Q,L,D,V,T,G,V,T,L,T,K,L,D,G,D,T,R,G,G,A,A,L,S,I,R,S,V,T,Q,K,P,I,K,F,V,G,M,S,E,K,L,D,G,L,E,L,F,H,P,E,R,M,A,S,R,I,L,G,M,G,D,V,L,S,L,I,E,K,A,Q,Q,D,V,D,Q,E,K,A,K,D,L,E,K,K,M,R,E,S,S,F,T,L,D,D,F,L,E,Q,L,D,Q,V,K,N,L,G,P,L,D,D,I,M,K,M,I,P,G,M,N,K,M,K,G,L,D,K,L,N,M,S,E,K,Q,I,D,H,I,K,A,I,I,Q,S,M,T,P,A,E,R,N,N,P,D,T,L,N,V,S,R,K,K,R,I,A,K,G,S,G,R,S,L,Q,E,V,N,R,L,M,K,Q,F,N,D,M,K,K,M,M,K,Q,F,T,G,G,G,K,G,K,K,G,K,R,N,Q,M,Q,N,M,L,K,G,M,N,L,P,F
Prediction from HomPRIP:			?,?,?,?,?,0,0,0,0,0,0,0,0,0,0,0,0,0,0,0,0,0,0,0,0,0,0,0,0,0,0,0,0,0,0,0,0,0,0,0,0,0,0,0,0,0,0,0,0,0,0,0,0,0,0,0,0,0,0,0,0,0,0,0,0,0,0,0,0,0,0,0,0,0,0,0,0,0,0,0,0,0,0,0,0,0,0,0,0,0,0,0,0,0,0,0,0,0,0,1,0,0,0,0,0,0,0,0,0,0,0,0,0,0,0,0,0,0,0,0,0,0,0,0,0,0,0,0,?,0,0,0,0,0,0,0,0,0,0,0,0,0,0,0,0,0,0,0,0,0,0,0,0,0,0,0,0,0,0,0,0,0,0,0,0,0,0,0,0,0,0,0,0,0,0,0,0,0,0,0,0,0,0,?,0,0,0,0,0,0,0,0,0,0,0,0,0,0,0,0,0,0,0,0,0,0,0,0,0,0,0,0,0,0,0,0,0,0,0,0,0,0,0,0,0,0,0,0,0,0,0,0,0,0,0,0,0,0,0,0,0,0,0,0,0,0,0,0,0,0,0,0,0,0,0,0,0,0,0,0,0,0,0,0,0,0,0,0,0,0,0,0,0,0,0,0,0,0,0,0,0,0,0,0,0,0,0,0,0,0,0,0,0,0,0,0,0,0,0,0,0,0,0,0,0,1,0,0,0,0,0,0,0,0,0,0,0,0,0,0,0,0,0,0,0,?,0,0,0,0,0,0,0,0,0,0,0,0,0,0,0,0,0,0,?,?,?,?,?,?,?,?,?,?,?,?,?,?,?,?,?,?,?,?,?,?,?,0,0,0,0,0,0,1,0,0,1,1,1,0,1,1,1,1,1,1,1,1,0,0,0,0,0,0,0,0,1,1,0,0,1,1,0,1,1,1,1,1,0,0,0,0,0,0,0,0,0,0,0,0,0,0,0,0,?,?,?,?,?,?,?,?,?,?,?,?,?,?,?,?,?,?,?,?,?,?,?,?,?,?,?,?,?,?,?
Predicted score from HomPRIP:		?,?,?,?,?,0.00,0.00,0.00,0.00,0.00,0.00,0.00,0.00,0.00,0.00,0.00,0.00,0.34,0.34,0.34,0.00,0.00,0.00,0.00,0.00,0.00,0.00,0.00,0.00,0.00,0.00,0.00,0.00,0.00,0.00,0.00,0.00,0.00,0.00,0.00,0.00,0.00,0.00,0.00,0.00,0.00,0.33,0.00,0.00,0.00,0.00,0.00,0.00,0.00,0.33,0.00,0.00,0.33,0.00,0.00,0.33,0.33,0.33,0.00,0.00,0.00,0.00,0.00,0.00,0.00,0.00,0.34,0.34,0.00,0.00,0.00,0.00,0.00,0.00,0.00,0.00,0.00,0.00,0.00,0.00,0.00,0.00,0.00,0.00,0.00,0.00,0.00,0.00,0.00,0.00,0.00,0.34,0.34,0.34,0.67,0.00,0.00,0.00,0.00,0.00,0.00,0.00,0.00,0.00,0.00,0.00,0.00,0.00,0.00,0.00,0.00,0.00,0.00,0.00,0.00,0.00,0.00,0.34,0.00,0.00,0.34,0.34,0.34,?,0.34,0.34,0.34,0.00,0.00,0.00,0.00,0.00,0.00,0.00,0.00,0.00,0.00,0.00,0.00,0.00,0.00,0.00,0.00,0.00,0.00,0.00,0.00,0.00,0.00,0.34,0.00,0.00,0.00,0.00,0.00,0.00,0.00,0.00,0.00,0.00,0.00,0.00,0.00,0.00,0.00,0.00,0.00,0.00,0.00,0.00,0.00,0.00,0.00,0.00,0.00,0.34,0.34,0.00,?,0.00,0.34,0.00,0.00,0.00,0.00,0.00,0.00,0.00,0.00,0.00,0.00,0.00,0.00,0.00,0.00,0.00,0.00,0.00,0.00,0.00,0.00,0.00,0.00,0.00,0.00,0.00,0.00,0.00,0.00,0.00,0.00,0.00,0.00,0.00,0.00,0.00,0.00,0.00,0.00,0.00,0.00,0.00,0.00,0.00,0.00,0.00,0.00,0.00,0.00,0.00,0.00,0.00,0.00,0.33,0.00,0.00,0.00,0.00,0.00,0.00,0.00,0.00,0.00,0.00,0.00,0.00,0.00,0.00,0.00,0.00,0.00,0.00,0.00,0.00,0.00,0.00,0.00,0.00,0.00,0.00,0.00,0.00,0.00,0.00,0.00,0.00,0.00,0.00,0.00,0.00,0.34,0.34,0.34,0.34,0.00,0.34,0.34,0.00,0.00,0.00,0.00,0.00,0.00,0.00,0.00,0.00,0.00,0.00,0.34,0.00,0.00,0.00,0.34,0.34,0.34,0.00,0.34,0.34,0.34,0.34,0.67,0.34,0.00,0.00,0.00,0.00,0.00,0.00,0.00,0.00,0.00,0.00,0.00,0.00,0.00,0.00,0.00,0.00,0.00,0.00,?,0.00,0.00,0.00,0.00,0.00,0.00,0.00,0.00,0.00,0.00,0.00,0.00,0.00,0.00,0.00,0.00,0.00,0.00,?,?,?,?,?,?,?,?,?,?,?,?,?,?,?,?,?,?,?,?,?,?,?,0.00,0.00,0.00,0.00,0.00,0.00,1.00,0.00,0.00,0.67,1.00,1.00,0.00,1.00,1.00,1.00,1.00,1.00,0.67,1.00,1.00,0.00,0.00,0.00,0.00,0.00,0.00,0.00,0.00,1.00,1.00,0.00,0.33,1.00,1.00,0.00,1.00,1.00,1.00,1.00,0.66,0.00,0.00,0.00,0.00,0.00,0.00,0.00,0.00,0.00,0.00,0.00,0.00,0.00,0.00,0.00,0.00,?,?,?,?,?,?,?,?,?,?,?,?,?,?,?,?,?,?,?,?,?,?,?,?,?,?,?,?,?,?,?
Prediction from SVM:				0,0,0,0,0,0,0,0,1,0,0,1,0,0,1,1,0,1,1,1,1,1,1,1,1,1,1,0,1,0,0,0,0,0,0,0,0,0,0,0,0,0,0,0,0,0,1,0,0,0,0,0,0,0,1,0,0,0,1,0,0,0,0,0,0,0,0,0,0,1,0,0,0,0,0,0,0,0,0,0,0,0,0,0,0,0,0,0,0,0,0,0,0,0,0,0,0,0,1,0,0,0,0,0,0,0,0,1,0,1,1,1,1,1,1,1,1,1,1,1,1,1,1,1,0,1,1,0,0,1,0,1,1,0,0,0,0,0,1,0,1,1,0,0,0,0,0,0,0,0,0,0,0,0,0,0,0,0,0,0,0,0,0,0,0,0,0,0,0,0,0,0,0,0,0,0,0,0,0,0,0,0,0,0,0,0,0,0,0,0,0,0,0,0,1,0,0,0,0,0,0,0,0,0,0,0,0,0,0,0,0,0,0,0,0,0,0,0,0,0,0,0,0,0,0,0,0,0,0,0,0,0,0,0,0,0,0,0,0,0,0,0,0,0,0,0,0,0,1,1,0,0,1,1,1,1,1,1,1,1,1,1,0,1,1,0,0,0,1,1,0,1,0,0,0,0,0,0,0,0,0,0,0,0,0,0,0,0,0,1,0,0,0,1,0,0,1,0,0,1,0,0,0,0,0,0,0,0,0,0,0,0,0,0,0,0,0,0,0,0,0,0,0,0,0,0,0,0,0,0,0,0,0,0,0,0,0,0,0,0,0,0,0,0,0,0,0,0,0,0,0,0,0,0,0,0,0,0,0,0,0,0,0,0,0,0,0,0,0,0,0,0,0,0,1,0,0,1,1,0,1,1,1,1,1,1,1,1,0,0,0,0,0,1,1,1,1,1,1,1,1,1,1,1,1,1,1,1,1,1,1,1,0,1,0,0,0,1,0,0,0,0,0,0,1,0,0,1,1,0,0,0,1,0,1,1,1,1,1,1,1,1,1,1,1,1,1,1,1,1,0,1,1,1,1
Predicted score from SVM:			0.01,0.00,0.22,0.02,0.41,0.10,0.02,0.45,0.96,0.01,0.21,0.57,0.06,0.01,0.61,0.87,0.10,0.83,0.99,0.99,0.59,0.99,0.76,0.95,0.95,0.95,0.75,0.04,0.81,0.07,0.01,0.02,0.21,0.02,0.00,0.10,0.00,0.15,0.01,0.09,0.03,0.03,0.05,0.01,0.07,0.24,0.59,0.04,0.06,0.43,0.07,0.06,0.02,0.26,0.75,0.02,0.46,0.04,0.68,0.04,0.01,0.07,0.13,0.25,0.01,0.03,0.33,0.23,0.06,0.52,0.21,0.45,0.44,0.05,0.01,0.00,0.03,0.00,0.00,0.01,0.00,0.01,0.00,0.00,0.01,0.02,0.10,0.01,0.00,0.00,0.00,0.00,0.01,0.00,0.02,0.01,0.04,0.12,0.77,0.17,0.30,0.19,0.05,0.08,0.03,0.04,0.04,0.57,0.46,0.91,0.85,0.98,0.99,1.00,0.99,1.00,1.00,0.91,0.98,1.00,0.56,0.92,0.98,0.95,0.22,0.73,0.83,0.40,0.33,0.55,0.47,0.88,0.73,0.07,0.35,0.34,0.14,0.47,0.59,0.12,0.97,0.66,0.11,0.36,0.06,0.04,0.16,0.04,0.00,0.01,0.00,0.00,0.00,0.01,0.00,0.00,0.00,0.00,0.02,0.00,0.04,0.01,0.00,0.00,0.01,0.01,0.00,0.05,0.01,0.01,0.05,0.02,0.08,0.08,0.18,0.10,0.01,0.00,0.11,0.00,0.01,0.00,0.01,0.01,0.01,0.00,0.00,0.01,0.00,0.00,0.07,0.13,0.15,0.35,0.59,0.01,0.01,0.00,0.00,0.00,0.00,0.00,0.00,0.00,0.00,0.00,0.00,0.00,0.00,0.00,0.00,0.00,0.00,0.01,0.00,0.00,0.00,0.00,0.00,0.00,0.00,0.00,0.01,0.02,0.04,0.23,0.08,0.45,0.10,0.03,0.01,0.01,0.00,0.00,0.00,0.00,0.00,0.00,0.00,0.01,0.00,0.00,0.00,0.00,0.01,0.10,0.01,0.00,0.78,0.88,0.03,0.48,0.90,0.97,0.99,1.00,0.99,0.98,0.93,0.95,0.56,0.91,0.32,0.97,0.56,0.03,0.07,0.07,0.92,0.66,0.15,0.87,0.14,0.02,0.06,0.02,0.01,0.04,0.02,0.00,0.00,0.00,0.00,0.00,0.00,0.07,0.02,0.00,0.07,0.71,0.02,0.01,0.13,0.62,0.01,0.02,0.69,0.13,0.08,0.82,0.02,0.00,0.05,0.01,0.00,0.00,0.03,0.00,0.00,0.00,0.00,0.00,0.00,0.00,0.00,0.01,0.00,0.00,0.00,0.00,0.00,0.00,0.01,0.00,0.00,0.00,0.00,0.00,0.01,0.01,0.00,0.01,0.01,0.00,0.00,0.00,0.00,0.00,0.00,0.00,0.00,0.02,0.04,0.01,0.13,0.01,0.01,0.00,0.23,0.00,0.00,0.07,0.19,0.00,0.03,0.22,0.03,0.03,0.22,0.03,0.15,0.01,0.00,0.01,0.00,0.00,0.01,0.02,0.06,0.01,0.43,0.06,0.01,0.12,0.97,0.00,0.30,0.99,0.99,0.05,1.00,1.00,0.99,0.99,0.98,0.93,0.90,0.99,0.21,0.01,0.03,0.01,0.00,0.91,1.00,0.99,1.00,1.00,1.00,0.91,1.00,1.00,0.98,1.00,1.00,1.00,1.00,1.00,0.97,0.68,0.93,0.56,0.07,0.78,0.21,0.03,0.03,0.93,0.18,0.07,0.07,0.03,0.00,0.41,0.89,0.02,0.01,0.89,0.89,0.06,0.37,0.49,0.57,0.40,0.79,0.96,0.67,0.85,0.85,0.88,0.82,0.89,0.91,0.56,0.70,0.76,0.72,0.57,0.85,0.88,0.44,0.96,0.62,0.97,0.68
Prediction from RNABindRPlus:		0,0,0,0,0,0,0,0,0,0,0,0,0,0,0,0,0,1,1,1,0,1,0,0,0,0,0,0,0,0,0,0,0,0,0,0,0,0,0,0,0,0,0,0,0,0,0,0,0,0,0,0,0,0,0,0,0,0,0,0,0,0,0,0,0,0,0,0,0,0,0,0,0,0,0,0,0,0,0,0,0,0,0,0,0,0,0,0,0,0,0,0,0,0,0,0,0,0,1,0,0,0,0,0,0,0,0,0,0,0,0,1,1,1,1,1,1,0,1,1,0,0,1,0,0,0,1,0,0,0,0,1,0,0,0,0,0,0,0,0,0,0,0,0,0,0,0,0,0,0,0,0,0,0,0,0,0,0,0,0,0,0,0,0,0,0,0,0,0,0,0,0,0,0,0,0,0,0,0,0,0,0,0,0,0,0,0,0,0,0,0,0,0,0,0,0,0,0,0,0,0,0,0,0,0,0,0,0,0,0,0,0,0,0,0,0,0,0,0,0,0,0,0,0,0,0,0,0,0,0,0,0,0,0,0,0,0,0,0,0,0,0,0,0,0,0,0,0,0,0,0,0,0,0,1,1,1,1,0,0,0,0,0,0,0,0,0,0,0,0,0,0,0,0,0,0,0,0,0,0,0,0,0,0,0,0,0,0,0,0,0,0,0,0,0,0,0,0,0,1,0,0,0,0,0,0,0,0,0,0,0,0,0,0,0,0,0,0,0,0,0,0,0,0,0,0,0,0,0,0,0,0,0,0,0,0,0,0,0,0,0,0,0,0,0,0,0,0,0,0,0,0,0,0,0,0,0,0,0,0,0,0,0,0,0,0,0,0,0,0,0,0,0,0,0,0,0,1,1,0,1,1,1,1,1,1,1,1,0,0,0,0,0,0,1,1,1,1,1,1,1,1,1,1,1,1,1,1,0,0,0,0,0,0,0,0,0,0,0,0,0,0,0,0,1,0,0,1,1,0,0,0,0,0,0,1,0,1,1,1,0,1,1,0,0,0,0,0,1,1,0,1,0,1,0
Predicted score from RNABindRPlus:	0.01,0.01,0.03,0.01,0.08,0.01,0.01,0.05,0.48,0.01,0.01,0.10,0.01,0.01,0.12,0.36,0.01,0.61,0.79,0.79,0.11,0.52,0.23,0.46,0.46,0.46,0.22,0.01,0.29,0.01,0.01,0.01,0.01,0.01,0.01,0.01,0.01,0.01,0.01,0.01,0.01,0.01,0.01,0.01,0.01,0.02,0.28,0.01,0.01,0.05,0.01,0.01,0.01,0.02,0.49,0.01,0.06,0.02,0.16,0.01,0.02,0.02,0.03,0.02,0.01,0.01,0.03,0.02,0.01,0.07,0.01,0.16,0.15,0.01,0.01,0.01,0.01,0.01,0.01,0.01,0.01,0.01,0.01,0.01,0.01,0.01,0.01,0.01,0.01,0.01,0.01,0.01,0.01,0.01,0.01,0.01,0.02,0.03,0.53,0.12,0.02,0.01,0.01,0.01,0.01,0.01,0.01,0.10,0.06,0.41,0.33,0.51,0.52,0.53,0.52,0.53,0.53,0.41,0.51,0.53,0.09,0.42,0.78,0.46,0.02,0.47,0.61,0.12,0.05,0.25,0.17,0.67,0.20,0.01,0.03,0.03,0.01,0.06,0.11,0.01,0.49,0.15,0.01,0.03,0.01,0.01,0.01,0.01,0.01,0.01,0.01,0.01,0.01,0.01,0.02,0.01,0.01,0.01,0.01,0.01,0.01,0.01,0.01,0.01,0.01,0.01,0.01,0.01,0.01,0.01,0.01,0.01,0.01,0.01,0.01,0.01,0.01,0.01,0.01,0.01,0.02,0.02,0.01,0.01,0.01,0.02,0.01,0.01,0.01,0.01,0.01,0.01,0.01,0.03,0.11,0.01,0.01,0.01,0.01,0.01,0.01,0.01,0.01,0.01,0.01,0.01,0.01,0.01,0.01,0.01,0.01,0.01,0.01,0.01,0.01,0.01,0.01,0.01,0.01,0.01,0.01,0.01,0.01,0.01,0.01,0.02,0.01,0.05,0.01,0.01,0.01,0.01,0.01,0.01,0.01,0.01,0.01,0.01,0.02,0.01,0.01,0.01,0.01,0.01,0.01,0.01,0.01,0.01,0.25,0.37,0.01,0.06,0.40,0.49,0.52,0.53,0.52,0.51,0.44,0.46,0.09,0.41,0.03,0.49,0.09,0.01,0.01,0.01,0.42,0.15,0.01,0.36,0.01,0.01,0.01,0.02,0.02,0.02,0.02,0.01,0.02,0.02,0.01,0.01,0.01,0.01,0.01,0.01,0.01,0.19,0.01,0.01,0.01,0.32,0.01,0.01,0.17,0.03,0.02,0.59,0.01,0.02,0.02,0.02,0.02,0.05,0.02,0.01,0.01,0.01,0.01,0.01,0.01,0.01,0.01,0.01,0.01,0.01,0.01,0.01,0.01,0.01,0.01,0.01,0.01,0.01,0.01,0.01,0.01,0.01,0.01,0.01,0.01,0.01,0.01,0.01,0.01,0.01,0.01,0.01,0.01,0.01,0.01,0.01,0.02,0.01,0.01,0.01,0.03,0.01,0.01,0.01,0.03,0.01,0.01,0.03,0.01,0.01,0.03,0.01,0.02,0.01,0.01,0.01,0.01,0.01,0.01,0.01,0.01,0.01,0.05,0.01,0.01,0.25,0.49,0.01,0.21,0.98,0.98,0.01,0.98,0.98,0.98,0.98,0.97,0.90,0.96,0.98,0.01,0.01,0.01,0.01,0.01,0.41,0.53,0.52,0.98,0.98,0.53,0.70,0.98,0.98,0.51,0.98,0.98,0.98,0.98,0.93,0.49,0.16,0.44,0.09,0.01,0.25,0.01,0.01,0.01,0.44,0.01,0.01,0.01,0.01,0.01,0.04,0.56,0.01,0.01,0.56,0.56,0.01,0.07,0.12,0.18,0.08,0.42,0.65,0.27,0.50,0.50,0.54,0.46,0.56,0.58,0.17,0.31,0.38,0.33,0.18,0.50,0.54,0.09,0.65,0.22,0.66,0.28
