    #Input sequence length: 115
#Number of binding residues predicted by HomPRIP: 0
#Number of binding residues predicted by SVM: 2
#Number of binding residues predicted by RNABindRPlus: 0
>Q2G200_AF_A
sequence:							M,R,L,Y,I,N,E,I,K,I,K,D,D,I,L,Y,C,Y,T,E,D,S,I,K,G,L,S,E,V,G,Q,M,L,V,D,S,D,N,Y,A,F,A,Y,T,L,D,D,G,K,A,Y,A,Y,L,I,F,V,Q,E,T,W,T,M,L,H,E,N,M,T,K,K,I,I,I,N,D,E,L,E,L,T,E,F,H,Q,E,L,T,Y,I,L,D,N,I,K,G,N,N,N,Y,G,K,E,F,V,A,T,V,E,E,T,F,D,I,E
Prediction from HomPRIP:			???????????????????????????????????????????????????????????????????????????????????????????????????????????????????
Predicted score from HomPRIP:		?,?,?,?,?,?,?,?,?,?,?,?,?,?,?,?,?,?,?,?,?,?,?,?,?,?,?,?,?,?,?,?,?,?,?,?,?,?,?,?,?,?,?,?,?,?,?,?,?,?,?,?,?,?,?,?,?,?,?,?,?,?,?,?,?,?,?,?,?,?,?,?,?,?,?,?,?,?,?,?,?,?,?,?,?,?,?,?,?,?,?,?,?,?,?,?,?,?,?,?,?,?,?,?,?,?,?,?,?,?,?,?,?,?,?
Prediction from SVM:				0,1,0,0,0,0,0,0,0,0,0,0,0,0,0,0,0,0,0,0,0,0,0,0,0,0,0,0,0,0,0,0,0,0,0,0,0,0,0,0,0,0,0,0,0,0,0,0,0,0,0,0,0,0,0,0,0,0,0,0,0,0,0,0,0,0,0,0,0,0,0,0,0,0,0,0,0,0,0,0,0,0,0,0,0,0,0,0,0,0,0,0,0,0,0,0,0,0,0,1,0,0,0,0,0,0,0,0,0,0,0,0,0,0,0
Predicted score from SVM:			0.01,0.73,0.01,0.02,0.00,0.01,0.01,0.00,0.01,0.01,0.02,0.01,0.01,0.01,0.00,0.01,0.00,0.01,0.00,0.00,0.00,0.00,0.00,0.00,0.01,0.00,0.01,0.00,0.01,0.01,0.14,0.02,0.01,0.05,0.15,0.16,0.04,0.07,0.05,0.04,0.01,0.00,0.02,0.00,0.00,0.00,0.00,0.01,0.00,0.00,0.01,0.00,0.01,0.01,0.02,0.01,0.06,0.09,0.04,0.04,0.08,0.10,0.03,0.01,0.10,0.03,0.00,0.03,0.00,0.00,0.00,0.00,0.00,0.00,0.00,0.00,0.01,0.00,0.00,0.00,0.01,0.01,0.00,0.01,0.00,0.00,0.00,0.00,0.00,0.00,0.00,0.00,0.01,0.00,0.01,0.05,0.25,0.02,0.36,0.59,0.11,0.04,0.00,0.00,0.00,0.00,0.00,0.00,0.00,0.00,0.00,0.00,0.00,0.00,0.00
Prediction from RNABindRPlus:		0,0,0,0,0,0,0,0,0,0,0,0,0,0,0,0,0,0,0,0,0,0,0,0,0,0,0,0,0,0,0,0,0,0,0,0,0,0,0,0,0,0,0,0,0,0,0,0,0,0,0,0,0,0,0,0,0,0,0,0,0,0,0,0,0,0,0,0,0,0,0,0,0,0,0,0,0,0,0,0,0,0,0,0,0,0,0,0,0,0,0,0,0,0,0,0,0,0,0,0,0,0,0,0,0,0,0,0,0,0,0,0,0,0,0
Predicted score from RNABindRPlus:	0.01,0.34,0.01,0.01,0.01,0.01,0.01,0.01,0.01,0.01,0.01,0.01,0.01,0.01,0.01,0.01,0.01,0.01,0.01,0.01,0.01,0.01,0.01,0.01,0.01,0.01,0.01,0.01,0.01,0.01,0.02,0.01,0.01,0.01,0.02,0.02,0.01,0.01,0.01,0.01,0.01,0.01,0.01,0.01,0.01,0.01,0.01,0.01,0.01,0.01,0.01,0.01,0.01,0.01,0.01,0.01,0.01,0.02,0.01,0.01,0.01,0.02,0.01,0.01,0.02,0.01,0.01,0.01,0.01,0.01,0.01,0.01,0.01,0.01,0.01,0.01,0.01,0.01,0.01,0.01,0.01,0.01,0.01,0.01,0.01,0.01,0.01,0.01,0.01,0.01,0.01,0.01,0.01,0.01,0.01,0.01,0.04,0.01,0.06,0.19,0.02,0.01,0.01,0.01,0.01,0.01,0.01,0.01,0.01,0.01,0.01,0.01,0.01,0.01,0.01
    #Input sequence length: 312
#Number of binding residues predicted by HomPRIP: 0
#Number of binding residues predicted by SVM: 46
#Number of binding residues predicted by RNABindRPlus: 6
>Q2G223_AF_A
sequence:							M,A,L,F,L,Q,P,V,F,K,D,R,I,W,G,G,H,A,L,K,A,F,N,Y,D,I,P,N,E,T,T,G,E,C,W,A,I,S,A,H,P,N,G,P,N,T,I,I,N,G,P,Y,K,D,M,T,L,D,Q,L,W,S,Q,H,R,E,L,F,D,N,D,S,R,D,S,F,P,L,L,T,K,V,L,D,A,N,D,K,L,S,V,Q,V,H,P,D,D,D,Y,A,L,K,H,E,G,E,L,G,K,T,E,C,W,Y,I,L,D,A,A,P,G,A,E,I,I,Y,G,V,H,A,H,N,K,Q,T,L,I,D,M,I,D,N,H,E,F,D,S,L,F,K,R,I,P,V,K,P,G,D,F,Y,Y,V,P,A,G,T,V,H,A,I,G,S,G,I,L,I,L,E,T,Q,Q,S,S,D,T,T,Y,R,I,Y,D,Y,D,R,R,D,Q,N,G,Q,L,R,D,L,H,L,E,Q,S,K,D,V,I,E,L,G,N,H,E,P,N,T,T,P,I,T,T,H,I,D,T,H,T,V,T,Q,F,V,D,N,Q,Y,F,A,V,Y,K,W,D,I,H,G,D,L,K,F,N,K,P,H,A,Y,C,L,V,T,I,I,D,G,T,G,T,L,T,V,N,D,K,H,Y,D,I,Q,K,G,S,S,F,I,L,T,T,E,D,E,D,I,H,F,V,G,N,I,S,A,I,V,S,H,P,G
Prediction from HomPRIP:			????????????????????????????????????????????????????????????????????????????????????????????????????????????????????????????????????????????????????????????????????????????????????????????????????????????????????????????????????????????????????????????????????????????????????????????????????????????????????????
Predicted score from HomPRIP:		?,?,?,?,?,?,?,?,?,?,?,?,?,?,?,?,?,?,?,?,?,?,?,?,?,?,?,?,?,?,?,?,?,?,?,?,?,?,?,?,?,?,?,?,?,?,?,?,?,?,?,?,?,?,?,?,?,?,?,?,?,?,?,?,?,?,?,?,?,?,?,?,?,?,?,?,?,?,?,?,?,?,?,?,?,?,?,?,?,?,?,?,?,?,?,?,?,?,?,?,?,?,?,?,?,?,?,?,?,?,?,?,?,?,?,?,?,?,?,?,?,?,?,?,?,?,?,?,?,?,?,?,?,?,?,?,?,?,?,?,?,?,?,?,?,?,?,?,?,?,?,?,?,?,?,?,?,?,?,?,?,?,?,?,?,?,?,?,?,?,?,?,?,?,?,?,?,?,?,?,?,?,?,?,?,?,?,?,?,?,?,?,?,?,?,?,?,?,?,?,?,?,?,?,?,?,?,?,?,?,?,?,?,?,?,?,?,?,?,?,?,?,?,?,?,?,?,?,?,?,?,?,?,?,?,?,?,?,?,?,?,?,?,?,?,?,?,?,?,?,?,?,?,?,?,?,?,?,?,?,?,?,?,?,?,?,?,?,?,?,?,?,?,?,?,?,?,?,?,?,?,?,?,?,?,?,?,?,?,?,?,?,?,?,?,?,?,?,?,?,?,?,?,?,?,?,?,?,?,?,?,?
Prediction from SVM:				0,1,0,0,0,0,0,0,0,1,0,1,0,1,1,1,1,1,0,0,0,0,0,0,0,0,0,0,0,0,0,0,0,0,0,0,0,1,1,1,1,1,1,1,1,1,0,0,1,0,0,1,1,0,1,0,0,0,0,0,0,0,0,0,0,0,0,0,0,0,0,0,0,0,0,0,0,0,0,0,1,0,0,0,0,0,0,0,0,0,0,0,0,1,0,0,0,0,1,0,0,0,0,0,0,0,0,0,1,1,0,0,0,0,0,0,0,0,0,0,0,0,0,0,0,0,0,0,1,0,1,0,1,0,0,0,0,0,0,0,0,0,0,0,0,0,0,0,0,0,1,0,0,0,1,0,1,0,1,1,0,0,0,0,1,0,0,0,0,0,0,0,0,0,0,0,0,0,0,0,0,1,1,1,1,1,1,1,0,0,0,0,0,0,0,0,0,0,0,0,0,1,0,0,0,0,0,0,0,0,0,0,0,0,0,0,0,0,0,0,0,0,0,0,0,0,0,0,0,0,0,0,0,0,0,0,0,0,0,0,0,0,0,0,0,0,0,0,0,0,0,0,0,0,0,0,0,0,0,0,0,0,0,0,0,0,0,0,0,0,0,0,0,0,0,0,0,0,0,0,0,0,0,0,0,0,0,0,0,0,0,0,0,0,0,0,0,0,0,0,0,0,0,0,0,0,0,0,0,1,1,1
Predicted score from SVM:			0.00,0.60,0.01,0.12,0.00,0.12,0.12,0.21,0.05,0.61,0.40,0.78,0.10,0.72,0.65,0.80,0.69,0.68,0.20,0.33,0.17,0.36,0.03,0.14,0.03,0.04,0.05,0.07,0.03,0.22,0.03,0.10,0.09,0.12,0.33,0.15,0.42,0.73,0.93,0.99,0.66,0.94,0.61,0.67,0.56,0.75,0.12,0.38,0.76,0.42,0.47,0.71,0.77,0.36,0.50,0.32,0.14,0.11,0.02,0.01,0.04,0.01,0.00,0.03,0.09,0.00,0.01,0.01,0.00,0.01,0.01,0.01,0.02,0.01,0.01,0.01,0.16,0.02,0.02,0.11,0.81,0.03,0.02,0.04,0.01,0.00,0.00,0.05,0.04,0.21,0.06,0.49,0.07,0.55,0.21,0.35,0.07,0.03,0.50,0.03,0.03,0.01,0.08,0.01,0.05,0.16,0.11,0.37,0.70,0.55,0.18,0.17,0.10,0.10,0.00,0.00,0.00,0.00,0.00,0.00,0.00,0.01,0.02,0.01,0.02,0.02,0.06,0.04,0.55,0.06,0.58,0.28,0.78,0.11,0.04,0.00,0.00,0.01,0.00,0.00,0.01,0.01,0.01,0.01,0.01,0.20,0.23,0.10,0.04,0.37,0.80,0.08,0.35,0.27,0.81,0.25,0.60,0.40,0.65,0.76,0.34,0.27,0.39,0.15,0.63,0.45,0.00,0.24,0.05,0.01,0.00,0.02,0.01,0.01,0.00,0.00,0.01,0.02,0.12,0.06,0.49,0.65,0.83,0.95,0.60,0.91,0.65,0.86,0.01,0.29,0.11,0.16,0.01,0.04,0.12,0.01,0.02,0.16,0.03,0.10,0.18,0.70,0.04,0.09,0.41,0.01,0.07,0.10,0.01,0.00,0.00,0.00,0.00,0.00,0.00,0.00,0.01,0.00,0.00,0.00,0.01,0.00,0.00,0.00,0.00,0.00,0.00,0.01,0.00,0.01,0.01,0.04,0.03,0.01,0.13,0.07,0.07,0.06,0.06,0.14,0.14,0.37,0.43,0.15,0.03,0.05,0.03,0.02,0.01,0.01,0.04,0.02,0.02,0.00,0.01,0.02,0.01,0.02,0.01,0.01,0.00,0.01,0.01,0.00,0.00,0.05,0.03,0.04,0.03,0.07,0.10,0.01,0.05,0.00,0.01,0.01,0.01,0.01,0.01,0.02,0.02,0.01,0.01,0.08,0.22,0.15,0.07,0.10,0.30,0.06,0.01,0.06,0.01,0.01,0.00,0.00,0.01,0.01,0.01,0.00,0.01,0.01,0.01,0.00,0.01,0.00,0.01,0.00,0.19,0.78,0.53,0.68
Prediction from RNABindRPlus:		0,0,0,0,0,0,0,0,0,0,0,0,0,0,0,0,0,0,0,0,0,0,0,0,0,0,0,0,0,0,0,0,0,0,0,0,0,0,1,1,0,1,0,0,0,0,0,0,0,0,0,0,0,0,0,0,0,0,0,0,0,0,0,0,0,0,0,0,0,0,0,0,0,0,0,0,0,0,0,0,0,0,0,0,0,0,0,0,0,0,0,0,0,0,0,0,0,0,0,0,0,0,0,0,0,0,0,0,0,0,0,0,0,0,0,0,0,0,0,0,0,0,0,0,0,0,0,0,0,0,0,0,0,0,0,0,0,0,0,0,0,0,0,0,0,0,0,0,0,0,0,0,0,0,0,0,0,0,0,0,0,0,0,0,0,0,0,0,0,0,0,0,0,0,0,0,0,0,0,0,0,0,0,1,0,1,0,1,0,0,0,0,0,0,0,0,0,0,0,0,0,0,0,0,0,0,0,0,0,0,0,0,0,0,0,0,0,0,0,0,0,0,0,0,0,0,0,0,0,0,0,0,0,0,0,0,0,0,0,0,0,0,0,0,0,0,0,0,0,0,0,0,0,0,0,0,0,0,0,0,0,0,0,0,0,0,0,0,0,0,0,0,0,0,0,0,0,0,0,0,0,0,0,0,0,0,0,0,0,0,0,0,0,0,0,0,0,0,0,0,0,0,0,0,0,0,0,0,0,0,0,0
Predicted score from RNABindRPlus:	0.01,0.20,0.01,0.02,0.01,0.02,0.02,0.03,0.01,0.21,0.08,0.41,0.02,0.33,0.25,0.43,0.29,0.28,0.03,0.05,0.02,0.06,0.01,0.02,0.01,0.01,0.01,0.01,0.01,0.03,0.01,0.02,0.02,0.02,0.05,0.02,0.09,0.34,0.61,0.69,0.26,0.62,0.21,0.27,0.17,0.37,0.02,0.07,0.38,0.09,0.11,0.32,0.39,0.06,0.13,0.05,0.02,0.02,0.01,0.01,0.01,0.01,0.01,0.01,0.02,0.01,0.01,0.01,0.01,0.01,0.01,0.01,0.01,0.01,0.01,0.01,0.02,0.01,0.01,0.02,0.45,0.01,0.01,0.01,0.01,0.01,0.01,0.01,0.01,0.03,0.01,0.12,0.01,0.16,0.03,0.06,0.01,0.01,0.13,0.01,0.01,0.01,0.01,0.01,0.01,0.02,0.02,0.07,0.31,0.16,0.02,0.02,0.02,0.02,0.01,0.01,0.01,0.01,0.01,0.01,0.01,0.01,0.01,0.01,0.01,0.01,0.01,0.01,0.16,0.01,0.19,0.04,0.41,0.02,0.01,0.01,0.01,0.01,0.01,0.01,0.01,0.01,0.01,0.01,0.01,0.03,0.03,0.02,0.01,0.07,0.43,0.01,0.06,0.04,0.45,0.04,0.20,0.08,0.25,0.38,0.06,0.04,0.07,0.02,0.23,0.10,0.01,0.03,0.01,0.01,0.01,0.01,0.01,0.01,0.01,0.01,0.01,0.01,0.02,0.01,0.12,0.25,0.47,0.64,0.20,0.58,0.25,0.52,0.01,0.04,0.02,0.02,0.01,0.01,0.02,0.01,0.01,0.02,0.01,0.02,0.02,0.31,0.01,0.02,0.08,0.01,0.01,0.02,0.01,0.01,0.01,0.01,0.01,0.01,0.01,0.01,0.01,0.01,0.01,0.01,0.01,0.01,0.01,0.01,0.01,0.01,0.01,0.01,0.01,0.01,0.01,0.01,0.01,0.01,0.02,0.01,0.01,0.01,0.01,0.02,0.02,0.07,0.09,0.02,0.01,0.01,0.01,0.01,0.01,0.01,0.01,0.01,0.01,0.01,0.01,0.01,0.01,0.01,0.01,0.01,0.01,0.01,0.01,0.01,0.01,0.01,0.01,0.01,0.01,0.01,0.02,0.01,0.01,0.01,0.01,0.01,0.01,0.01,0.01,0.01,0.01,0.01,0.01,0.01,0.03,0.02,0.01,0.02,0.05,0.01,0.01,0.01,0.01,0.01,0.01,0.01,0.01,0.01,0.01,0.01,0.01,0.01,0.01,0.01,0.01,0.01,0.01,0.01,0.03,0.41,0.15,0.28
    #Input sequence length: 802
#Number of binding residues predicted by HomPRIP: 10
#Number of binding residues predicted by SVM: 213
#Number of binding residues predicted by RNABindRPlus: 107
>Q2G266_AF_A
sequence:							M,I,A,K,V,I,V,D,V,A,S,K,S,V,D,Y,K,F,D,Y,I,I,P,E,Q,L,E,S,V,I,Q,P,G,V,R,V,I,V,P,F,G,P,R,T,I,Q,G,Y,V,M,E,V,T,A,E,P,D,A,Q,L,D,V,S,K,L,K,K,I,I,E,V,K,D,I,Q,P,E,L,T,S,E,L,I,A,L,S,E,W,M,G,S,T,H,V,I,K,R,I,S,M,L,E,V,M,L,P,S,A,I,K,A,K,Y,K,K,A,F,K,M,K,D,D,I,E,L,P,S,A,L,L,Q,K,F,D,K,H,G,Y,Y,Y,Y,K,D,A,Q,K,N,N,D,I,Q,L,L,M,K,L,L,K,D,D,I,V,E,E,K,T,I,L,T,Q,N,I,T,K,K,T,K,R,A,V,R,V,I,E,G,Y,H,P,D,E,V,L,A,K,L,E,K,V,I,K,Q,Y,D,L,Y,A,Y,L,S,E,E,Q,H,K,T,I,F,L,T,D,I,E,D,M,G,F,S,K,S,S,L,D,G,L,I,K,K,G,Y,V,E,K,Y,D,A,V,V,E,R,D,P,F,K,D,R,V,F,E,Q,E,S,K,Q,Q,L,T,E,D,Q,Y,K,A,Y,E,A,I,K,A,K,I,V,S,Q,E,Q,E,T,F,L,L,H,G,V,T,G,S,G,K,T,E,V,Y,L,Q,T,I,E,D,V,L,S,Q,G,K,Q,A,M,M,L,V,P,E,I,A,L,T,P,Q,M,V,L,R,F,K,R,R,F,G,D,D,V,A,V,L,H,S,G,L,S,N,G,E,R,Y,D,E,W,Q,K,I,R,D,G,R,A,R,V,S,V,G,A,R,S,S,V,F,A,P,F,K,N,L,G,L,I,I,I,D,E,E,H,E,S,T,Y,K,Q,E,D,Y,P,R,Y,H,A,R,E,I,A,Q,W,R,S,E,Y,H,H,C,P,V,I,L,G,S,A,T,P,C,L,E,S,Y,A,R,A,E,K,G,V,Y,H,L,L,S,L,P,N,R,V,N,Q,Q,A,L,P,E,I,D,I,V,D,M,R,E,E,L,S,E,G,N,R,S,M,F,S,K,D,L,R,E,A,I,Q,L,R,L,D,R,Q,E,Q,V,V,L,F,L,N,R,R,G,Y,A,S,F,M,L,C,R,D,C,G,Y,V,P,Q,C,P,N,C,D,I,S,L,T,Y,H,K,T,T,D,L,L,K,C,H,Y,C,G,Y,Q,E,T,P,P,N,Q,C,P,N,C,E,S,E,H,I,R,Q,V,G,T,G,T,Q,K,V,E,E,L,L,Q,Q,E,F,E,D,A,R,I,I,R,M,D,V,D,T,T,S,K,K,G,A,H,E,K,L,L,T,E,F,E,K,G,N,G,D,I,L,L,G,T,Q,M,I,A,K,G,L,D,Y,P,N,I,T,L,V,G,V,L,N,A,D,T,M,L,N,L,P,D,F,R,A,S,E,R,T,Y,Q,L,L,T,Q,V,A,G,R,A,G,R,H,E,K,A,G,Q,V,I,I,Q,T,Y,N,P,D,H,Y,S,I,L,D,V,Q,K,N,D,Y,L,T,F,Y,R,Q,E,M,E,Y,R,K,L,G,K,Y,P,P,Y,Y,Y,L,I,N,F,T,I,S,H,K,E,M,K,K,V,M,V,A,S,Q,H,V,H,K,I,L,L,Q,H,L,T,E,K,A,L,V,L,G,P,S,P,A,A,L,A,R,I,N,N,E,F,R,F,Q,I,L,V,K,Y,K,S,E,P,G,L,L,Q,A,I,Q,F,L,D,D,Y,Y,H,E,K,F,I,K,E,K,L,A,L,K,I,D,I,D,P,Q,M,M,M
Prediction from HomPRIP:			?,?,?,?,?,?,?,?,?,?,?,?,?,?,?,?,?,?,?,?,?,?,?,?,?,?,?,?,?,?,?,?,?,?,?,?,?,?,?,?,?,?,?,?,?,?,?,?,?,?,?,?,?,?,?,?,?,?,?,?,?,?,?,?,?,?,?,?,?,?,?,?,?,?,?,?,?,?,?,?,?,?,?,?,?,?,?,?,?,?,?,?,?,?,?,?,?,?,?,?,?,?,?,?,?,?,?,?,?,?,?,?,?,?,?,?,?,?,?,?,?,?,?,?,?,?,?,?,?,?,?,?,?,?,?,?,?,?,?,?,?,?,?,?,?,?,?,?,?,?,?,?,?,?,?,?,?,?,?,?,?,?,?,?,?,?,?,?,?,?,?,?,?,?,?,?,?,?,?,?,?,?,?,?,?,?,?,?,?,?,?,?,?,?,?,?,?,?,?,?,?,?,?,?,?,?,?,?,?,?,?,?,?,?,?,?,?,?,?,?,?,?,?,?,?,?,?,?,?,?,?,?,?,?,?,?,?,?,?,?,?,?,?,?,?,?,?,?,?,?,?,?,?,?,?,?,?,?,?,?,?,?,?,?,?,?,?,?,?,?,?,?,?,?,?,?,?,?,?,?,?,?,?,?,?,?,?,?,?,?,?,?,?,?,?,?,?,?,?,?,?,?,?,?,?,?,?,?,?,?,?,?,?,?,?,?,?,?,?,?,?,?,?,?,?,?,?,?,?,?,?,?,?,?,?,?,?,?,?,?,?,?,?,?,?,?,?,?,?,?,?,?,?,?,?,?,?,?,?,?,?,?,?,?,?,?,?,?,?,?,?,?,?,?,?,?,?,?,?,?,?,?,?,?,?,?,?,?,?,?,?,?,?,?,?,?,?,?,?,?,?,?,?,?,?,?,?,?,?,?,?,?,?,?,?,?,?,?,?,?,?,?,?,?,?,?,?,?,?,?,?,?,?,?,?,?,?,?,?,?,?,?,?,?,?,?,?,?,?,?,?,?,?,?,?,?,?,?,?,?,?,?,?,?,?,?,?,?,?,?,?,?,?,?,?,?,?,?,?,?,?,?,?,?,?,?,?,?,?,?,?,?,?,?,?,?,?,?,?,?,?,?,?,?,?,?,?,?,?,?,?,?,?,?,?,?,?,?,?,?,?,?,?,?,?,?,?,?,?,?,?,?,?,?,?,?,?,?,?,?,?,?,?,?,?,?,?,?,?,?,?,?,?,?,?,?,?,?,?,?,?,?,?,?,?,?,?,?,0,0,0,0,0,0,0,0,0,0,0,1,1,1,0,0,0,0,0,1,?,?,?,?,0,0,0,0,0,0,0,0,0,0,0,0,0,0,0,0,0,1,1,1,0,0,0,0,0,0,0,0,0,0,0,0,?,?,0,0,0,0,0,?,0,0,1,1,1,0,0,0,0,0,0,0,0,0,?,?,?,0,0,0,0,0,0,0,0,0,0,0,0,0,0,0,0,0,0,0,0,0,0,0,0,0,0,0,0,0,?,?,?,?,?,?,?,?,?,?,?,?,?,?,?,?,?,?,?,?,?,?,?,?,?,?,?,?,?,?,?,?,?,?,?,?,?,?,?,?,?,?,?,?,?,?,?,?,?,?,?,?,?,?,?,?,?,?,?,?,?,?,?,?,?,?,?,?,?,?,?,?,?,?,?,?,?,?,?,?,?,?,?,?,?,?,?,?,?,?,?,?,?,?,?,?,?,?,?,?,?,?,?,?,?,?,?,?,?,?,?,?,?,?,?,?,?,?,?,?,?,?,?,?
Predicted score from HomPRIP:		?,?,?,?,?,?,?,?,?,?,?,?,?,?,?,?,?,?,?,?,?,?,?,?,?,?,?,?,?,?,?,?,?,?,?,?,?,?,?,?,?,?,?,?,?,?,?,?,?,?,?,?,?,?,?,?,?,?,?,?,?,?,?,?,?,?,?,?,?,?,?,?,?,?,?,?,?,?,?,?,?,?,?,?,?,?,?,?,?,?,?,?,?,?,?,?,?,?,?,?,?,?,?,?,?,?,?,?,?,?,?,?,?,?,?,?,?,?,?,?,?,?,?,?,?,?,?,?,?,?,?,?,?,?,?,?,?,?,?,?,?,?,?,?,?,?,?,?,?,?,?,?,?,?,?,?,?,?,?,?,?,?,?,?,?,?,?,?,?,?,?,?,?,?,?,?,?,?,?,?,?,?,?,?,?,?,?,?,?,?,?,?,?,?,?,?,?,?,?,?,?,?,?,?,?,?,?,?,?,?,?,?,?,?,?,?,?,?,?,?,?,?,?,?,?,?,?,?,?,?,?,?,?,?,?,?,?,?,?,?,?,?,?,?,?,?,?,?,?,?,?,?,?,?,?,?,?,?,?,?,?,?,?,?,?,?,?,?,?,?,?,?,?,?,?,?,?,?,?,?,?,?,?,?,?,?,?,?,?,?,?,?,?,?,?,?,?,?,?,?,?,?,?,?,?,?,?,?,?,?,?,?,?,?,?,?,?,?,?,?,?,?,?,?,?,?,?,?,?,?,?,?,?,?,?,?,?,?,?,?,?,?,?,?,?,?,?,?,?,?,?,?,?,?,?,?,?,?,?,?,?,?,?,?,?,?,?,?,?,?,?,?,?,?,?,?,?,?,?,?,?,?,?,?,?,?,?,?,?,?,?,?,?,?,?,?,?,?,?,?,?,?,?,?,?,?,?,?,?,?,?,?,?,?,?,?,?,?,?,?,?,?,?,?,?,?,?,?,?,?,?,?,?,?,?,?,?,?,?,?,?,?,?,?,?,?,?,?,?,?,?,?,?,?,?,?,?,?,?,?,?,?,?,?,?,?,?,?,?,?,?,?,?,?,?,?,?,?,?,?,?,?,?,?,?,?,?,?,?,?,?,?,?,?,?,?,?,?,?,?,?,?,?,?,?,?,?,?,?,?,?,?,?,?,?,?,?,?,?,?,?,?,?,?,?,?,?,?,?,?,?,?,?,?,?,?,?,?,?,?,?,?,?,?,?,?,?,?,?,?,?,?,?,?,?,?,?,?,?,?,?,?,?,?,?,?,?,?,0.00,0.00,0.00,0.00,0.00,0.00,0.00,0.00,0.00,0.00,0.00,1.00,1.00,1.00,0.00,0.00,0.00,0.00,0.00,1.00,?,?,?,?,0.00,0.00,0.00,0.00,0.00,0.00,0.00,0.00,0.00,0.00,0.00,0.00,0.00,0.00,0.00,0.00,0.00,1.00,1.00,1.00,0.00,0.00,0.00,0.00,0.00,0.00,0.00,0.00,0.00,0.00,0.00,0.00,?,?,0.00,0.00,0.00,0.00,0.00,?,0.00,0.00,1.00,0.50,1.00,0.00,0.00,0.00,0.00,0.00,0.00,0.00,0.00,0.00,?,?,?,0.00,0.00,0.00,0.00,0.00,0.00,0.00,0.00,0.00,0.00,0.00,0.00,0.00,0.00,0.00,0.00,0.00,0.00,0.00,0.00,0.00,0.00,0.00,0.00,0.00,0.00,0.00,0.00,0.00,?,?,?,?,?,?,?,?,?,?,?,?,?,?,?,?,?,?,?,?,?,?,?,?,?,?,?,?,?,?,?,?,?,?,?,?,?,?,?,?,?,?,?,?,?,?,?,?,?,?,?,?,?,?,?,?,?,?,?,?,?,?,?,?,?,?,?,?,?,?,?,?,?,?,?,?,?,?,?,?,?,?,?,?,?,?,?,?,?,?,?,?,?,?,?,?,?,?,?,?,?,?,?,?,?,?,?,?,?,?,?,?,?,?,?,?,?,?,?,?,?,?,?,?
Prediction from SVM:				0,0,0,0,0,0,0,1,0,0,0,1,1,0,1,1,0,0,0,0,0,0,0,0,0,0,0,0,0,0,0,0,0,0,1,1,1,1,1,1,1,1,1,1,0,1,0,0,0,0,0,0,0,0,0,0,0,0,0,0,0,0,0,0,0,0,0,0,0,0,0,0,0,0,0,0,0,0,0,0,0,0,0,0,0,0,0,0,0,0,0,0,0,0,0,0,0,0,0,0,0,0,0,0,0,1,1,0,1,1,0,0,0,0,0,0,0,0,0,0,0,0,0,0,0,0,0,0,0,0,0,0,0,0,0,0,0,0,0,0,0,0,0,0,0,0,0,0,0,0,0,0,0,0,0,0,0,0,0,0,0,0,0,0,0,0,0,0,0,1,1,1,1,1,1,0,0,1,0,0,0,0,0,0,0,0,0,0,0,0,0,0,0,0,0,0,1,0,1,1,1,1,0,0,0,0,0,0,0,0,0,0,0,0,0,0,0,0,0,0,0,0,0,0,0,0,0,0,0,0,0,1,0,0,0,0,0,0,0,0,0,0,0,0,0,0,0,0,0,0,0,0,0,0,0,0,0,0,0,0,0,0,0,0,0,0,0,0,0,0,0,0,0,0,0,0,0,0,0,0,0,0,0,0,0,0,0,0,0,0,0,0,0,0,1,1,1,1,1,0,0,0,0,0,0,0,0,0,0,0,0,0,0,0,0,0,0,0,0,0,0,0,0,1,0,1,1,1,0,0,0,1,1,1,1,1,1,1,1,0,1,1,1,0,1,1,0,0,1,1,1,1,1,1,1,1,1,1,1,1,1,1,1,0,0,1,0,1,1,1,1,1,1,1,0,1,0,0,0,0,0,0,0,0,0,0,0,0,0,0,0,0,0,1,1,1,0,0,0,1,0,1,1,1,0,1,0,0,1,0,0,1,0,0,0,1,0,0,0,0,0,0,0,1,1,1,1,1,1,1,1,1,1,1,1,1,1,1,0,1,1,0,0,1,0,0,0,1,0,0,0,0,0,0,0,0,0,0,0,0,0,0,1,0,0,0,0,0,0,0,0,0,0,0,0,0,0,0,0,0,0,0,0,0,0,0,0,0,0,0,0,0,0,0,1,1,1,1,1,1,1,0,1,1,0,0,0,1,0,0,0,0,0,0,0,0,0,0,0,0,0,1,1,1,0,1,1,0,0,1,1,1,1,1,1,1,1,1,1,1,0,1,0,0,0,1,0,0,1,1,0,1,1,1,1,1,1,1,0,1,1,1,1,1,0,0,0,0,0,0,0,0,0,0,0,0,0,0,0,1,1,1,1,1,1,1,1,1,1,1,1,1,1,1,0,0,0,0,0,0,0,0,0,0,0,0,0,0,0,1,1,1,0,0,0,0,0,0,0,0,0,0,0,0,0,0,0,0,0,0,1,0,0,0,1,0,1,1,0,1,0,0,1,1,0,0,0,0,0,0,1,0,1,1,1,0,1,1,0,0,0,0,0,0,0,0,0,0,0,0,1,0,0,0,0,0,0,0,0,0,0,0,0,0,0,0,1,0,0,0,0,0,0,0,0,1,1,1,1,1,1,1,1,1,0,0,0,0,0,0,0,0,0,0,0,0,0,0,0,0,0,0,0,0,0,0,0,0,0,0,0,0,0,0,0,0,0,0,0,0,0,0,0,1,1,1,1,1,1,1,1,0,1,1,1,1,1,1,1,0,0,1,1,0,1,1,0,0,0,0,0,0,0,0,0,0,0,0,0,0,0,0,0,0,0,0,0,0,0,0,0,0,0,0,0,0,0,0,0,0,0,0
Predicted score from SVM:			0.00,0.00,0.00,0.33,0.00,0.18,0.07,0.60,0.09,0.42,0.40,0.97,0.77,0.26,0.62,0.89,0.37,0.20,0.17,0.17,0.17,0.01,0.04,0.01,0.02,0.01,0.00,0.00,0.00,0.00,0.00,0.01,0.07,0.12,0.87,0.77,0.64,0.79,0.99,1.00,0.98,0.99,0.99,1.00,0.32,0.77,0.16,0.19,0.01,0.01,0.01,0.00,0.00,0.00,0.00,0.00,0.00,0.00,0.00,0.00,0.00,0.00,0.00,0.01,0.00,0.02,0.00,0.00,0.00,0.00,0.00,0.00,0.00,0.00,0.00,0.01,0.01,0.01,0.02,0.02,0.03,0.01,0.00,0.02,0.01,0.01,0.02,0.02,0.02,0.01,0.03,0.09,0.26,0.02,0.06,0.19,0.15,0.03,0.15,0.14,0.08,0.47,0.47,0.47,0.24,0.83,0.88,0.40,0.68,0.90,0.43,0.49,0.04,0.13,0.16,0.01,0.00,0.01,0.00,0.00,0.00,0.00,0.00,0.00,0.00,0.00,0.00,0.00,0.00,0.00,0.00,0.00,0.00,0.00,0.00,0.00,0.00,0.00,0.00,0.00,0.00,0.00,0.00,0.00,0.00,0.00,0.01,0.00,0.00,0.00,0.04,0.00,0.00,0.06,0.01,0.00,0.00,0.01,0.00,0.00,0.02,0.01,0.04,0.00,0.04,0.06,0.06,0.04,0.38,0.51,0.94,0.50,0.64,0.70,0.87,0.37,0.09,0.64,0.03,0.01,0.12,0.00,0.00,0.00,0.00,0.00,0.00,0.00,0.00,0.00,0.00,0.00,0.00,0.00,0.00,0.04,0.61,0.27,0.60,0.88,0.64,0.63,0.34,0.01,0.00,0.00,0.00,0.00,0.00,0.00,0.00,0.00,0.00,0.00,0.00,0.00,0.00,0.00,0.00,0.00,0.00,0.00,0.00,0.00,0.01,0.01,0.06,0.29,0.46,0.15,0.01,0.55,0.19,0.04,0.01,0.03,0.29,0.01,0.01,0.01,0.01,0.00,0.00,0.00,0.00,0.01,0.01,0.06,0.25,0.10,0.12,0.14,0.02,0.00,0.01,0.00,0.00,0.00,0.00,0.00,0.00,0.02,0.04,0.00,0.04,0.16,0.00,0.02,0.03,0.01,0.01,0.00,0.00,0.00,0.00,0.00,0.00,0.00,0.00,0.00,0.00,0.00,0.00,0.00,0.00,0.00,0.00,0.01,0.00,0.00,0.14,0.03,0.07,0.29,0.64,0.89,0.55,0.75,0.51,0.39,0.05,0.19,0.01,0.05,0.01,0.01,0.00,0.01,0.00,0.00,0.00,0.00,0.00,0.00,0.00,0.00,0.00,0.00,0.00,0.01,0.16,0.20,0.13,0.76,0.38,0.86,0.84,0.92,0.07,0.31,0.34,0.87,0.52,0.81,0.50,0.97,0.73,0.53,0.62,0.42,0.68,0.55,0.66,0.35,0.66,0.95,0.47,0.42,0.98,0.97,0.89,0.99,1.00,0.99,0.97,0.93,0.99,0.96,0.99,0.66,0.77,0.66,0.82,0.09,0.13,0.92,0.29,0.61,0.52,0.91,0.99,1.00,1.00,0.97,0.34,0.90,0.26,0.07,0.00,0.00,0.02,0.00,0.00,0.00,0.00,0.00,0.00,0.00,0.03,0.08,0.20,0.10,0.21,0.60,0.60,0.88,0.14,0.06,0.12,0.81,0.31,0.98,0.96,0.95,0.39,0.98,0.42,0.35,0.66,0.21,0.41,0.70,0.45,0.37,0.48,0.69,0.12,0.02,0.15,0.20,0.04,0.13,0.38,0.95,0.78,0.95,0.96,0.94,0.76,0.98,0.97,0.97,0.59,0.96,0.73,0.55,0.94,0.81,0.47,0.76,0.86,0.36,0.24,0.70,0.17,0.38,0.45,0.72,0.08,0.21,0.20,0.20,0.09,0.06,0.05,0.15,0.06,0.15,0.05,0.12,0.16,0.10,0.56,0.03,0.04,0.02,0.04,0.02,0.10,0.07,0.26,0.25,0.41,0.19,0.18,0.36,0.04,0.01,0.02,0.01,0.01,0.00,0.00,0.00,0.14,0.00,0.00,0.34,0.22,0.07,0.14,0.15,0.27,0.38,0.56,0.71,0.96,1.00,0.98,0.77,0.92,0.31,0.68,0.84,0.21,0.47,0.36,0.89,0.17,0.18,0.17,0.15,0.09,0.01,0.06,0.01,0.14,0.18,0.17,0.45,0.23,0.62,0.61,0.82,0.48,0.61,0.78,0.33,0.38,0.73,0.91,0.59,0.96,0.88,0.98,0.98,0.98,0.95,0.95,0.80,0.36,0.65,0.03,0.21,0.42,0.62,0.43,0.39,0.55,0.81,0.32,0.65,0.67,0.98,0.63,0.89,0.75,0.61,0.40,0.97,0.96,0.94,0.69,0.62,0.00,0.00,0.00,0.00,0.00,0.00,0.01,0.00,0.00,0.01,0.00,0.00,0.27,0.07,0.17,0.86,0.94,0.92,0.85,0.99,0.99,0.99,1.00,1.00,0.99,0.98,0.91,0.92,0.85,0.91,0.19,0.16,0.41,0.17,0.03,0.03,0.01,0.09,0.01,0.01,0.05,0.17,0.28,0.06,0.14,0.73,0.69,0.74,0.05,0.02,0.40,0.06,0.01,0.04,0.09,0.01,0.02,0.01,0.09,0.00,0.01,0.03,0.01,0.01,0.04,0.11,0.58,0.41,0.13,0.45,0.55,0.09,0.53,0.51,0.47,0.62,0.03,0.22,0.50,0.87,0.04,0.33,0.14,0.04,0.02,0.25,0.96,0.10,0.78,0.94,1.00,0.30,0.78,0.88,0.12,0.13,0.16,0.02,0.01,0.02,0.01,0.01,0.00,0.14,0.05,0.25,0.56,0.32,0.34,0.28,0.46,0.02,0.01,0.02,0.01,0.02,0.09,0.03,0.06,0.10,0.16,0.13,0.62,0.40,0.27,0.39,0.44,0.23,0.22,0.19,0.11,0.82,0.86,0.51,0.64,0.85,0.94,0.92,0.90,0.90,0.28,0.45,0.08,0.01,0.08,0.01,0.06,0.01,0.08,0.04,0.04,0.05,0.02,0.03,0.02,0.01,0.00,0.06,0.01,0.01,0.04,0.05,0.01,0.01,0.03,0.04,0.01,0.02,0.01,0.03,0.01,0.01,0.00,0.01,0.00,0.00,0.02,0.08,0.37,0.94,0.77,0.89,0.99,0.92,0.81,0.93,0.99,0.27,0.94,0.91,0.99,0.93,0.97,0.79,0.88,0.29,0.32,0.64,0.82,0.47,0.73,0.78,0.24,0.15,0.09,0.01,0.04,0.07,0.01,0.00,0.01,0.00,0.00,0.00,0.00,0.00,0.00,0.00,0.00,0.00,0.00,0.00,0.01,0.01,0.02,0.01,0.08,0.02,0.26,0.04,0.09,0.04,0.04,0.01,0.00,0.01,0.00,0.00
Prediction from RNABindRPlus:		0,0,0,0,0,0,0,0,0,0,0,1,0,0,0,1,0,0,0,0,0,0,0,0,0,0,0,0,0,0,0,0,0,0,1,0,0,0,1,1,1,1,1,1,0,0,0,0,0,0,0,0,0,0,0,0,0,0,0,0,0,0,0,0,0,0,0,0,0,0,0,0,0,0,0,0,0,0,0,0,0,0,0,0,0,0,0,0,0,0,0,0,0,0,0,0,0,0,0,0,0,0,0,0,0,0,1,0,0,1,0,0,0,0,0,0,0,0,0,0,0,0,0,0,0,0,0,0,0,0,0,0,0,0,0,0,0,0,0,0,0,0,0,0,0,0,0,0,0,0,0,0,0,0,0,0,0,0,0,0,0,0,0,0,0,0,0,0,0,0,1,0,0,0,1,0,0,0,0,0,0,0,0,0,0,0,0,0,0,0,0,0,0,0,0,0,0,0,0,1,0,0,0,0,0,0,0,0,0,0,0,0,0,0,0,0,0,0,0,0,0,0,0,0,0,0,0,0,0,0,0,0,0,0,0,0,0,0,0,0,0,0,0,0,0,0,0,0,0,0,0,0,0,0,0,0,0,0,0,0,0,0,0,0,0,0,0,0,0,0,0,0,0,0,0,0,0,0,0,0,0,0,0,0,0,0,0,0,0,0,0,0,0,0,0,1,0,0,0,0,0,0,0,0,0,0,0,0,0,0,0,0,0,0,0,0,0,0,0,0,0,0,0,0,0,1,0,1,0,0,0,1,0,0,0,1,0,0,0,0,0,0,0,0,0,1,0,0,1,1,1,1,1,1,1,1,1,1,1,0,0,0,0,0,0,1,0,0,0,1,1,1,1,1,0,1,0,0,0,0,0,0,0,0,0,0,0,0,0,0,0,0,0,0,0,1,0,0,0,0,0,1,1,1,0,1,0,0,0,0,0,0,0,0,0,0,0,0,0,0,0,0,0,1,0,1,1,1,0,1,1,1,0,1,0,0,1,0,0,0,1,0,0,0,0,0,0,0,0,0,0,0,0,0,0,0,0,0,0,0,0,0,0,0,0,0,0,0,0,0,0,0,0,0,0,0,0,0,0,0,0,0,0,0,0,0,0,0,0,0,0,0,0,0,0,0,1,1,1,0,1,0,0,0,0,0,0,1,0,0,0,0,0,0,0,0,0,0,0,0,0,0,0,0,0,0,0,0,0,0,1,0,1,1,1,1,1,1,1,0,0,0,0,0,0,0,0,0,0,0,0,0,0,1,0,1,0,0,0,1,1,1,0,0,0,0,0,0,0,0,0,0,0,0,0,0,0,0,0,1,1,1,0,1,1,1,1,1,1,1,1,1,0,0,0,0,0,0,0,0,0,0,0,0,0,0,0,0,0,1,1,1,0,0,0,0,0,0,0,0,0,0,0,0,0,0,0,0,0,0,0,0,0,0,1,0,1,0,0,0,0,0,0,0,0,0,0,0,0,0,0,0,0,0,1,0,0,0,0,0,0,0,0,0,0,0,0,0,0,0,0,0,0,0,0,0,0,0,0,0,0,0,0,0,0,0,0,0,0,0,0,0,0,0,0,0,1,0,0,1,1,1,1,1,0,0,0,0,0,0,0,0,0,0,0,0,0,0,0,0,0,0,0,0,0,0,0,0,0,0,0,0,0,0,0,0,0,0,0,0,0,0,0,1,0,1,1,1,0,1,1,0,1,1,1,1,1,0,1,0,0,0,0,0,0,0,0,0,0,0,0,0,0,0,0,0,0,0,0,0,0,0,0,0,0,0,0,0,0,0,0,0,0,0,0,0,0,0,0,0,0,0
Predicted score from RNABindRPlus:	0.01,0.01,0.01,0.05,0.01,0.02,0.01,0.20,0.02,0.09,0.08,0.66,0.39,0.04,0.22,0.56,0.07,0.03,0.02,0.02,0.02,0.01,0.01,0.01,0.01,0.01,0.01,0.01,0.01,0.01,0.01,0.01,0.01,0.02,0.53,0.39,0.24,0.42,0.69,0.70,0.68,0.69,0.69,0.70,0.05,0.39,0.02,0.03,0.01,0.01,0.01,0.01,0.01,0.01,0.01,0.01,0.01,0.01,0.01,0.01,0.01,0.01,0.01,0.01,0.01,0.01,0.01,0.01,0.01,0.01,0.01,0.01,0.01,0.01,0.01,0.01,0.01,0.01,0.01,0.01,0.01,0.01,0.01,0.01,0.01,0.01,0.01,0.01,0.01,0.01,0.01,0.02,0.04,0.01,0.01,0.03,0.02,0.01,0.02,0.02,0.01,0.11,0.11,0.11,0.03,0.47,0.54,0.08,0.28,0.57,0.09,0.12,0.01,0.02,0.02,0.01,0.01,0.01,0.01,0.01,0.01,0.01,0.01,0.01,0.01,0.01,0.01,0.01,0.01,0.01,0.01,0.01,0.01,0.01,0.01,0.01,0.01,0.01,0.01,0.01,0.01,0.01,0.01,0.01,0.01,0.01,0.01,0.01,0.01,0.01,0.01,0.01,0.01,0.01,0.01,0.01,0.01,0.01,0.01,0.01,0.01,0.01,0.01,0.01,0.01,0.01,0.01,0.01,0.07,0.13,0.62,0.13,0.24,0.31,0.53,0.07,0.02,0.24,0.01,0.01,0.02,0.01,0.01,0.01,0.01,0.01,0.01,0.01,0.01,0.01,0.01,0.01,0.01,0.01,0.01,0.01,0.21,0.04,0.20,0.54,0.24,0.23,0.06,0.01,0.01,0.01,0.01,0.01,0.01,0.01,0.01,0.01,0.01,0.01,0.01,0.01,0.01,0.01,0.01,0.01,0.01,0.01,0.01,0.01,0.01,0.01,0.01,0.04,0.10,0.02,0.01,0.16,0.03,0.01,0.01,0.01,0.04,0.01,0.01,0.01,0.01,0.01,0.01,0.01,0.01,0.01,0.01,0.01,0.04,0.02,0.02,0.02,0.01,0.01,0.01,0.01,0.01,0.01,0.01,0.01,0.01,0.01,0.01,0.01,0.01,0.02,0.01,0.01,0.01,0.01,0.01,0.01,0.01,0.01,0.01,0.01,0.01,0.01,0.01,0.01,0.01,0.01,0.01,0.01,0.01,0.01,0.01,0.01,0.01,0.01,0.02,0.01,0.01,0.04,0.24,0.56,0.16,0.37,0.13,0.07,0.01,0.03,0.01,0.01,0.01,0.01,0.01,0.01,0.01,0.01,0.01,0.01,0.01,0.01,0.01,0.01,0.01,0.01,0.01,0.01,0.02,0.03,0.02,0.38,0.07,0.52,0.49,0.60,0.01,0.05,0.06,0.53,0.14,0.45,0.13,0.66,0.34,0.15,0.22,0.09,0.28,0.16,0.26,0.06,0.26,0.64,0.11,0.09,0.68,0.66,0.56,0.69,0.70,0.69,0.66,0.61,0.69,0.65,0.69,0.26,0.39,0.26,0.46,0.02,0.02,0.60,0.04,0.21,0.14,0.58,0.69,0.70,0.70,0.66,0.06,0.57,0.04,0.01,0.01,0.01,0.01,0.01,0.01,0.01,0.01,0.01,0.01,0.01,0.01,0.01,0.03,0.02,0.03,0.20,0.20,0.54,0.02,0.01,0.02,0.45,0.05,0.68,0.65,0.64,0.07,0.68,0.09,0.06,0.26,0.03,0.08,0.31,0.10,0.07,0.11,0.29,0.02,0.01,0.02,0.03,0.01,0.02,0.07,0.64,0.41,0.64,0.65,0.62,0.38,0.68,0.66,0.66,0.19,0.65,0.34,0.16,0.62,0.45,0.11,0.38,0.52,0.06,0.03,0.31,0.02,0.07,0.10,0.33,0.01,0.03,0.03,0.03,0.02,0.01,0.01,0.02,0.01,0.02,0.01,0.02,0.02,0.02,0.17,0.01,0.01,0.01,0.01,0.01,0.02,0.01,0.04,0.04,0.08,0.03,0.02,0.06,0.01,0.01,0.01,0.01,0.01,0.01,0.01,0.01,0.02,0.01,0.01,0.06,0.03,0.01,0.02,0.02,0.04,0.07,0.17,0.32,0.65,0.70,0.68,0.39,0.60,0.05,0.28,0.49,0.03,0.11,0.06,0.56,0.02,0.02,0.02,0.02,0.02,0.01,0.01,0.01,0.02,0.02,0.02,0.10,0.03,0.22,0.21,0.46,0.11,0.21,0.41,0.05,0.07,0.34,0.58,0.19,0.65,0.54,0.68,0.68,0.68,0.64,0.64,0.43,0.06,0.25,0.01,0.03,0.09,0.22,0.09,0.07,0.16,0.45,0.05,0.25,0.27,0.68,0.23,0.56,0.37,0.21,0.08,0.66,0.65,0.62,0.29,0.22,0.01,0.01,0.01,0.01,0.01,0.01,0.01,0.01,0.01,0.01,0.01,0.01,0.02,0.01,0.01,0.95,0.97,0.96,0.33,0.52,0.52,0.52,0.53,0.98,0.69,0.68,0.58,0.60,0.33,0.41,0.01,0.01,0.04,0.01,0.01,0.01,0.01,0.01,0.01,0.01,0.01,0.01,0.02,0.01,0.01,0.91,0.89,0.91,0.01,0.01,0.04,0.01,0.01,0.01,0.01,0.01,0.01,0.01,0.01,0.01,0.01,0.01,0.01,0.01,0.01,0.01,0.10,0.08,0.01,0.05,0.78,0.04,0.76,0.07,0.06,0.12,0.01,0.02,0.07,0.36,0.01,0.03,0.02,0.01,0.01,0.02,0.48,0.01,0.25,0.45,0.53,0.02,0.25,0.37,0.01,0.01,0.01,0.01,0.01,0.01,0.01,0.01,0.01,0.01,0.01,0.02,0.09,0.03,0.03,0.02,0.06,0.01,0.01,0.01,0.01,0.01,0.02,0.01,0.01,0.02,0.02,0.02,0.22,0.08,0.04,0.07,0.09,0.03,0.03,0.03,0.02,0.46,0.52,0.13,0.24,0.50,0.62,0.60,0.57,0.57,0.04,0.10,0.01,0.01,0.01,0.01,0.01,0.01,0.01,0.01,0.01,0.01,0.01,0.01,0.01,0.01,0.01,0.01,0.01,0.01,0.01,0.01,0.01,0.01,0.01,0.01,0.01,0.01,0.01,0.01,0.01,0.01,0.01,0.01,0.01,0.01,0.01,0.01,0.07,0.62,0.39,0.56,0.69,0.60,0.45,0.61,0.69,0.04,0.62,0.58,0.69,0.61,0.66,0.42,0.54,0.04,0.05,0.24,0.46,0.11,0.34,0.41,0.03,0.02,0.02,0.01,0.01,0.01,0.01,0.01,0.01,0.01,0.01,0.01,0.01,0.01,0.01,0.01,0.01,0.01,0.01,0.01,0.01,0.01,0.01,0.01,0.01,0.01,0.04,0.01,0.02,0.01,0.01,0.01,0.01,0.01,0.01,0.01
    #Input sequence length: 555
#Number of binding residues predicted by HomPRIP: 18
#Number of binding residues predicted by SVM: 91
#Number of binding residues predicted by RNABindRPlus: 31
>Q2G296_AF_A
sequence:							M,T,H,L,S,D,L,D,I,A,N,Q,S,T,L,Q,P,I,K,D,I,A,A,S,V,G,I,S,E,D,A,L,E,P,Y,G,H,Y,K,A,K,I,D,I,N,K,I,T,P,R,E,N,K,G,K,V,V,L,V,T,A,M,S,P,T,P,A,G,E,G,K,S,T,V,T,V,G,L,A,D,A,F,H,E,L,N,K,N,V,M,V,A,L,R,E,P,A,L,G,P,T,F,G,I,K,G,G,A,T,G,G,G,Y,A,Q,V,L,P,M,E,D,I,N,L,H,F,N,G,D,F,H,A,I,T,T,A,N,N,A,L,S,A,F,I,D,N,H,I,H,Q,G,N,E,L,G,I,D,Q,R,R,I,E,W,K,R,V,L,D,M,N,D,R,A,L,R,H,V,N,V,G,L,G,G,P,T,N,G,V,P,R,E,D,G,F,N,I,T,V,A,S,E,I,M,A,I,L,C,L,S,R,S,I,K,D,L,K,D,K,I,S,R,I,T,I,G,Y,T,R,D,R,K,P,V,T,V,A,D,L,K,V,E,G,A,L,A,M,I,L,K,D,A,I,K,P,N,L,V,Q,S,I,E,G,T,P,A,L,V,H,G,G,P,F,A,N,I,A,H,G,C,N,S,I,L,A,T,E,T,A,R,D,L,A,D,I,V,V,T,E,A,G,F,G,S,D,L,G,A,E,K,F,M,D,I,K,A,R,E,A,G,F,D,P,A,A,V,V,V,V,A,T,I,R,A,L,K,M,H,G,G,V,A,K,D,N,L,K,E,E,N,V,E,A,V,K,A,G,I,V,N,L,E,R,H,V,N,N,I,K,K,F,G,V,E,P,V,V,A,I,N,A,F,I,H,D,T,D,A,E,V,E,Y,V,K,S,W,A,K,E,N,N,V,R,I,A,L,T,E,V,W,E,K,G,G,K,G,G,V,D,L,A,N,E,V,L,E,V,I,D,Q,P,N,S,F,K,P,L,Y,E,L,E,L,P,L,E,Q,K,I,E,K,I,V,T,E,I,Y,G,G,S,K,V,T,F,S,S,K,A,Q,K,Q,L,K,Q,F,K,E,N,G,W,D,N,Y,P,V,C,M,A,K,T,Q,Y,S,F,S,D,D,Q,T,L,L,G,A,P,S,G,F,E,I,T,I,R,E,L,E,A,K,T,G,A,G,F,I,V,A,L,T,G,A,I,M,T,M,P,G,L,P,K,K,P,A,A,L,N,M,D,V,T,D,D,G,H,A,I,G,L,F
Prediction from HomPRIP:			?,?,0,0,0,0,0,0,0,0,0,0,0,0,0,0,0,0,0,0,0,0,0,0,0,?,?,?,?,?,?,?,?,?,?,?,?,0,0,0,0,0,0,0,0,0,0,0,0,0,0,0,0,0,0,0,0,0,0,0,0,0,0,0,0,0,0,0,0,0,0,0,0,1,0,0,0,0,0,0,0,0,0,0,0,0,0,0,0,0,0,0,0,0,0,?,?,?,?,?,?,0,0,0,0,0,0,0,0,0,0,0,0,0,0,0,0,0,0,?,?,0,0,0,0,0,1,0,0,0,0,0,0,0,0,0,0,0,0,0,0,0,0,?,?,?,?,?,?,0,0,0,0,0,0,0,0,1,0,0,1,1,0,0,1,0,0,0,1,1,1,1,1,1,1,1,1,0,0,0,0,0,0,0,0,0,0,0,0,0,0,0,0,1,1,1,0,0,0,0,0,0,0,0,0,0,0,0,0,0,0,0,0,0,0,0,0,0,?,?,?,?,?,?,?,?,?,?,?,?,?,?,?,?,?,?,?,?,?,?,?,?,?,?,?,?,?,?,?,?,?,?,?,?,?,?,?,?,?,?,?,?,?,?,?,?,?,?,?,?,?,?,?,?,?,?,?,?,?,?,?,?,?,?,?,?,?,?,?,?,?,?,?,?,?,?,?,?,?,?,?,?,?,?,?,?,?,?,?,?,?,?,?,?,?,?,?,?,?,?,?,?,?,?,?,?,?,?,?,?,?,?,?,?,?,?,?,?,?,?,?,?,?,?,?,?,?,?,?,?,?,?,?,?,?,?,?,?,?,?,?,?,?,?,?,?,?,?,?,?,?,?,?,?,?,?,?,?,?,?,?,?,?,?,?,?,?,?,?,?,?,?,?,?,?,?,?,?,?,?,?,?,?,?,?,?,?,?,?,?,?,?,?,?,?,?,?,?,?,?,?,?,?,?,?,?,?,?,?,?,?,?,?,?,?,?,?,?,?,?,?,?,?,?,?,?,?,?,?,?,?,?,?,?,?,?,?,?,?,?,?,?,?,?,?,?,?,?,?,?,?,?,?,?,?,?,?,?,?,?,?,?,?,?,?,?,?,?,?,?,?,?,?,?,?,?,?,?,?,?,?,?,?,?,?,?,?,?,?,?,?,?,?,?,?,?,?,?,?,?,?,?,?,?,?,?,?,?,?,?,?,?,?,?,?,?,?,?,?,?,?,?,?,?,?,?,?,?,?,?,?,?,?,?,?
Predicted score from HomPRIP:		?,?,0.00,0.00,0.00,0.00,0.00,0.00,0.00,0.00,0.00,0.00,0.00,0.00,0.00,0.00,0.00,0.00,0.00,0.00,0.00,0.00,0.00,0.00,0.00,?,?,?,?,?,?,?,?,?,?,?,?,0.00,0.00,0.00,0.00,0.00,0.00,0.00,0.00,0.00,0.00,0.00,0.00,0.00,0.00,0.00,0.00,0.00,0.00,0.00,0.00,0.00,0.00,0.00,0.00,0.00,0.00,0.00,0.00,0.00,0.00,0.00,0.00,0.00,0.00,0.00,0.00,0.50,0.00,0.00,0.00,0.00,0.00,0.00,0.00,0.00,0.00,0.00,0.00,0.00,0.00,0.00,0.00,0.00,0.00,0.00,0.00,0.00,0.00,?,?,?,?,?,?,0.00,0.00,0.00,0.00,0.00,0.00,0.00,0.00,0.00,0.00,0.00,0.00,0.00,0.00,0.00,0.00,0.00,0.00,?,?,0.00,0.00,0.00,0.00,0.00,1.00,0.00,0.00,0.00,0.00,0.00,0.00,0.00,0.00,0.00,0.00,0.00,0.00,0.00,0.00,0.00,0.00,?,?,?,?,?,?,0.00,0.00,0.00,0.00,0.00,0.00,0.00,0.00,1.00,0.00,0.00,0.50,1.00,0.00,0.00,0.50,0.00,0.00,0.00,1.00,1.00,1.00,1.00,1.00,1.00,0.50,0.50,1.00,0.00,0.00,0.00,0.00,0.00,0.00,0.00,0.00,0.00,0.00,0.00,0.00,0.00,0.00,0.00,0.00,1.00,1.00,1.00,0.00,0.00,0.00,0.00,0.00,0.00,0.00,0.00,0.00,0.00,0.00,0.00,0.00,0.00,0.00,0.00,0.00,0.00,0.00,0.00,0.00,0.00,?,?,?,?,?,?,?,?,?,?,?,?,?,?,?,?,?,?,?,?,?,?,?,?,?,?,?,?,?,?,?,?,?,?,?,?,?,?,?,?,?,?,?,?,?,?,?,?,?,?,?,?,?,?,?,?,?,?,?,?,?,?,?,?,?,?,?,?,?,?,?,?,?,?,?,?,?,?,?,?,?,?,?,?,?,?,?,?,?,?,?,?,?,?,?,?,?,?,?,?,?,?,?,?,?,?,?,?,?,?,?,?,?,?,?,?,?,?,?,?,?,?,?,?,?,?,?,?,?,?,?,?,?,?,?,?,?,?,?,?,?,?,?,?,?,?,?,?,?,?,?,?,?,?,?,?,?,?,?,?,?,?,?,?,?,?,?,?,?,?,?,?,?,?,?,?,?,?,?,?,?,?,?,?,?,?,?,?,?,?,?,?,?,?,?,?,?,?,?,?,?,?,?,?,?,?,?,?,?,?,?,?,?,?,?,?,?,?,?,?,?,?,?,?,?,?,?,?,?,?,?,?,?,?,?,?,?,?,?,?,?,?,?,?,?,?,?,?,?,?,?,?,?,?,?,?,?,?,?,?,?,?,?,?,?,?,?,?,?,?,?,?,?,?,?,?,?,?,?,?,?,?,?,?,?,?,?,?,?,?,?,?,?,?,?,?,?,?,?,?,?,?,?,?,?,?,?,?,?,?,?,?,?,?,?,?,?,?,?,?,?,?,?,?,?,?,?,?,?,?,?,?,?,?,?,?,?
Prediction from SVM:				0,0,1,0,0,0,0,0,0,0,0,0,0,0,0,0,0,0,0,0,0,0,0,0,0,0,0,0,0,0,0,0,0,0,0,0,0,0,1,0,1,0,0,0,0,0,0,0,0,0,0,0,0,0,0,0,0,0,0,0,0,1,1,1,1,1,1,1,1,0,1,0,1,0,1,0,1,0,1,1,0,0,0,0,0,0,0,0,0,0,0,0,0,1,0,1,1,0,0,0,0,0,0,0,1,1,1,1,1,1,1,1,1,0,0,0,0,0,0,0,0,0,0,0,0,0,0,0,0,0,1,0,0,0,0,0,0,1,0,0,0,0,0,0,0,0,0,0,0,0,0,0,0,0,1,0,0,1,1,1,0,0,1,1,1,0,0,1,0,1,0,1,0,0,0,0,0,0,0,1,1,1,1,1,0,1,1,0,0,1,0,0,0,0,0,0,0,0,0,0,0,0,0,0,0,0,0,0,0,0,0,0,0,0,0,0,0,0,0,0,0,0,0,0,0,0,0,0,0,0,0,0,0,0,0,1,0,0,0,0,0,0,0,0,0,0,0,0,0,0,0,0,0,0,0,0,0,0,0,0,0,0,0,0,0,0,0,0,0,1,1,1,1,1,0,0,1,1,0,1,1,0,0,0,0,0,0,0,0,0,0,0,0,0,0,0,0,0,0,0,1,0,0,1,1,1,0,0,0,0,0,0,0,1,0,1,0,0,0,0,0,0,0,0,0,0,0,0,0,1,0,1,1,1,1,1,1,1,1,0,0,0,0,0,0,0,0,0,0,0,0,0,0,0,0,0,0,0,1,0,0,1,0,0,0,0,0,0,0,0,0,0,0,0,0,0,0,0,0,0,0,0,0,0,0,0,0,0,0,0,0,0,0,0,0,0,0,0,0,0,0,0,0,0,0,0,0,0,0,0,0,0,0,0,0,0,0,0,0,0,0,0,0,0,0,0,0,0,0,0,0,0,0,0,0,0,0,0,0,0,0,0,0,0,0,0,0,0,0,0,0,0,0,0,1,1,0,0,1,0,0,0,0,0,0,0,0,0,0,0,0,0,0,0,0,0,0,0,0,0,0,0,0,0,0,0,1,0,1,0,1,0,0,0,0,0,1,0,0,0,0,0,0,0,0,0,0,1,0,0,0,0,0,0,0,0,0,1,0,0,0,0,0,0,0,0,0,0,0,1,0,1,1,0,1,1,1,0,0,0,0,0,0,0,0,0,0,0,0,0,0,0,0,0,0
Predicted score from SVM:			0.00,0.23,0.60,0.03,0.12,0.05,0.00,0.01,0.01,0.03,0.14,0.02,0.08,0.02,0.01,0.03,0.19,0.00,0.00,0.01,0.01,0.00,0.00,0.01,0.00,0.00,0.00,0.00,0.00,0.00,0.00,0.00,0.01,0.01,0.13,0.04,0.42,0.27,0.59,0.09,0.56,0.01,0.01,0.01,0.04,0.02,0.00,0.00,0.00,0.00,0.00,0.00,0.02,0.00,0.00,0.00,0.00,0.00,0.00,0.12,0.07,0.77,0.98,0.97,1.00,0.89,0.97,0.95,0.94,0.37,0.89,0.15,0.53,0.01,0.63,0.27,0.95,0.49,0.61,0.95,0.08,0.02,0.14,0.36,0.01,0.01,0.18,0.12,0.00,0.01,0.04,0.43,0.17,0.87,0.42,0.79,0.63,0.22,0.49,0.48,0.03,0.09,0.46,0.16,0.96,0.71,0.95,0.83,0.94,0.96,0.99,0.64,0.66,0.40,0.49,0.01,0.00,0.01,0.00,0.00,0.00,0.00,0.10,0.00,0.12,0.04,0.04,0.01,0.07,0.00,0.53,0.02,0.01,0.12,0.20,0.04,0.42,0.74,0.24,0.01,0.10,0.14,0.01,0.00,0.01,0.15,0.02,0.00,0.12,0.24,0.02,0.02,0.01,0.04,0.58,0.41,0.43,0.53,0.90,0.92,0.06,0.13,0.70,0.79,0.91,0.02,0.19,0.78,0.17,0.61,0.47,0.94,0.14,0.00,0.41,0.05,0.01,0.01,0.07,0.98,0.67,0.96,1.00,0.99,0.43,0.99,0.79,0.28,0.38,0.99,0.28,0.35,0.21,0.45,0.15,0.01,0.22,0.00,0.00,0.01,0.00,0.00,0.01,0.02,0.00,0.00,0.04,0.02,0.00,0.03,0.03,0.01,0.01,0.04,0.00,0.01,0.01,0.30,0.00,0.02,0.22,0.01,0.03,0.03,0.13,0.33,0.30,0.47,0.12,0.47,0.39,0.44,0.07,0.35,0.01,0.53,0.10,0.05,0.42,0.02,0.28,0.06,0.14,0.00,0.17,0.01,0.00,0.00,0.20,0.00,0.00,0.01,0.05,0.12,0.22,0.00,0.00,0.19,0.20,0.01,0.01,0.15,0.07,0.02,0.03,0.06,0.04,0.42,0.39,0.53,0.82,0.90,0.77,0.94,0.09,0.40,1.00,0.65,0.30,0.50,0.86,0.24,0.04,0.03,0.30,0.44,0.03,0.03,0.02,0.20,0.00,0.00,0.00,0.00,0.00,0.00,0.02,0.05,0.29,0.27,0.71,0.06,0.41,0.61,0.69,0.57,0.09,0.08,0.21,0.07,0.00,0.15,0.07,0.56,0.01,0.65,0.08,0.01,0.04,0.02,0.05,0.07,0.12,0.01,0.10,0.06,0.01,0.09,0.27,0.81,0.21,0.99,0.91,0.98,1.00,0.99,0.99,0.92,0.87,0.03,0.01,0.19,0.00,0.00,0.00,0.01,0.01,0.00,0.01,0.00,0.00,0.01,0.00,0.00,0.25,0.10,0.00,0.01,0.88,0.05,0.02,0.89,0.16,0.00,0.02,0.02,0.00,0.01,0.01,0.05,0.01,0.01,0.08,0.02,0.03,0.04,0.07,0.01,0.14,0.07,0.12,0.00,0.04,0.01,0.02,0.00,0.01,0.00,0.00,0.00,0.00,0.00,0.00,0.00,0.00,0.00,0.00,0.00,0.00,0.00,0.00,0.00,0.00,0.01,0.00,0.01,0.06,0.01,0.19,0.01,0.45,0.16,0.05,0.02,0.11,0.07,0.00,0.01,0.00,0.00,0.00,0.00,0.00,0.00,0.00,0.00,0.00,0.00,0.00,0.00,0.00,0.00,0.01,0.01,0.01,0.00,0.00,0.00,0.00,0.00,0.00,0.01,0.00,0.00,0.00,0.03,0.00,0.00,0.06,0.00,0.00,0.13,0.14,0.02,0.94,0.77,0.34,0.36,0.55,0.06,0.10,0.02,0.03,0.00,0.06,0.01,0.01,0.04,0.01,0.00,0.00,0.01,0.00,0.00,0.00,0.01,0.01,0.03,0.02,0.14,0.02,0.12,0.11,0.15,0.04,0.10,0.76,0.19,0.59,0.41,0.74,0.08,0.11,0.23,0.08,0.04,0.59,0.03,0.02,0.10,0.32,0.06,0.15,0.13,0.33,0.18,0.09,0.54,0.00,0.43,0.04,0.01,0.08,0.01,0.38,0.03,0.48,0.57,0.36,0.14,0.00,0.04,0.03,0.00,0.00,0.01,0.02,0.01,0.05,0.64,0.28,0.74,0.76,0.48,0.86,0.88,0.64,0.16,0.20,0.05,0.06,0.26,0.03,0.02,0.00,0.00,0.00,0.00,0.00,0.06,0.00,0.26,0.04,0.00,0.20
Prediction from RNABindRPlus:		0,0,0,0,0,0,0,0,0,0,0,0,0,0,0,0,0,0,0,0,0,0,0,0,0,0,0,0,0,0,0,0,0,0,0,0,0,0,0,0,0,0,0,0,0,0,0,0,0,0,0,0,0,0,0,0,0,0,0,0,0,0,1,0,1,0,0,0,0,0,0,0,0,0,0,0,0,0,0,0,0,0,0,0,0,0,0,0,0,0,0,0,0,0,0,0,0,0,0,0,0,0,0,0,0,0,0,0,0,0,1,0,0,0,0,0,0,0,0,0,0,0,0,0,0,0,0,0,0,0,0,0,0,0,0,0,0,0,0,0,0,0,0,0,0,0,0,0,0,0,0,0,0,0,0,0,0,1,0,0,0,0,0,0,1,0,0,0,0,1,1,1,0,0,0,0,0,0,0,1,0,0,1,1,0,1,0,0,0,1,0,0,0,1,0,0,0,0,0,0,0,0,0,0,0,0,0,0,0,0,0,0,0,0,0,0,0,0,0,0,0,0,0,0,0,0,0,0,0,0,0,0,0,0,0,0,0,0,0,0,0,0,0,0,0,0,0,0,0,0,0,0,0,0,0,0,0,0,0,0,0,0,0,0,0,0,0,0,0,0,0,1,0,1,0,0,1,0,0,0,1,0,0,0,0,0,0,0,0,0,0,0,0,0,0,0,0,0,0,0,0,0,0,0,0,0,0,0,0,0,0,0,0,0,0,0,0,0,0,0,0,0,0,0,0,0,0,0,0,0,0,1,1,1,1,1,1,1,1,0,0,0,0,0,0,0,0,0,0,0,0,0,0,0,0,0,0,0,1,0,0,1,0,0,0,0,0,0,0,0,0,0,0,0,0,0,0,0,0,0,0,0,0,0,0,0,0,0,0,0,0,0,0,0,0,0,0,0,0,0,0,0,0,0,0,0,0,0,0,0,0,0,0,0,0,0,0,0,0,0,0,0,0,0,0,0,0,0,0,0,0,0,0,0,0,0,0,0,0,0,0,0,0,0,0,0,0,0,0,0,0,0,0,0,1,0,0,0,0,0,0,0,0,0,0,0,0,0,0,0,0,0,0,0,0,0,0,0,0,0,0,0,0,0,0,0,0,0,0,0,0,0,0,0,0,0,0,0,0,0,0,0,0,0,0,0,0,0,0,0,0,0,0,0,0,0,0,0,0,0,0,0,0,0,0,0,0,0,0,0,0,0,0,0,1,1,0,0,0,0,0,0,0,0,0,0,0,0,0,0,0,0,0,0,0
Predicted score from RNABindRPlus:	0.01,0.03,0.11,0.01,0.01,0.01,0.01,0.01,0.01,0.01,0.01,0.01,0.01,0.01,0.01,0.01,0.01,0.01,0.01,0.01,0.01,0.01,0.01,0.01,0.01,0.01,0.01,0.01,0.01,0.01,0.01,0.01,0.01,0.01,0.02,0.01,0.09,0.02,0.11,0.01,0.09,0.01,0.01,0.01,0.01,0.01,0.01,0.01,0.01,0.01,0.01,0.01,0.01,0.01,0.01,0.01,0.01,0.01,0.01,0.01,0.01,0.24,0.51,0.49,0.53,0.38,0.49,0.46,0.45,0.03,0.38,0.01,0.08,0.03,0.13,0.02,0.46,0.06,0.12,0.46,0.01,0.01,0.01,0.03,0.01,0.01,0.01,0.01,0.01,0.01,0.01,0.05,0.01,0.36,0.04,0.42,0.23,0.03,0.12,0.11,0.01,0.01,0.06,0.01,0.48,0.19,0.46,0.31,0.45,0.48,0.52,0.14,0.15,0.04,0.06,0.01,0.01,0.01,0.01,0.01,0.01,0.01,0.01,0.01,0.01,0.01,0.18,0.01,0.01,0.01,0.08,0.01,0.01,0.01,0.01,0.01,0.04,0.21,0.02,0.01,0.01,0.01,0.01,0.01,0.01,0.02,0.01,0.01,0.02,0.02,0.01,0.01,0.01,0.01,0.10,0.04,0.05,0.76,0.40,0.42,0.04,0.26,0.18,0.26,0.81,0.01,0.01,0.25,0.31,0.83,0.70,0.97,0.27,0.15,0.21,0.04,0.15,0.01,0.01,0.51,0.16,0.48,0.53,0.52,0.05,0.52,0.26,0.02,0.04,0.52,0.02,0.03,0.01,0.68,0.28,0.15,0.02,0.01,0.01,0.01,0.01,0.01,0.01,0.01,0.01,0.01,0.01,0.01,0.01,0.01,0.01,0.01,0.01,0.01,0.01,0.01,0.01,0.02,0.01,0.01,0.03,0.01,0.01,0.01,0.02,0.05,0.05,0.11,0.02,0.11,0.07,0.09,0.01,0.06,0.01,0.15,0.02,0.01,0.09,0.01,0.04,0.01,0.02,0.01,0.02,0.01,0.01,0.01,0.03,0.01,0.01,0.01,0.01,0.02,0.03,0.01,0.01,0.03,0.03,0.01,0.01,0.02,0.01,0.01,0.01,0.01,0.01,0.09,0.07,0.15,0.46,0.57,0.39,0.62,0.02,0.08,0.70,0.25,0.05,0.13,0.52,0.03,0.01,0.01,0.05,0.09,0.01,0.01,0.01,0.03,0.01,0.01,0.01,0.01,0.01,0.01,0.01,0.01,0.04,0.04,0.32,0.01,0.08,0.21,0.29,0.18,0.02,0.01,0.03,0.01,0.01,0.02,0.01,0.17,0.01,0.25,0.01,0.01,0.01,0.01,0.01,0.01,0.02,0.01,0.02,0.01,0.01,0.02,0.04,0.45,0.03,0.69,0.58,0.68,0.70,0.69,0.69,0.60,0.53,0.01,0.01,0.03,0.01,0.01,0.01,0.01,0.01,0.01,0.01,0.01,0.01,0.01,0.01,0.01,0.04,0.02,0.01,0.01,0.54,0.01,0.01,0.56,0.02,0.01,0.01,0.01,0.01,0.01,0.01,0.01,0.01,0.01,0.01,0.01,0.01,0.01,0.01,0.01,0.02,0.01,0.02,0.01,0.01,0.01,0.01,0.01,0.01,0.01,0.01,0.01,0.01,0.01,0.01,0.01,0.01,0.01,0.01,0.01,0.01,0.01,0.01,0.01,0.01,0.01,0.01,0.01,0.01,0.01,0.03,0.01,0.10,0.02,0.01,0.01,0.02,0.01,0.01,0.01,0.01,0.01,0.01,0.01,0.01,0.01,0.01,0.01,0.01,0.01,0.01,0.01,0.01,0.01,0.01,0.01,0.01,0.01,0.01,0.01,0.01,0.01,0.01,0.01,0.01,0.01,0.01,0.01,0.01,0.01,0.01,0.01,0.01,0.02,0.02,0.01,0.62,0.39,0.06,0.06,0.16,0.01,0.02,0.01,0.01,0.01,0.01,0.01,0.01,0.01,0.01,0.01,0.01,0.01,0.01,0.01,0.01,0.01,0.01,0.01,0.01,0.02,0.01,0.02,0.02,0.02,0.01,0.02,0.38,0.03,0.19,0.08,0.35,0.01,0.02,0.03,0.01,0.01,0.19,0.01,0.01,0.02,0.05,0.01,0.02,0.02,0.05,0.02,0.02,0.15,0.01,0.09,0.01,0.01,0.01,0.01,0.07,0.01,0.11,0.18,0.06,0.02,0.01,0.01,0.01,0.01,0.01,0.01,0.01,0.01,0.01,0.24,0.04,0.35,0.38,0.11,0.52,0.54,0.24,0.02,0.03,0.01,0.01,0.04,0.01,0.01,0.01,0.01,0.01,0.01,0.01,0.01,0.01,0.04,0.01,0.01,0.03
    #Input sequence length: 364
#Number of binding residues predicted by HomPRIP: 0
#Number of binding residues predicted by SVM: 40
#Number of binding residues predicted by RNABindRPlus: 20
>Q2G2A7_AF_A
sequence:							M,E,P,L,L,S,L,K,S,V,S,K,S,Y,D,D,L,N,I,L,D,D,I,D,I,D,I,E,S,G,Y,F,Y,T,L,L,G,P,S,G,C,G,K,T,T,I,L,K,L,I,A,G,F,E,Y,P,D,S,G,E,V,I,Y,Q,N,K,P,I,G,N,L,P,P,N,K,R,K,V,N,T,V,F,Q,D,Y,A,L,F,P,H,L,N,V,Y,D,N,I,A,F,G,L,K,L,K,K,L,S,K,T,E,I,D,Q,K,V,T,E,A,L,K,L,V,K,L,S,G,Y,E,K,R,N,I,N,E,M,S,G,G,Q,K,Q,R,V,A,I,A,R,A,I,V,N,E,P,E,I,L,L,L,D,E,S,L,S,A,L,D,L,K,L,R,T,E,M,Q,Y,E,L,R,E,L,Q,S,R,L,G,I,T,F,I,F,V,T,H,D,Q,E,E,A,L,A,L,S,D,F,L,F,V,L,K,D,G,K,I,Q,Q,F,G,T,P,T,D,I,Y,D,E,P,V,N,R,F,V,A,D,F,I,G,E,S,N,I,V,E,G,R,M,V,R,D,Y,V,V,N,I,Y,G,Q,D,F,E,C,V,D,M,G,I,P,E,N,K,K,V,E,V,V,I,R,P,E,D,I,S,L,I,K,A,E,E,G,L,F,K,A,T,V,D,S,M,L,F,R,G,V,H,Y,E,I,C,C,I,D,N,K,G,Y,E,W,V,I,Q,T,T,K,K,A,E,V,G,S,E,V,G,L,Y,F,D,P,E,A,I,H,I,M,V,P,G,E,T,E,E,E,F,D,K,R,I,E,S,Y,E,E,V,D,N,A
Prediction from HomPRIP:			????????????????????????????????????????????????????????????????????????????????????????????????????????????????????????????????????????????????????????????????????????????????????????????????????????????????????????????????????????????????????????????????????????????????????????????????????????????????????????????????????????????????????????????????????????????
Predicted score from HomPRIP:		?,?,?,?,?,?,?,?,?,?,?,?,?,?,?,?,?,?,?,?,?,?,?,?,?,?,?,?,?,?,?,?,?,?,?,?,?,?,?,?,?,?,?,?,?,?,?,?,?,?,?,?,?,?,?,?,?,?,?,?,?,?,?,?,?,?,?,?,?,?,?,?,?,?,?,?,?,?,?,?,?,?,?,?,?,?,?,?,?,?,?,?,?,?,?,?,?,?,?,?,?,?,?,?,?,?,?,?,?,?,?,?,?,?,?,?,?,?,?,?,?,?,?,?,?,?,?,?,?,?,?,?,?,?,?,?,?,?,?,?,?,?,?,?,?,?,?,?,?,?,?,?,?,?,?,?,?,?,?,?,?,?,?,?,?,?,?,?,?,?,?,?,?,?,?,?,?,?,?,?,?,?,?,?,?,?,?,?,?,?,?,?,?,?,?,?,?,?,?,?,?,?,?,?,?,?,?,?,?,?,?,?,?,?,?,?,?,?,?,?,?,?,?,?,?,?,?,?,?,?,?,?,?,?,?,?,?,?,?,?,?,?,?,?,?,?,?,?,?,?,?,?,?,?,?,?,?,?,?,?,?,?,?,?,?,?,?,?,?,?,?,?,?,?,?,?,?,?,?,?,?,?,?,?,?,?,?,?,?,?,?,?,?,?,?,?,?,?,?,?,?,?,?,?,?,?,?,?,?,?,?,?,?,?,?,?,?,?,?,?,?,?,?,?,?,?,?,?,?,?,?,?,?,?,?,?,?,?,?,?,?,?,?,?,?,?,?,?,?,?,?,?,?,?,?,?,?,?,?,?,?,?,?,?
Prediction from SVM:				0,0,0,0,0,0,0,0,0,0,0,0,0,0,0,0,0,0,0,0,0,0,0,0,0,0,0,0,0,0,0,0,0,0,0,0,1,1,1,1,1,1,1,1,0,0,0,1,0,0,0,0,0,0,0,0,0,0,0,0,0,0,0,0,0,0,0,0,0,0,0,0,1,1,1,1,1,0,0,1,0,0,1,1,1,1,0,0,0,0,0,0,0,0,0,0,0,0,1,1,0,1,0,1,0,0,0,0,0,0,0,0,0,0,0,0,0,0,0,0,0,0,0,0,0,0,0,0,0,1,0,0,0,1,0,1,1,1,1,1,1,1,1,1,1,0,1,0,0,0,0,0,0,0,0,0,0,0,0,0,1,0,0,0,0,0,0,0,0,0,0,0,0,0,0,0,0,0,0,0,0,0,0,0,0,0,0,0,0,0,0,0,0,0,0,0,0,0,0,0,0,0,0,0,0,0,0,0,0,0,0,0,0,0,0,0,0,0,1,0,0,0,0,0,0,0,0,0,0,0,0,0,0,0,0,0,0,0,0,0,0,0,0,0,0,0,0,0,0,0,0,0,0,0,0,0,0,0,0,0,0,0,0,0,0,0,0,0,0,0,0,0,0,0,0,1,0,0,0,0,0,0,0,0,0,0,0,0,0,0,0,0,0,0,0,0,0,0,0,1,0,0,0,0,0,0,0,0,0,0,0,0,0,0,0,0,0,0,0,0,0,0,0,0,0,0,0,0,0,0,0,0,0,0,0,0,0,0,0,0,0,0,0,0,0,0,0,0,0,0,0,0,0,0,0,0,0,0,0,0,0,0,0,0
Predicted score from SVM:			0.00,0.01,0.00,0.00,0.00,0.00,0.00,0.00,0.01,0.00,0.01,0.14,0.20,0.09,0.01,0.00,0.01,0.02,0.00,0.00,0.01,0.01,0.00,0.00,0.00,0.01,0.00,0.01,0.00,0.01,0.01,0.00,0.00,0.08,0.04,0.13,0.77,0.98,0.98,0.88,0.98,0.90,0.86,0.83,0.45,0.01,0.01,0.78,0.01,0.02,0.04,0.06,0.04,0.00,0.08,0.01,0.01,0.01,0.02,0.06,0.00,0.01,0.01,0.01,0.01,0.07,0.24,0.05,0.22,0.29,0.29,0.37,0.81,0.89,0.74,0.97,0.94,0.03,0.49,0.56,0.22,0.38,0.77,0.85,0.62,0.51,0.12,0.32,0.27,0.17,0.00,0.29,0.03,0.03,0.02,0.16,0.01,0.12,0.55,0.73,0.23,0.94,0.02,0.75,0.17,0.05,0.03,0.30,0.06,0.04,0.02,0.04,0.04,0.21,0.01,0.08,0.02,0.00,0.01,0.08,0.01,0.01,0.11,0.02,0.02,0.04,0.09,0.00,0.07,0.57,0.00,0.01,0.42,0.56,0.20,0.92,0.98,1.00,0.99,1.00,0.99,0.94,0.58,0.93,0.76,0.33,0.97,0.06,0.01,0.00,0.01,0.00,0.00,0.01,0.00,0.00,0.00,0.00,0.01,0.03,0.72,0.06,0.07,0.14,0.08,0.01,0.06,0.40,0.00,0.13,0.16,0.11,0.04,0.12,0.09,0.03,0.00,0.47,0.01,0.00,0.02,0.03,0.05,0.00,0.03,0.00,0.03,0.28,0.00,0.08,0.00,0.01,0.02,0.00,0.03,0.03,0.01,0.00,0.00,0.01,0.00,0.01,0.01,0.01,0.00,0.00,0.00,0.00,0.00,0.00,0.01,0.03,0.00,0.05,0.12,0.02,0.01,0.29,0.63,0.12,0.15,0.02,0.05,0.02,0.30,0.22,0.01,0.03,0.11,0.11,0.00,0.01,0.12,0.14,0.04,0.19,0.07,0.05,0.24,0.02,0.02,0.02,0.08,0.06,0.06,0.04,0.03,0.02,0.03,0.01,0.01,0.04,0.02,0.02,0.01,0.08,0.13,0.04,0.06,0.10,0.03,0.04,0.21,0.10,0.03,0.08,0.10,0.00,0.01,0.01,0.00,0.02,0.01,0.06,0.00,0.74,0.03,0.05,0.01,0.01,0.00,0.00,0.01,0.00,0.00,0.00,0.01,0.01,0.18,0.00,0.19,0.02,0.10,0.00,0.04,0.45,0.08,0.06,0.28,0.79,0.28,0.06,0.05,0.07,0.01,0.00,0.00,0.00,0.00,0.00,0.00,0.01,0.01,0.03,0.02,0.08,0.01,0.01,0.09,0.06,0.11,0.17,0.13,0.06,0.01,0.00,0.00,0.00,0.04,0.01,0.02,0.00,0.08,0.01,0.02,0.01,0.01,0.01,0.01,0.03,0.00,0.01,0.15,0.07,0.01,0.01,0.02,0.01,0.00,0.00,0.00,0.00,0.00,0.00,0.00,0.00,0.00,0.00,0.00,0.00,0.00,0.00,0.00,0.00
Prediction from RNABindRPlus:		0,0,0,0,0,0,0,0,0,0,0,0,0,0,0,0,0,0,0,0,0,0,0,0,0,0,0,0,0,0,0,0,0,0,0,0,0,1,1,1,1,1,1,0,0,0,0,0,0,0,0,0,0,0,0,0,0,0,0,0,0,0,0,0,0,0,0,0,0,0,0,0,0,1,0,1,1,0,0,0,0,0,0,1,0,0,0,0,0,0,0,0,0,0,0,0,0,0,0,0,0,1,0,0,0,0,0,0,0,0,0,0,0,0,0,0,0,0,0,0,0,0,0,0,0,0,0,0,0,0,0,0,0,0,0,1,1,1,1,1,1,1,0,1,0,0,1,0,0,0,0,0,0,0,0,0,0,0,0,0,0,0,0,0,0,0,0,0,0,0,0,0,0,0,0,0,0,0,0,0,0,0,0,0,0,0,0,0,0,0,0,0,0,0,0,0,0,0,0,0,0,0,0,0,0,0,0,0,0,0,0,0,0,0,0,0,0,0,0,0,0,0,0,0,0,0,0,0,0,0,0,0,0,0,0,0,0,0,0,0,0,0,0,0,0,0,0,0,0,0,0,0,0,0,0,0,0,0,0,0,0,0,0,0,0,0,0,0,0,0,0,0,0,0,0,0,0,0,0,0,0,0,0,0,0,0,0,0,0,0,0,0,0,0,0,0,0,0,0,0,0,0,0,0,0,0,0,0,0,0,0,0,0,0,0,0,0,0,0,0,0,0,0,0,0,0,0,0,0,0,0,0,0,0,0,0,0,0,0,0,0,0,0,0,0,0,0,0,0,0,0,0,0,0,0,0,0,0,0,0,0,0,0,0
Predicted score from RNABindRPlus:	0.01,0.01,0.01,0.01,0.01,0.01,0.01,0.01,0.01,0.01,0.01,0.02,0.03,0.02,0.01,0.01,0.01,0.01,0.01,0.01,0.01,0.01,0.01,0.01,0.01,0.01,0.01,0.01,0.01,0.01,0.01,0.01,0.01,0.01,0.01,0.02,0.39,0.68,0.68,0.54,0.68,0.57,0.52,0.47,0.10,0.01,0.01,0.41,0.01,0.01,0.01,0.01,0.01,0.01,0.01,0.01,0.01,0.01,0.01,0.01,0.01,0.01,0.01,0.01,0.01,0.01,0.03,0.01,0.03,0.04,0.04,0.07,0.45,0.56,0.35,0.66,0.62,0.01,0.12,0.17,0.03,0.07,0.39,0.50,0.22,0.13,0.02,0.05,0.04,0.02,0.01,0.04,0.01,0.01,0.01,0.02,0.01,0.02,0.16,0.34,0.03,0.62,0.01,0.37,0.02,0.01,0.01,0.05,0.01,0.01,0.01,0.01,0.01,0.03,0.01,0.01,0.01,0.01,0.01,0.01,0.01,0.01,0.02,0.01,0.01,0.01,0.02,0.01,0.01,0.18,0.01,0.01,0.09,0.17,0.03,0.60,0.68,0.70,0.69,0.70,0.69,0.62,0.19,0.61,0.38,0.05,0.66,0.01,0.01,0.01,0.01,0.01,0.01,0.01,0.01,0.01,0.01,0.01,0.01,0.01,0.33,0.01,0.01,0.02,0.01,0.01,0.01,0.08,0.01,0.02,0.02,0.02,0.01,0.02,0.02,0.01,0.01,0.11,0.01,0.01,0.01,0.01,0.01,0.01,0.01,0.01,0.01,0.04,0.01,0.01,0.01,0.01,0.01,0.01,0.01,0.01,0.01,0.01,0.01,0.01,0.01,0.01,0.01,0.01,0.01,0.01,0.01,0.01,0.01,0.01,0.01,0.01,0.01,0.01,0.02,0.01,0.01,0.04,0.23,0.02,0.02,0.01,0.01,0.01,0.05,0.03,0.01,0.01,0.02,0.02,0.01,0.01,0.02,0.02,0.01,0.03,0.01,0.01,0.03,0.01,0.01,0.01,0.01,0.01,0.01,0.01,0.01,0.01,0.01,0.01,0.01,0.01,0.01,0.01,0.01,0.01,0.02,0.01,0.01,0.02,0.01,0.01,0.03,0.02,0.01,0.01,0.02,0.01,0.01,0.01,0.01,0.01,0.01,0.01,0.01,0.35,0.01,0.01,0.01,0.01,0.01,0.01,0.01,0.01,0.01,0.01,0.01,0.01,0.02,0.01,0.03,0.01,0.02,0.01,0.01,0.10,0.01,0.01,0.04,0.42,0.04,0.01,0.01,0.01,0.01,0.01,0.01,0.01,0.01,0.01,0.01,0.01,0.01,0.01,0.01,0.01,0.01,0.01,0.02,0.01,0.02,0.02,0.02,0.01,0.01,0.01,0.01,0.01,0.01,0.01,0.01,0.01,0.01,0.01,0.01,0.01,0.01,0.01,0.01,0.01,0.01,0.01,0.02,0.01,0.01,0.01,0.01,0.01,0.01,0.01,0.01,0.01,0.01,0.01,0.01,0.01,0.01,0.01,0.01,0.01,0.01,0.01,0.01,0.01
    #Input sequence length: 91
#Number of binding residues predicted by HomPRIP: 0
#Number of binding residues predicted by SVM: 0
#Number of binding residues predicted by RNABindRPlus: 0
>Q2G2C3_AF_A
sequence:							M,A,K,Q,A,T,M,K,N,A,A,L,K,Q,L,T,K,D,A,D,E,I,L,H,L,I,K,V,Q,L,D,N,L,T,L,P,S,C,P,L,Y,E,E,V,L,D,T,Q,M,F,G,L,Q,K,E,V,D,F,A,V,K,L,G,L,V,D,R,E,D,G,K,Q,I,M,L,R,L,E,K,E,L,S,K,L,H,E,A,F,T,L,V
Prediction from HomPRIP:			???????????????????????????????????????????????????????????????????????????????????????????
Predicted score from HomPRIP:		?,?,?,?,?,?,?,?,?,?,?,?,?,?,?,?,?,?,?,?,?,?,?,?,?,?,?,?,?,?,?,?,?,?,?,?,?,?,?,?,?,?,?,?,?,?,?,?,?,?,?,?,?,?,?,?,?,?,?,?,?,?,?,?,?,?,?,?,?,?,?,?,?,?,?,?,?,?,?,?,?,?,?,?,?,?,?,?,?,?,?
Prediction from SVM:				0,0,0,0,0,0,0,0,0,0,0,0,0,0,0,0,0,0,0,0,0,0,0,0,0,0,0,0,0,0,0,0,0,0,0,0,0,0,0,0,0,0,0,0,0,0,0,0,0,0,0,0,0,0,0,0,0,0,0,0,0,0,0,0,0,0,0,0,0,0,0,0,0,0,0,0,0,0,0,0,0,0,0,0,0,0,0,0,0,0,0
Predicted score from SVM:			0.00,0.00,0.00,0.00,0.00,0.00,0.00,0.02,0.01,0.00,0.00,0.00,0.00,0.00,0.00,0.00,0.02,0.03,0.00,0.01,0.03,0.00,0.01,0.04,0.01,0.00,0.02,0.04,0.10,0.04,0.06,0.13,0.06,0.03,0.01,0.22,0.27,0.10,0.29,0.01,0.00,0.01,0.01,0.01,0.00,0.00,0.02,0.04,0.00,0.07,0.21,0.04,0.02,0.39,0.13,0.00,0.22,0.07,0.03,0.02,0.17,0.00,0.01,0.00,0.00,0.01,0.04,0.01,0.01,0.01,0.28,0.01,0.00,0.00,0.00,0.01,0.00,0.00,0.01,0.00,0.00,0.00,0.00,0.00,0.00,0.00,0.00,0.00,0.00,0.00,0.00
Prediction from RNABindRPlus:		0,0,0,0,0,0,0,0,0,0,0,0,0,0,0,0,0,0,0,0,0,0,0,0,0,0,0,0,0,0,0,0,0,0,0,0,0,0,0,0,0,0,0,0,0,0,0,0,0,0,0,0,0,0,0,0,0,0,0,0,0,0,0,0,0,0,0,0,0,0,0,0,0,0,0,0,0,0,0,0,0,0,0,0,0,0,0,0,0,0,0
Predicted score from RNABindRPlus:	0.01,0.01,0.01,0.01,0.01,0.01,0.01,0.01,0.01,0.01,0.01,0.01,0.01,0.01,0.01,0.01,0.01,0.01,0.01,0.01,0.01,0.01,0.01,0.01,0.01,0.01,0.01,0.01,0.02,0.01,0.01,0.02,0.01,0.01,0.01,0.03,0.04,0.02,0.04,0.01,0.01,0.01,0.01,0.01,0.01,0.01,0.01,0.01,0.01,0.01,0.03,0.01,0.01,0.07,0.02,0.01,0.03,0.01,0.01,0.01,0.02,0.01,0.01,0.01,0.01,0.01,0.01,0.01,0.01,0.01,0.04,0.01,0.01,0.01,0.01,0.01,0.01,0.01,0.01,0.01,0.01,0.01,0.01,0.01,0.01,0.01,0.01,0.01,0.01,0.01,0.01
    #Input sequence length: 96
#Number of binding residues predicted by HomPRIP: 0
#Number of binding residues predicted by SVM: 22
#Number of binding residues predicted by RNABindRPlus: 12
>Q2G2G2_4QWQ_A
sequence:							E,Q,L,S,F,D,E,L,T,L,I,N,L,S,K,V,V,T,V,N,G,H,E,V,P,M,R,I,K,E,F,E,L,L,W,Y,L,A,S,R,E,N,E,V,I,S,K,S,E,L,L,E,K,V,W,G,Y,D,A,N,T,V,N,V,H,I,H,R,I,R,E,K,L,E,K,E,S,F,T,T,Y,T,I,T,T,V,W,G,L,G,Y,K,F,E,R,S
Prediction from HomPRIP:			????????????????????????????????????????????????????????????????????????????????????????????????
Predicted score from HomPRIP:		?,?,?,?,?,?,?,?,?,?,?,?,?,?,?,?,?,?,?,?,?,?,?,?,?,?,?,?,?,?,?,?,?,?,?,?,?,?,?,?,?,?,?,?,?,?,?,?,?,?,?,?,?,?,?,?,?,?,?,?,?,?,?,?,?,?,?,?,?,?,?,?,?,?,?,?,?,?,?,?,?,?,?,?,?,?,?,?,?,?,?,?,?,?,?,?
Prediction from SVM:				0,0,0,0,0,0,0,0,0,0,1,0,0,0,0,0,0,0,0,0,0,0,0,0,0,0,0,0,0,0,0,0,0,0,0,0,0,0,0,0,0,0,1,0,0,0,0,0,0,0,0,0,0,0,0,0,0,0,0,1,1,0,1,1,1,0,1,1,1,1,1,1,0,0,0,0,0,0,0,0,0,0,0,0,1,0,1,1,1,1,1,1,1,1,0,0
Predicted score from SVM:			0.00,0.00,0.00,0.00,0.00,0.02,0.01,0.02,0.10,0.09,0.54,0.18,0.31,0.38,0.37,0.12,0.01,0.06,0.01,0.06,0.01,0.07,0.13,0.02,0.08,0.04,0.22,0.03,0.43,0.04,0.04,0.08,0.01,0.03,0.02,0.09,0.04,0.04,0.23,0.28,0.12,0.36,0.77,0.32,0.39,0.48,0.46,0.15,0.28,0.05,0.01,0.02,0.06,0.00,0.02,0.01,0.07,0.06,0.06,0.89,0.80,0.36,0.94,0.89,0.97,0.49,0.98,1.00,0.63,0.90,0.69,0.67,0.16,0.11,0.07,0.04,0.05,0.02,0.02,0.02,0.03,0.04,0.01,0.07,0.53,0.22,0.73,0.98,0.97,0.96,1.00,0.99,0.76,0.68,0.05,0.03
Prediction from RNABindRPlus:		0,0,0,0,0,0,0,0,0,0,0,0,0,0,0,0,0,0,0,0,0,0,0,0,0,0,0,0,0,0,0,0,0,0,0,0,0,0,0,0,0,0,0,0,0,0,0,0,0,0,0,0,0,0,0,0,0,0,0,1,0,0,1,1,1,0,1,1,0,1,0,0,0,0,0,0,0,0,0,0,0,0,0,0,0,0,0,1,1,1,1,1,0,0,0,0
Predicted score from RNABindRPlus:	0.01,0.01,0.01,0.01,0.01,0.01,0.01,0.01,0.02,0.02,0.15,0.02,0.05,0.07,0.07,0.02,0.01,0.01,0.01,0.01,0.01,0.01,0.02,0.01,0.01,0.01,0.03,0.01,0.09,0.01,0.01,0.01,0.01,0.01,0.01,0.02,0.01,0.01,0.03,0.04,0.02,0.06,0.39,0.05,0.07,0.11,0.10,0.02,0.04,0.01,0.01,0.01,0.01,0.01,0.01,0.01,0.01,0.01,0.01,0.56,0.43,0.06,0.62,0.56,0.66,0.12,0.68,0.70,0.23,0.57,0.29,0.27,0.02,0.02,0.01,0.01,0.01,0.01,0.01,0.01,0.01,0.01,0.01,0.01,0.15,0.03,0.34,0.68,0.66,0.65,0.70,0.69,0.38,0.28,0.01,0.01
    #Input sequence length: 204
#Number of binding residues predicted by HomPRIP: 9
#Number of binding residues predicted by SVM: 20
#Number of binding residues predicted by RNABindRPlus: 5
>Q2G2G7_AF_A
sequence:							M,T,K,Y,T,F,K,P,K,D,F,K,A,F,N,V,E,G,L,D,A,R,M,E,A,L,N,E,Y,I,R,P,Q,L,R,E,L,G,E,Y,F,S,D,F,F,T,S,Q,T,G,E,T,F,Y,P,H,V,A,K,H,A,R,R,S,V,N,P,P,K,D,T,W,V,A,F,A,T,N,K,R,G,Y,K,M,L,P,H,F,Q,I,G,M,F,E,D,Q,L,F,V,M,F,G,I,M,H,E,A,K,D,K,A,T,R,A,K,V,F,E,R,K,F,K,A,I,Q,Q,L,P,D,D,Y,R,V,C,L,D,H,M,K,P,D,K,P,F,I,K,D,L,T,D,D,D,L,I,E,A,I,Q,R,A,I,N,V,K,K,G,E,F,F,I,A,R,A,I,T,P,Q,D,K,R,L,K,S,D,K,A,F,I,A,F,L,E,E,T,F,D,Q,F,L,P,F,Y,S,A
Prediction from HomPRIP:			?,?,?,?,?,?,?,?,?,?,?,?,?,?,?,?,?,?,?,?,?,?,?,?,?,?,?,?,?,?,?,?,?,?,?,?,?,?,?,?,?,?,?,?,?,?,?,?,?,?,?,?,?,?,?,?,?,?,?,?,?,?,?,?,?,?,?,?,?,?,?,?,0,0,0,0,0,0,0,0,0,0,0,0,0,0,0,0,0,0,0,0,0,0,0,0,0,0,0,1,1,0,1,?,?,1,0,0,1,0,0,0,0,0,0,0,0,0,0,0,0,0,0,0,0,0,0,0,0,0,0,0,0,0,0,0,1,?,?,?,?,?,?,?,?,?,?,?,1,0,0,1,0,0,0,0,0,0,0,0,0,0,0,0,0,0,0,0,0,0,0,0,0,0,0,0,0,0,0,0,0,0,0,0,1,?,?,?,?,?,?,?,?,?,?,?,?,?,?,?,?,?,?,?
Predicted score from HomPRIP:		?,?,?,?,?,?,?,?,?,?,?,?,?,?,?,?,?,?,?,?,?,?,?,?,?,?,?,?,?,?,?,?,?,?,?,?,?,?,?,?,?,?,?,?,?,?,?,?,?,?,?,?,?,?,?,?,?,?,?,?,?,?,?,?,?,?,?,?,?,?,?,?,0.00,0.00,0.00,0.00,0.00,0.00,0.00,0.00,0.00,0.00,0.00,0.00,0.00,0.00,0.00,0.00,0.00,0.00,0.00,0.00,0.00,0.00,0.00,0.00,0.00,0.00,0.00,0.89,1.00,0.00,0.89,?,?,1.00,0.00,0.00,1.00,0.00,0.00,0.00,0.00,0.00,0.00,0.00,0.00,0.00,0.00,0.00,0.00,0.00,0.00,0.00,0.00,0.00,0.00,0.00,0.00,0.00,0.00,0.00,0.00,0.00,0.00,0.00,1.00,?,?,?,?,?,?,?,?,?,?,?,1.00,0.00,0.00,1.00,0.00,0.00,0.00,0.00,0.00,0.00,0.00,0.00,0.00,0.00,0.00,0.00,0.00,0.00,0.00,0.00,0.00,0.00,0.00,0.00,0.00,0.00,0.00,0.00,0.00,0.00,0.00,0.00,0.00,0.00,0.00,0.00,1.00,?,?,?,?,?,?,?,?,?,?,?,?,?,?,?,?,?,?,?
Prediction from SVM:				0,0,0,0,0,0,0,0,0,0,0,0,0,0,0,0,0,0,0,0,0,0,0,0,0,0,0,0,0,0,0,0,0,0,0,0,0,0,0,0,0,0,0,0,0,0,0,0,0,0,0,0,0,0,0,1,0,1,1,1,1,1,1,1,1,1,1,1,0,1,1,0,0,0,0,0,0,0,1,1,0,0,1,0,0,0,1,0,0,0,0,0,0,0,0,0,0,0,0,0,0,0,0,0,0,0,0,0,0,0,0,0,0,0,0,0,0,0,0,0,0,0,0,0,0,0,0,0,0,0,0,0,0,0,0,0,0,0,0,0,0,0,0,0,0,0,0,0,0,0,0,0,0,0,0,0,0,0,0,0,0,0,0,1,1,0,0,0,0,0,0,0,0,0,0,0,0,0,0,0,0,0,0,0,0,0,0,0,0,0,0,0,0,0,0,0,0,0,0,0,0,0,0,0
Predicted score from SVM:			0.06,0.02,0.45,0.07,0.01,0.02,0.01,0.00,0.00,0.00,0.01,0.00,0.00,0.00,0.00,0.00,0.00,0.00,0.02,0.01,0.01,0.13,0.01,0.00,0.01,0.00,0.00,0.00,0.04,0.00,0.02,0.03,0.04,0.01,0.02,0.01,0.00,0.00,0.00,0.00,0.00,0.00,0.00,0.00,0.00,0.00,0.00,0.00,0.00,0.00,0.00,0.01,0.01,0.02,0.04,0.59,0.33,0.61,0.89,0.82,0.71,0.86,0.98,0.97,0.59,0.89,0.70,0.68,0.25,0.80,0.76,0.36,0.10,0.40,0.29,0.11,0.12,0.30,0.78,0.81,0.38,0.47,0.78,0.46,0.23,0.29,0.50,0.06,0.09,0.07,0.05,0.03,0.06,0.04,0.06,0.23,0.02,0.07,0.01,0.03,0.01,0.03,0.02,0.00,0.01,0.03,0.01,0.03,0.04,0.27,0.02,0.05,0.02,0.00,0.01,0.01,0.01,0.00,0.00,0.01,0.00,0.00,0.00,0.00,0.01,0.00,0.00,0.01,0.01,0.02,0.01,0.02,0.01,0.04,0.03,0.10,0.03,0.02,0.01,0.01,0.01,0.01,0.00,0.01,0.00,0.02,0.00,0.01,0.01,0.01,0.01,0.00,0.00,0.00,0.01,0.00,0.00,0.01,0.08,0.01,0.11,0.18,0.16,0.71,0.69,0.42,0.31,0.18,0.24,0.04,0.07,0.12,0.01,0.03,0.01,0.02,0.01,0.01,0.01,0.01,0.00,0.01,0.00,0.00,0.00,0.00,0.00,0.00,0.00,0.00,0.00,0.00,0.00,0.00,0.00,0.00,0.00,0.00,0.00,0.01,0.01,0.01,0.22,0.00
Prediction from RNABindRPlus:		0,0,0,0,0,0,0,0,0,0,0,0,0,0,0,0,0,0,0,0,0,0,0,0,0,0,0,0,0,0,0,0,0,0,0,0,0,0,0,0,0,0,0,0,0,0,0,0,0,0,0,0,0,0,0,0,0,0,1,0,0,1,1,1,0,1,0,0,0,0,0,0,0,0,0,0,0,0,0,0,0,0,0,0,0,0,0,0,0,0,0,0,0,0,0,0,0,0,0,0,0,0,0,0,0,0,0,0,0,0,0,0,0,0,0,0,0,0,0,0,0,0,0,0,0,0,0,0,0,0,0,0,0,0,0,0,0,0,0,0,0,0,0,0,0,0,0,0,0,0,0,0,0,0,0,0,0,0,0,0,0,0,0,0,0,0,0,0,0,0,0,0,0,0,0,0,0,0,0,0,0,0,0,0,0,0,0,0,0,0,0,0,0,0,0,0,0,0,0,0,0,0,0,0
Predicted score from RNABindRPlus:	0.01,0.01,0.10,0.01,0.01,0.01,0.01,0.01,0.01,0.01,0.01,0.01,0.01,0.01,0.01,0.01,0.01,0.01,0.01,0.01,0.01,0.02,0.01,0.01,0.01,0.01,0.01,0.01,0.01,0.01,0.01,0.01,0.01,0.01,0.01,0.01,0.01,0.01,0.01,0.01,0.01,0.01,0.01,0.01,0.01,0.01,0.01,0.01,0.01,0.01,0.01,0.01,0.01,0.01,0.01,0.19,0.05,0.21,0.56,0.46,0.32,0.52,0.68,0.66,0.19,0.56,0.31,0.28,0.04,0.43,0.38,0.06,0.01,0.04,0.02,0.01,0.01,0.02,0.25,0.29,0.04,0.06,0.25,0.06,0.02,0.02,0.07,0.01,0.01,0.01,0.01,0.01,0.01,0.01,0.01,0.02,0.01,0.01,0.01,0.12,0.15,0.01,0.11,0.01,0.01,0.17,0.01,0.01,0.18,0.02,0.01,0.01,0.01,0.01,0.01,0.01,0.01,0.01,0.01,0.01,0.01,0.01,0.01,0.01,0.01,0.01,0.01,0.01,0.01,0.01,0.01,0.01,0.01,0.01,0.01,0.01,0.17,0.01,0.01,0.01,0.01,0.01,0.01,0.01,0.01,0.01,0.01,0.01,0.15,0.01,0.01,0.15,0.01,0.01,0.01,0.01,0.01,0.01,0.01,0.01,0.01,0.01,0.01,0.19,0.17,0.04,0.03,0.01,0.02,0.01,0.01,0.01,0.01,0.01,0.01,0.01,0.01,0.01,0.01,0.01,0.01,0.01,0.01,0.01,0.15,0.01,0.01,0.01,0.01,0.01,0.01,0.01,0.01,0.01,0.01,0.01,0.01,0.01,0.01,0.01,0.01,0.01,0.03,0.01
    #Input sequence length: 272
#Number of binding residues predicted by HomPRIP: 0
#Number of binding residues predicted by SVM: 75
#Number of binding residues predicted by RNABindRPlus: 44
>Q2G2G9_AF_A
sequence:							M,P,K,I,T,K,I,E,V,Q,K,K,N,K,E,R,F,N,L,F,L,D,E,Q,F,E,M,G,I,D,I,D,T,L,V,K,F,N,L,K,K,G,Q,Q,L,E,A,A,D,M,A,E,I,Q,K,Y,D,H,Y,R,I,G,L,N,K,A,I,Q,Y,L,S,Y,K,K,R,T,E,K,E,V,I,Q,Y,L,Q,K,E,E,I,S,E,Q,A,I,S,E,V,I,E,Y,C,Y,R,E,K,L,I,D,H,Q,D,Y,A,E,S,L,K,N,T,M,I,R,T,T,D,K,G,P,K,I,Y,Q,Q,K,L,Y,Q,L,G,I,E,P,N,I,I,E,I,F,T,E,L,Y,R,E,Q,Q,E,L,D,D,I,I,Q,I,A,E,K,I,S,K,T,K,K,G,P,Q,N,K,V,K,E,K,V,M,Q,S,L,I,Q,K,G,F,E,M,E,T,I,H,A,V,L,N,E,M,D,F,T,Q,D,E,A,V,L,D,D,L,L,Q,R,D,L,E,K,I,Y,N,K,N,R,K,K,Y,T,Q,Q,K,L,I,S,K,T,I,E,G,L,M,R,K,G,Y,K,Y,D,K,I,K,A,K,L,E,E,S,G,I,A,D,G,T,E,E,I,E
Prediction from HomPRIP:			????????????????????????????????????????????????????????????????????????????????????????????????????????????????????????????????????????????????????????????????????????????????????????????????????????????????????????????????????????????????????????????????????????????????
Predicted score from HomPRIP:		?,?,?,?,?,?,?,?,?,?,?,?,?,?,?,?,?,?,?,?,?,?,?,?,?,?,?,?,?,?,?,?,?,?,?,?,?,?,?,?,?,?,?,?,?,?,?,?,?,?,?,?,?,?,?,?,?,?,?,?,?,?,?,?,?,?,?,?,?,?,?,?,?,?,?,?,?,?,?,?,?,?,?,?,?,?,?,?,?,?,?,?,?,?,?,?,?,?,?,?,?,?,?,?,?,?,?,?,?,?,?,?,?,?,?,?,?,?,?,?,?,?,?,?,?,?,?,?,?,?,?,?,?,?,?,?,?,?,?,?,?,?,?,?,?,?,?,?,?,?,?,?,?,?,?,?,?,?,?,?,?,?,?,?,?,?,?,?,?,?,?,?,?,?,?,?,?,?,?,?,?,?,?,?,?,?,?,?,?,?,?,?,?,?,?,?,?,?,?,?,?,?,?,?,?,?,?,?,?,?,?,?,?,?,?,?,?,?,?,?,?,?,?,?,?,?,?,?,?,?,?,?,?,?,?,?,?,?,?,?,?,?,?,?,?,?,?,?,?,?,?,?,?,?,?,?,?,?,?,?,?,?,?,?,?,?,?,?,?,?,?,?
Prediction from SVM:				1,1,1,1,1,1,1,1,1,1,1,1,1,1,1,1,0,0,0,0,0,0,0,0,0,0,0,0,0,0,0,0,0,0,0,0,0,0,0,0,0,0,0,0,0,0,0,0,0,0,0,0,0,0,0,0,0,0,0,0,0,0,0,1,1,0,0,1,1,1,1,1,1,1,1,1,1,1,0,0,0,0,0,0,0,0,0,0,0,0,0,0,0,0,0,0,0,0,0,0,0,0,0,0,0,0,0,0,0,0,0,0,0,0,0,0,0,0,1,1,0,1,1,1,1,1,1,1,1,1,0,0,0,0,0,0,0,0,0,0,0,0,0,0,0,0,0,0,0,0,0,0,0,0,0,0,0,0,0,0,0,0,0,0,0,0,1,1,1,1,1,1,1,1,1,1,1,1,0,0,0,1,0,0,0,0,0,0,1,1,0,1,0,0,0,0,0,0,0,0,0,0,0,0,0,0,0,0,0,0,0,0,0,0,0,0,0,0,0,0,0,0,0,0,0,1,1,1,1,1,1,1,1,1,1,1,1,1,1,1,0,0,1,1,0,0,1,1,0,0,0,0,0,0,0,0,0,0,0,0,0,0,0,0,0,0,0,0,0,0,0,0
Predicted score from SVM:			1.00,1.00,1.00,1.00,1.00,1.00,0.98,1.00,0.99,0.99,0.94,0.99,0.94,0.70,0.74,0.66,0.12,0.09,0.02,0.04,0.00,0.01,0.00,0.00,0.01,0.02,0.01,0.02,0.04,0.04,0.02,0.04,0.12,0.05,0.02,0.25,0.09,0.18,0.04,0.27,0.36,0.13,0.07,0.01,0.01,0.01,0.00,0.00,0.00,0.00,0.00,0.00,0.00,0.00,0.00,0.01,0.00,0.01,0.01,0.06,0.27,0.05,0.15,0.70,0.77,0.30,0.28,0.93,0.92,0.75,0.78,0.97,0.92,0.70,0.96,0.90,0.54,0.68,0.40,0.05,0.10,0.04,0.12,0.02,0.01,0.00,0.01,0.00,0.00,0.00,0.01,0.01,0.01,0.00,0.01,0.01,0.00,0.00,0.01,0.06,0.03,0.04,0.04,0.01,0.09,0.05,0.03,0.13,0.26,0.16,0.09,0.22,0.04,0.06,0.16,0.12,0.03,0.25,0.77,0.87,0.31,0.98,0.99,0.99,0.95,1.00,0.99,0.96,0.98,0.72,0.25,0.46,0.14,0.09,0.09,0.17,0.02,0.08,0.03,0.01,0.00,0.01,0.00,0.00,0.00,0.00,0.00,0.00,0.00,0.00,0.00,0.00,0.00,0.00,0.00,0.00,0.00,0.00,0.00,0.02,0.00,0.01,0.46,0.24,0.01,0.21,0.72,0.74,0.54,0.99,0.99,1.00,1.00,0.98,0.96,0.69,0.97,0.88,0.34,0.38,0.40,0.80,0.05,0.06,0.23,0.32,0.15,0.07,0.80,0.96,0.42,0.61,0.09,0.33,0.03,0.00,0.00,0.00,0.00,0.00,0.00,0.00,0.00,0.00,0.00,0.00,0.00,0.00,0.00,0.00,0.00,0.00,0.00,0.00,0.00,0.00,0.00,0.00,0.10,0.06,0.01,0.07,0.33,0.11,0.29,0.85,0.94,0.76,0.73,0.96,0.94,0.70,0.82,0.72,0.94,0.52,0.74,0.72,0.58,0.91,0.20,0.42,0.58,0.68,0.42,0.20,0.93,0.82,0.16,0.32,0.03,0.03,0.02,0.00,0.00,0.00,0.00,0.00,0.00,0.00,0.00,0.00,0.00,0.00,0.00,0.00,0.00,0.00,0.00,0.00,0.00,0.00
Prediction from RNABindRPlus:		1,1,1,1,1,1,1,1,1,1,1,1,1,0,0,0,0,0,0,0,0,0,0,0,0,0,0,0,0,0,0,0,0,0,0,0,0,0,0,0,0,0,0,0,0,0,0,0,0,0,0,0,0,0,0,0,0,0,0,0,0,0,0,0,0,0,0,1,1,0,0,1,1,0,1,1,0,0,0,0,0,0,0,0,0,0,0,0,0,0,0,0,0,0,0,0,0,0,0,0,0,0,0,0,0,0,0,0,0,0,0,0,0,0,0,0,0,0,0,1,0,1,1,1,1,1,1,1,1,0,0,0,0,0,0,0,0,0,0,0,0,0,0,0,0,0,0,0,0,0,0,0,0,0,0,0,0,0,0,0,0,0,0,0,0,0,0,0,0,1,1,1,1,1,1,0,1,1,0,0,0,0,0,0,0,0,0,0,0,1,0,0,0,0,0,0,0,0,0,0,0,0,0,0,0,0,0,0,0,0,0,0,0,0,0,0,0,0,0,0,0,0,0,0,0,1,1,0,0,1,1,0,0,0,1,0,0,0,0,1,0,0,0,0,0,0,1,0,0,0,0,0,0,0,0,0,0,0,0,0,0,0,0,0,0,0,0,0,0,0,0,0
Predicted score from RNABindRPlus:	0.70,0.70,0.70,0.70,0.70,0.70,0.68,0.70,0.69,0.69,0.62,0.69,0.62,0.31,0.35,0.26,0.02,0.02,0.01,0.01,0.01,0.01,0.01,0.01,0.01,0.01,0.01,0.01,0.01,0.01,0.01,0.01,0.02,0.01,0.01,0.04,0.02,0.02,0.01,0.04,0.06,0.02,0.01,0.01,0.01,0.01,0.01,0.01,0.01,0.01,0.01,0.01,0.01,0.01,0.01,0.01,0.01,0.01,0.01,0.01,0.04,0.01,0.02,0.31,0.39,0.05,0.04,0.61,0.60,0.37,0.41,0.66,0.60,0.31,0.65,0.57,0.15,0.28,0.08,0.01,0.02,0.01,0.02,0.01,0.01,0.01,0.01,0.01,0.01,0.01,0.01,0.01,0.01,0.01,0.01,0.01,0.01,0.01,0.01,0.01,0.01,0.01,0.01,0.01,0.02,0.01,0.01,0.02,0.04,0.02,0.02,0.03,0.01,0.01,0.02,0.02,0.01,0.04,0.39,0.53,0.05,0.68,0.69,0.69,0.64,0.70,0.69,0.65,0.68,0.33,0.04,0.10,0.02,0.02,0.02,0.02,0.01,0.01,0.01,0.01,0.01,0.01,0.01,0.01,0.01,0.01,0.01,0.01,0.01,0.01,0.01,0.01,0.01,0.01,0.01,0.01,0.01,0.01,0.01,0.01,0.01,0.01,0.10,0.03,0.01,0.03,0.33,0.35,0.15,0.69,0.69,0.70,0.70,0.68,0.65,0.29,0.66,0.54,0.06,0.07,0.08,0.43,0.01,0.01,0.03,0.05,0.02,0.01,0.43,0.65,0.09,0.21,0.02,0.05,0.01,0.01,0.01,0.01,0.01,0.01,0.01,0.01,0.01,0.01,0.01,0.01,0.01,0.01,0.01,0.01,0.01,0.01,0.01,0.01,0.01,0.01,0.01,0.01,0.02,0.01,0.01,0.01,0.05,0.02,0.04,0.50,0.62,0.38,0.34,0.65,0.62,0.31,0.46,0.33,0.62,0.14,0.35,0.33,0.19,0.58,0.03,0.09,0.19,0.28,0.09,0.03,0.61,0.46,0.02,0.05,0.01,0.01,0.01,0.01,0.01,0.01,0.01,0.01,0.01,0.01,0.01,0.01,0.01,0.01,0.01,0.01,0.01,0.01,0.01,0.01,0.01,0.01
