    #Input sequence length: 208
#Number of binding residues predicted by HomPRIP: 0
#Number of binding residues predicted by SVM: 18
#Number of binding residues predicted by RNABindRPlus: 7
>Q2FWM4_AF_A
sequence:							M,E,I,A,L,A,T,D,N,P,Y,E,V,L,E,Q,A,K,N,M,N,D,I,G,C,Y,F,L,D,I,Q,L,S,T,D,I,N,G,I,K,L,G,S,E,I,R,K,H,D,P,V,G,N,I,I,F,V,T,S,H,S,E,L,T,Y,L,T,F,V,Y,K,V,A,A,M,D,F,I,F,K,D,D,P,A,E,L,R,T,R,I,I,D,C,L,E,T,A,H,T,R,L,Q,L,L,S,K,D,N,S,V,E,T,I,E,L,K,R,G,S,N,S,V,Y,V,Q,Y,D,D,I,M,F,F,E,S,S,T,K,S,H,R,L,I,A,H,L,D,N,R,Q,I,E,F,Y,G,N,L,K,E,L,S,Q,L,D,D,R,F,F,R,C,H,N,S,F,V,V,N,R,H,N,I,E,S,I,D,S,K,E,R,I,V,Y,F,K,N,K,E,H,C,Y,A,S,V,R,N,V,K,K,I
Prediction from HomPRIP:			????????????????????????????????????????????????????????????????????????????????????????????????????????????????????????????????????????????????????????????????????????????????????????????????????????????????
Predicted score from HomPRIP:		?,?,?,?,?,?,?,?,?,?,?,?,?,?,?,?,?,?,?,?,?,?,?,?,?,?,?,?,?,?,?,?,?,?,?,?,?,?,?,?,?,?,?,?,?,?,?,?,?,?,?,?,?,?,?,?,?,?,?,?,?,?,?,?,?,?,?,?,?,?,?,?,?,?,?,?,?,?,?,?,?,?,?,?,?,?,?,?,?,?,?,?,?,?,?,?,?,?,?,?,?,?,?,?,?,?,?,?,?,?,?,?,?,?,?,?,?,?,?,?,?,?,?,?,?,?,?,?,?,?,?,?,?,?,?,?,?,?,?,?,?,?,?,?,?,?,?,?,?,?,?,?,?,?,?,?,?,?,?,?,?,?,?,?,?,?,?,?,?,?,?,?,?,?,?,?,?,?,?,?,?,?,?,?,?,?,?,?,?,?,?,?,?,?,?,?,?,?,?,?,?,?,?,?,?,?,?,?
Prediction from SVM:				0,0,0,0,0,0,0,0,0,0,0,0,0,0,0,0,0,0,0,0,0,0,0,0,0,0,0,0,0,0,0,0,0,0,0,0,0,0,0,0,0,0,0,0,0,0,0,0,0,0,0,0,0,0,0,0,0,0,0,1,0,0,0,0,0,0,0,0,0,0,0,0,0,0,0,0,0,0,0,0,0,0,0,0,0,0,0,0,0,0,0,0,0,0,0,0,0,0,0,0,0,0,0,0,0,0,0,0,0,0,0,0,0,0,0,0,0,0,0,0,0,0,0,0,0,0,0,0,0,0,0,0,0,0,0,0,1,0,1,1,0,0,0,0,0,0,0,0,0,0,0,0,0,0,0,0,0,0,0,0,0,0,0,0,0,0,0,0,0,0,1,1,1,0,1,1,0,1,1,0,0,0,0,0,0,0,0,0,0,0,0,0,0,0,0,0,0,0,0,0,1,1,1,1,1,1,1,0
Predicted score from SVM:			0.00,0.00,0.00,0.00,0.00,0.01,0.02,0.01,0.30,0.04,0.10,0.04,0.01,0.01,0.01,0.01,0.00,0.00,0.01,0.00,0.00,0.00,0.01,0.05,0.02,0.11,0.19,0.06,0.27,0.07,0.04,0.02,0.03,0.03,0.03,0.01,0.07,0.05,0.07,0.04,0.02,0.14,0.14,0.17,0.08,0.43,0.09,0.06,0.11,0.10,0.25,0.03,0.09,0.03,0.04,0.06,0.06,0.27,0.39,0.62,0.17,0.13,0.04,0.02,0.04,0.00,0.03,0.03,0.03,0.13,0.12,0.01,0.05,0.13,0.03,0.05,0.12,0.03,0.00,0.01,0.00,0.00,0.00,0.00,0.00,0.00,0.00,0.00,0.01,0.00,0.00,0.01,0.01,0.00,0.00,0.03,0.00,0.00,0.01,0.02,0.00,0.00,0.00,0.00,0.00,0.01,0.00,0.00,0.00,0.00,0.00,0.00,0.00,0.00,0.00,0.03,0.02,0.05,0.04,0.03,0.04,0.01,0.04,0.00,0.02,0.00,0.02,0.02,0.01,0.03,0.07,0.08,0.22,0.24,0.32,0.35,0.66,0.28,0.83,0.78,0.10,0.16,0.18,0.37,0.05,0.09,0.34,0.20,0.27,0.04,0.09,0.08,0.15,0.06,0.26,0.02,0.04,0.01,0.00,0.00,0.00,0.00,0.01,0.04,0.11,0.02,0.04,0.38,0.20,0.44,0.92,0.89,0.67,0.24,0.72,0.72,0.26,0.83,0.92,0.35,0.24,0.24,0.14,0.25,0.35,0.17,0.23,0.30,0.04,0.01,0.01,0.01,0.02,0.04,0.04,0.12,0.26,0.30,0.06,0.04,0.51,0.82,0.99,0.99,0.53,1.00,0.97,0.08
Prediction from RNABindRPlus:		0,0,0,0,0,0,0,0,0,0,0,0,0,0,0,0,0,0,0,0,0,0,0,0,0,0,0,0,0,0,0,0,0,0,0,0,0,0,0,0,0,0,0,0,0,0,0,0,0,0,0,0,0,0,0,0,0,0,0,0,0,0,0,0,0,0,0,0,0,0,0,0,0,0,0,0,0,0,0,0,0,0,0,0,0,0,0,0,0,0,0,0,0,0,0,0,0,0,0,0,0,0,0,0,0,0,0,0,0,0,0,0,0,0,0,0,0,0,0,0,0,0,0,0,0,0,0,0,0,0,0,0,0,0,0,0,0,0,0,0,0,0,0,0,0,0,0,0,0,0,0,0,0,0,0,0,0,0,0,0,0,0,0,0,0,0,0,0,0,0,1,1,0,0,0,0,0,0,1,0,0,0,0,0,0,0,0,0,0,0,0,0,0,0,0,0,0,0,0,0,0,0,1,1,0,1,1,0
Predicted score from RNABindRPlus:	0.01,0.01,0.01,0.01,0.01,0.01,0.01,0.01,0.05,0.01,0.02,0.01,0.01,0.01,0.01,0.01,0.01,0.01,0.01,0.01,0.01,0.01,0.01,0.01,0.01,0.02,0.03,0.01,0.04,0.01,0.01,0.01,0.01,0.01,0.01,0.01,0.01,0.01,0.01,0.01,0.01,0.02,0.02,0.02,0.01,0.09,0.02,0.01,0.02,0.02,0.04,0.01,0.02,0.01,0.01,0.01,0.01,0.04,0.07,0.22,0.02,0.02,0.01,0.01,0.01,0.01,0.01,0.01,0.01,0.02,0.02,0.01,0.01,0.02,0.01,0.01,0.02,0.01,0.01,0.01,0.01,0.01,0.01,0.01,0.01,0.01,0.01,0.01,0.01,0.01,0.01,0.01,0.01,0.01,0.01,0.01,0.01,0.01,0.01,0.01,0.01,0.01,0.01,0.01,0.01,0.01,0.01,0.01,0.01,0.01,0.01,0.01,0.01,0.01,0.01,0.01,0.01,0.01,0.01,0.01,0.01,0.01,0.01,0.01,0.01,0.01,0.01,0.01,0.01,0.01,0.01,0.01,0.03,0.03,0.05,0.06,0.26,0.04,0.47,0.41,0.02,0.02,0.02,0.07,0.01,0.02,0.06,0.03,0.04,0.01,0.02,0.01,0.02,0.01,0.04,0.01,0.01,0.01,0.01,0.01,0.01,0.01,0.01,0.01,0.02,0.01,0.01,0.07,0.03,0.09,0.60,0.56,0.27,0.03,0.33,0.33,0.04,0.47,0.60,0.06,0.03,0.03,0.02,0.04,0.06,0.02,0.03,0.05,0.01,0.01,0.01,0.01,0.01,0.01,0.01,0.02,0.04,0.05,0.01,0.01,0.13,0.46,0.69,0.69,0.15,0.70,0.66,0.01
    #Input sequence length: 414
#Number of binding residues predicted by HomPRIP: 0
#Number of binding residues predicted by SVM: 20
#Number of binding residues predicted by RNABindRPlus: 4
>Q2FWM5_AF_A
sequence:							M,I,L,M,F,T,I,P,A,I,I,S,G,I,K,Y,S,K,L,D,Y,F,F,I,I,V,I,S,T,L,S,L,F,L,F,K,M,F,D,S,A,S,L,I,I,L,T,S,F,I,I,I,M,Y,F,V,K,I,K,W,Y,S,I,L,L,I,M,T,S,Q,I,I,L,Y,C,A,N,Y,M,Y,I,V,I,Y,A,Y,I,T,K,I,S,D,S,I,F,V,I,F,P,S,F,F,V,V,Y,V,T,I,S,I,L,F,S,Y,I,I,N,R,V,L,K,K,I,S,T,P,Y,L,I,L,N,K,G,F,L,I,V,I,S,T,I,L,L,L,T,F,S,L,F,F,F,Y,S,Q,I,N,S,D,E,A,K,V,I,R,Q,Y,S,F,I,F,I,G,I,T,I,F,L,S,I,L,T,F,V,I,S,Q,F,L,L,K,E,M,K,Y,K,R,N,Q,E,E,I,E,T,Y,Y,E,Y,T,L,K,I,E,A,I,N,N,E,M,R,K,F,R,H,D,Y,V,N,I,L,T,T,L,S,E,Y,I,R,E,D,D,M,P,G,L,R,D,Y,F,N,K,N,I,V,P,M,K,D,N,L,Q,M,N,A,I,K,L,N,G,I,E,N,L,K,V,R,E,I,K,G,L,I,T,A,K,I,L,R,A,Q,E,M,N,I,P,I,S,I,E,I,P,D,E,V,S,S,I,N,L,N,M,I,D,L,S,R,S,I,G,I,I,L,D,N,A,I,E,A,S,T,E,I,D,D,P,I,I,R,V,A,F,I,E,S,E,N,S,V,T,F,I,V,M,N,K,C,A,D,D,I,P,R,I,H,E,L,F,Q,E,S,F,S,T,K,G,E,G,R,G,L,G,L,S,T,L,K,E,I,A,D,N,A,D,N,V,L,L,D,T,I,I,E,N,G,F,F,I,Q,K,V,E,I,I,N,N
Prediction from HomPRIP:			??????????????????????????????????????????????????????????????????????????????????????????????????????????????????????????????????????????????????????????????????????????????????????????????????????????????????????????????????????????????????????????????????????????????????????????????????????????????????????????????????????????????????????????????????????????????????????????????????????????????????????????????
Predicted score from HomPRIP:		?,?,?,?,?,?,?,?,?,?,?,?,?,?,?,?,?,?,?,?,?,?,?,?,?,?,?,?,?,?,?,?,?,?,?,?,?,?,?,?,?,?,?,?,?,?,?,?,?,?,?,?,?,?,?,?,?,?,?,?,?,?,?,?,?,?,?,?,?,?,?,?,?,?,?,?,?,?,?,?,?,?,?,?,?,?,?,?,?,?,?,?,?,?,?,?,?,?,?,?,?,?,?,?,?,?,?,?,?,?,?,?,?,?,?,?,?,?,?,?,?,?,?,?,?,?,?,?,?,?,?,?,?,?,?,?,?,?,?,?,?,?,?,?,?,?,?,?,?,?,?,?,?,?,?,?,?,?,?,?,?,?,?,?,?,?,?,?,?,?,?,?,?,?,?,?,?,?,?,?,?,?,?,?,?,?,?,?,?,?,?,?,?,?,?,?,?,?,?,?,?,?,?,?,?,?,?,?,?,?,?,?,?,?,?,?,?,?,?,?,?,?,?,?,?,?,?,?,?,?,?,?,?,?,?,?,?,?,?,?,?,?,?,?,?,?,?,?,?,?,?,?,?,?,?,?,?,?,?,?,?,?,?,?,?,?,?,?,?,?,?,?,?,?,?,?,?,?,?,?,?,?,?,?,?,?,?,?,?,?,?,?,?,?,?,?,?,?,?,?,?,?,?,?,?,?,?,?,?,?,?,?,?,?,?,?,?,?,?,?,?,?,?,?,?,?,?,?,?,?,?,?,?,?,?,?,?,?,?,?,?,?,?,?,?,?,?,?,?,?,?,?,?,?,?,?,?,?,?,?,?,?,?,?,?,?,?,?,?,?,?,?,?,?,?,?,?,?,?,?,?,?,?,?,?,?,?,?,?,?,?,?,?,?,?,?,?,?,?,?,?,?,?,?,?,?,?,?,?,?,?,?,?,?
Prediction from SVM:				0,0,0,0,0,0,0,0,0,0,0,0,0,0,0,0,0,0,0,0,0,0,0,0,0,0,0,0,0,0,0,0,0,0,0,0,0,0,0,0,0,0,0,0,0,0,0,0,0,0,0,0,0,0,0,0,0,0,0,0,0,0,0,0,0,0,0,0,0,0,0,0,0,0,0,0,0,0,0,0,0,0,0,0,0,0,0,0,0,0,0,0,0,0,0,0,0,0,0,0,0,0,0,0,0,0,0,0,0,0,0,0,0,0,0,0,0,0,0,0,0,0,0,0,0,0,0,0,0,0,0,0,0,0,0,0,0,0,0,0,0,0,0,0,0,0,0,0,0,0,0,0,0,0,0,0,0,0,0,0,0,0,0,0,0,0,0,0,0,0,0,0,0,0,0,0,0,0,0,0,0,0,0,0,0,0,0,0,0,0,0,0,0,0,0,0,0,0,0,0,0,0,0,0,0,0,0,0,0,0,0,0,0,0,0,0,0,0,0,0,0,0,1,1,0,0,1,0,0,0,0,0,0,0,0,0,0,0,0,0,0,0,0,0,0,0,0,0,0,0,0,0,0,0,0,0,0,0,0,0,0,0,0,0,0,0,0,0,0,0,0,0,0,0,1,0,0,1,1,1,0,1,1,0,0,0,0,0,0,0,0,0,0,0,0,0,0,0,0,0,0,0,0,0,0,0,0,0,0,0,0,0,0,0,0,0,0,0,0,0,0,0,0,0,0,0,0,0,0,0,0,0,0,0,0,0,0,0,0,0,0,0,0,0,0,0,0,0,0,0,0,0,0,0,0,0,0,0,0,0,0,0,0,0,0,0,0,0,0,0,0,1,1,0,1,1,1,1,1,1,1,1,1,0,0,0,0,0,0,0,0,0,0,0,0,0,0,0,0,0,0,0,0,0,0,0,0,0,0,0,0,0,0,0
Predicted score from SVM:			0.00,0.00,0.00,0.00,0.00,0.00,0.00,0.01,0.10,0.06,0.09,0.13,0.27,0.10,0.31,0.17,0.27,0.08,0.17,0.09,0.05,0.02,0.02,0.02,0.01,0.01,0.01,0.01,0.01,0.00,0.01,0.00,0.00,0.00,0.01,0.01,0.01,0.01,0.01,0.01,0.01,0.01,0.01,0.01,0.01,0.01,0.01,0.01,0.01,0.01,0.01,0.01,0.02,0.02,0.03,0.02,0.06,0.05,0.04,0.03,0.05,0.08,0.03,0.03,0.09,0.03,0.02,0.02,0.03,0.02,0.01,0.01,0.02,0.01,0.01,0.01,0.02,0.01,0.00,0.01,0.01,0.00,0.00,0.00,0.01,0.00,0.00,0.00,0.00,0.00,0.00,0.00,0.00,0.00,0.00,0.00,0.00,0.00,0.00,0.00,0.01,0.00,0.00,0.00,0.01,0.01,0.01,0.01,0.02,0.02,0.01,0.01,0.04,0.05,0.01,0.01,0.09,0.05,0.02,0.01,0.08,0.12,0.02,0.10,0.04,0.03,0.02,0.02,0.02,0.02,0.05,0.09,0.06,0.02,0.02,0.02,0.01,0.01,0.01,0.01,0.00,0.00,0.00,0.00,0.00,0.00,0.00,0.00,0.00,0.00,0.00,0.00,0.00,0.00,0.00,0.00,0.00,0.00,0.00,0.00,0.00,0.00,0.00,0.00,0.01,0.03,0.01,0.01,0.01,0.01,0.00,0.00,0.00,0.00,0.00,0.00,0.00,0.01,0.00,0.00,0.00,0.01,0.01,0.00,0.01,0.02,0.01,0.00,0.00,0.00,0.00,0.00,0.00,0.00,0.00,0.00,0.00,0.00,0.00,0.01,0.00,0.00,0.00,0.00,0.01,0.01,0.01,0.00,0.01,0.02,0.00,0.01,0.01,0.00,0.01,0.02,0.02,0.01,0.08,0.22,0.09,0.40,0.68,0.76,0.16,0.05,0.53,0.02,0.04,0.03,0.06,0.01,0.01,0.01,0.01,0.00,0.01,0.01,0.01,0.01,0.01,0.01,0.00,0.01,0.01,0.01,0.02,0.01,0.00,0.01,0.03,0.02,0.01,0.01,0.01,0.02,0.03,0.01,0.01,0.00,0.01,0.01,0.02,0.02,0.04,0.01,0.03,0.04,0.03,0.05,0.44,0.14,0.15,0.28,0.59,0.35,0.29,0.95,0.59,0.88,0.26,0.64,0.79,0.47,0.06,0.05,0.28,0.03,0.07,0.01,0.03,0.05,0.01,0.01,0.01,0.02,0.00,0.02,0.00,0.00,0.00,0.00,0.00,0.00,0.00,0.00,0.00,0.00,0.00,0.00,0.01,0.02,0.00,0.01,0.12,0.00,0.00,0.04,0.11,0.05,0.01,0.35,0.45,0.14,0.06,0.06,0.01,0.00,0.00,0.00,0.00,0.00,0.00,0.01,0.02,0.00,0.07,0.01,0.03,0.01,0.01,0.03,0.01,0.01,0.01,0.03,0.01,0.00,0.00,0.03,0.01,0.05,0.07,0.33,0.04,0.04,0.02,0.04,0.02,0.02,0.02,0.01,0.08,0.02,0.00,0.11,0.05,0.35,0.25,0.30,0.48,0.71,0.95,0.47,0.74,0.73,0.96,0.53,0.62,0.55,0.74,0.69,0.77,0.13,0.20,0.08,0.02,0.00,0.02,0.15,0.05,0.04,0.06,0.02,0.02,0.01,0.03,0.03,0.06,0.01,0.03,0.02,0.06,0.04,0.04,0.11,0.03,0.01,0.00,0.03,0.00,0.01,0.02,0.43
Prediction from RNABindRPlus:		0,0,0,0,0,0,0,0,0,0,0,0,0,0,0,0,0,0,0,0,0,0,0,0,0,0,0,0,0,0,0,0,0,0,0,0,0,0,0,0,0,0,0,0,0,0,0,0,0,0,0,0,0,0,0,0,0,0,0,0,0,0,0,0,0,0,0,0,0,0,0,0,0,0,0,0,0,0,0,0,0,0,0,0,0,0,0,0,0,0,0,0,0,0,0,0,0,0,0,0,0,0,0,0,0,0,0,0,0,0,0,0,0,0,0,0,0,0,0,0,0,0,0,0,0,0,0,0,0,0,0,0,0,0,0,0,0,0,0,0,0,0,0,0,0,0,0,0,0,0,0,0,0,0,0,0,0,0,0,0,0,0,0,0,0,0,0,0,0,0,0,0,0,0,0,0,0,0,0,0,0,0,0,0,0,0,0,0,0,0,0,0,0,0,0,0,0,0,0,0,0,0,0,0,0,0,0,0,0,0,0,0,0,0,0,0,0,0,0,0,0,0,0,0,0,0,0,0,0,0,0,0,0,0,0,0,0,0,0,0,0,0,0,0,0,0,0,0,0,0,0,0,0,0,0,0,0,0,0,0,0,0,0,0,0,0,0,0,0,0,0,0,0,0,0,0,0,1,0,1,0,0,0,0,0,0,0,0,0,0,0,0,0,0,0,0,0,0,0,0,0,0,0,0,0,0,0,0,0,0,0,0,0,0,0,0,0,0,0,0,0,0,0,0,0,0,0,0,0,0,0,0,0,0,0,0,0,0,0,0,0,0,0,0,0,0,0,0,0,0,0,0,0,0,0,0,0,0,0,0,0,0,0,0,0,0,0,0,0,0,0,0,1,0,0,0,1,0,0,0,0,0,0,0,0,0,0,0,0,0,0,0,0,0,0,0,0,0,0,0,0,0,0,0,0,0,0,0,0,0,0,0,0,0
Predicted score from RNABindRPlus:	0.01,0.01,0.01,0.01,0.01,0.01,0.01,0.01,0.02,0.01,0.02,0.02,0.04,0.02,0.05,0.02,0.04,0.01,0.02,0.02,0.01,0.01,0.01,0.01,0.01,0.01,0.01,0.01,0.01,0.01,0.01,0.01,0.01,0.01,0.01,0.01,0.01,0.01,0.01,0.01,0.01,0.01,0.01,0.01,0.01,0.01,0.01,0.01,0.01,0.01,0.01,0.01,0.01,0.01,0.01,0.01,0.01,0.01,0.01,0.01,0.01,0.01,0.01,0.01,0.02,0.01,0.01,0.01,0.01,0.01,0.01,0.01,0.01,0.01,0.01,0.01,0.01,0.01,0.01,0.01,0.01,0.01,0.01,0.01,0.01,0.01,0.01,0.01,0.01,0.01,0.01,0.01,0.01,0.01,0.01,0.01,0.01,0.01,0.01,0.01,0.01,0.01,0.01,0.01,0.01,0.01,0.01,0.01,0.01,0.01,0.01,0.01,0.01,0.01,0.01,0.01,0.02,0.01,0.01,0.01,0.01,0.02,0.01,0.02,0.01,0.01,0.01,0.01,0.01,0.01,0.01,0.02,0.01,0.01,0.01,0.01,0.01,0.01,0.01,0.01,0.01,0.01,0.01,0.01,0.01,0.01,0.01,0.01,0.01,0.01,0.01,0.01,0.01,0.01,0.01,0.01,0.01,0.01,0.01,0.01,0.01,0.01,0.01,0.01,0.01,0.01,0.01,0.01,0.01,0.01,0.01,0.01,0.01,0.01,0.01,0.01,0.01,0.01,0.01,0.01,0.01,0.01,0.01,0.01,0.01,0.01,0.01,0.01,0.01,0.01,0.01,0.01,0.01,0.01,0.01,0.01,0.01,0.01,0.01,0.01,0.01,0.01,0.01,0.01,0.01,0.01,0.01,0.01,0.01,0.01,0.01,0.01,0.01,0.01,0.01,0.01,0.01,0.01,0.01,0.03,0.02,0.08,0.28,0.38,0.02,0.01,0.15,0.01,0.01,0.01,0.01,0.01,0.01,0.01,0.01,0.01,0.01,0.01,0.01,0.01,0.01,0.01,0.01,0.01,0.01,0.01,0.01,0.01,0.01,0.01,0.01,0.01,0.01,0.01,0.01,0.01,0.01,0.01,0.01,0.01,0.01,0.01,0.01,0.01,0.01,0.01,0.01,0.01,0.01,0.01,0.09,0.02,0.02,0.04,0.19,0.06,0.04,0.64,0.19,0.54,0.04,0.24,0.42,0.11,0.01,0.01,0.04,0.01,0.01,0.01,0.01,0.01,0.01,0.01,0.01,0.01,0.01,0.01,0.01,0.01,0.01,0.01,0.01,0.01,0.01,0.01,0.01,0.01,0.01,0.01,0.01,0.01,0.01,0.01,0.02,0.01,0.01,0.01,0.02,0.01,0.01,0.06,0.10,0.02,0.01,0.01,0.01,0.01,0.01,0.01,0.01,0.01,0.01,0.01,0.01,0.01,0.01,0.01,0.01,0.01,0.01,0.01,0.01,0.01,0.01,0.01,0.01,0.01,0.01,0.01,0.01,0.01,0.01,0.05,0.01,0.01,0.01,0.01,0.01,0.01,0.01,0.01,0.01,0.01,0.01,0.02,0.01,0.06,0.04,0.05,0.11,0.32,0.64,0.11,0.35,0.34,0.65,0.15,0.22,0.16,0.35,0.29,0.39,0.02,0.03,0.01,0.01,0.01,0.01,0.02,0.01,0.01,0.01,0.01,0.01,0.01,0.01,0.01,0.01,0.01,0.01,0.01,0.01,0.01,0.01,0.02,0.01,0.01,0.01,0.01,0.01,0.01,0.01,0.09
    #Input sequence length: 271
#Number of binding residues predicted by HomPRIP: 0
#Number of binding residues predicted by SVM: 5
#Number of binding residues predicted by RNABindRPlus: 0
>Q2FWN9_6RHW_H
sequence:							K,I,T,K,R,T,E,T,V,Y,D,E,K,T,N,I,L,Q,N,L,Q,F,D,F,I,D,D,P,T,Y,D,K,N,V,L,L,V,K,K,Q,G,S,I,H,S,N,L,K,F,E,S,H,K,E,E,K,N,S,N,W,L,K,Y,P,S,E,Y,H,V,D,F,Q,V,K,R,N,R,K,T,E,I,L,D,Q,L,P,K,N,K,I,S,T,A,K,V,D,S,T,F,S,Y,S,S,G,G,K,F,T,S,S,N,S,Y,S,K,T,I,S,Y,N,Q,Q,N,Y,D,T,I,A,S,G,K,N,N,N,W,H,V,H,W,S,V,I,A,N,D,L,K,Y,G,G,E,V,K,N,R,N,D,E,L,L,F,Y,R,N,T,R,I,A,T,V,E,N,P,E,L,S,F,A,S,K,Y,R,Y,P,A,L,V,R,S,G,F,N,P,E,F,L,T,Y,L,S,N,E,K,S,N,E,K,T,Q,F,E,V,T,Y,T,R,N,Q,D,I,L,K,N,R,P,G,I,Y,A,P,P,I,L,E,K,N,K,D,G,Q,R,L,I,V,T,Y,E,V,D,W,K,N,K,T,V,K,V,V,D,K,Y,S,D,D,N,K,P,Y,K,E,G
Prediction from HomPRIP:			???????????????????????????????????????????????????????????????????????????????????????????????????????????????????????????????????????????????????????????????????????????????????????????????????????????????????????????????????????????????????????????????????????????????
Predicted score from HomPRIP:		?,?,?,?,?,?,?,?,?,?,?,?,?,?,?,?,?,?,?,?,?,?,?,?,?,?,?,?,?,?,?,?,?,?,?,?,?,?,?,?,?,?,?,?,?,?,?,?,?,?,?,?,?,?,?,?,?,?,?,?,?,?,?,?,?,?,?,?,?,?,?,?,?,?,?,?,?,?,?,?,?,?,?,?,?,?,?,?,?,?,?,?,?,?,?,?,?,?,?,?,?,?,?,?,?,?,?,?,?,?,?,?,?,?,?,?,?,?,?,?,?,?,?,?,?,?,?,?,?,?,?,?,?,?,?,?,?,?,?,?,?,?,?,?,?,?,?,?,?,?,?,?,?,?,?,?,?,?,?,?,?,?,?,?,?,?,?,?,?,?,?,?,?,?,?,?,?,?,?,?,?,?,?,?,?,?,?,?,?,?,?,?,?,?,?,?,?,?,?,?,?,?,?,?,?,?,?,?,?,?,?,?,?,?,?,?,?,?,?,?,?,?,?,?,?,?,?,?,?,?,?,?,?,?,?,?,?,?,?,?,?,?,?,?,?,?,?,?,?,?,?,?,?,?,?,?,?,?,?,?,?,?,?,?,?,?,?,?,?,?,?
Prediction from SVM:				0,0,0,0,0,0,0,0,0,0,0,0,0,0,0,0,0,0,0,0,0,0,0,0,0,0,0,0,0,0,0,0,0,0,0,0,0,0,0,0,0,0,0,0,0,0,0,0,0,0,0,0,0,0,0,0,0,0,0,0,0,0,0,0,0,0,0,0,0,0,0,0,0,0,0,0,0,0,0,0,0,0,0,0,0,0,0,0,0,0,0,0,0,0,0,0,0,0,0,0,0,0,0,0,0,0,0,0,0,0,0,0,0,0,0,0,0,0,0,0,0,0,0,0,0,0,0,0,0,0,0,0,0,0,0,0,0,0,0,0,0,0,0,0,0,0,0,0,0,0,0,0,0,0,0,0,0,0,0,0,0,0,0,0,0,0,0,0,0,0,0,0,0,0,0,0,0,0,0,0,0,0,0,0,0,0,0,0,0,0,0,0,0,0,0,0,0,0,0,0,0,0,0,0,0,0,0,0,0,0,0,0,0,0,0,0,0,0,0,0,0,0,0,0,0,0,0,0,0,0,0,1,1,1,1,0,1,0,0,0,0,0,0,0,0,0,0,0,0,0,0,0,0,0,0,0,0,0,0,0,0,0,0,0,0,0,0,0,0,0,0
Predicted score from SVM:			0.01,0.00,0.00,0.01,0.07,0.00,0.00,0.01,0.01,0.01,0.01,0.05,0.04,0.01,0.05,0.01,0.04,0.07,0.08,0.01,0.02,0.01,0.01,0.00,0.00,0.00,0.00,0.05,0.02,0.02,0.01,0.01,0.01,0.01,0.00,0.00,0.00,0.04,0.09,0.11,0.02,0.06,0.01,0.01,0.00,0.01,0.01,0.03,0.01,0.01,0.02,0.07,0.08,0.03,0.04,0.06,0.04,0.08,0.08,0.07,0.05,0.36,0.13,0.13,0.08,0.18,0.07,0.18,0.01,0.04,0.01,0.03,0.01,0.01,0.04,0.04,0.06,0.04,0.04,0.08,0.01,0.01,0.03,0.00,0.02,0.01,0.03,0.01,0.01,0.01,0.01,0.02,0.01,0.01,0.00,0.01,0.01,0.05,0.02,0.05,0.03,0.15,0.03,0.11,0.05,0.08,0.02,0.25,0.18,0.09,0.10,0.10,0.08,0.04,0.04,0.28,0.02,0.02,0.02,0.02,0.04,0.03,0.01,0.01,0.01,0.02,0.00,0.00,0.01,0.03,0.04,0.04,0.03,0.13,0.37,0.13,0.01,0.11,0.15,0.27,0.07,0.10,0.16,0.19,0.13,0.13,0.23,0.28,0.06,0.08,0.14,0.06,0.17,0.09,0.11,0.13,0.04,0.06,0.03,0.01,0.02,0.01,0.01,0.01,0.01,0.02,0.00,0.01,0.01,0.01,0.03,0.03,0.01,0.01,0.00,0.01,0.00,0.01,0.01,0.01,0.01,0.01,0.00,0.00,0.00,0.00,0.00,0.05,0.04,0.02,0.06,0.13,0.06,0.02,0.01,0.01,0.01,0.00,0.00,0.01,0.01,0.00,0.01,0.00,0.00,0.01,0.01,0.00,0.00,0.00,0.02,0.00,0.06,0.06,0.02,0.07,0.01,0.03,0.05,0.16,0.08,0.23,0.17,0.41,0.39,0.21,0.19,0.17,0.31,0.36,0.41,0.50,0.60,0.56,0.54,0.46,0.73,0.46,0.42,0.18,0.36,0.14,0.17,0.06,0.29,0.13,0.22,0.05,0.18,0.14,0.23,0.17,0.17,0.09,0.01,0.17,0.00,0.01,0.01,0.04,0.07,0.00,0.01,0.04,0.07,0.16,0.01,0.03,0.24,0.30,0.07
Prediction from RNABindRPlus:		0,0,0,0,0,0,0,0,0,0,0,0,0,0,0,0,0,0,0,0,0,0,0,0,0,0,0,0,0,0,0,0,0,0,0,0,0,0,0,0,0,0,0,0,0,0,0,0,0,0,0,0,0,0,0,0,0,0,0,0,0,0,0,0,0,0,0,0,0,0,0,0,0,0,0,0,0,0,0,0,0,0,0,0,0,0,0,0,0,0,0,0,0,0,0,0,0,0,0,0,0,0,0,0,0,0,0,0,0,0,0,0,0,0,0,0,0,0,0,0,0,0,0,0,0,0,0,0,0,0,0,0,0,0,0,0,0,0,0,0,0,0,0,0,0,0,0,0,0,0,0,0,0,0,0,0,0,0,0,0,0,0,0,0,0,0,0,0,0,0,0,0,0,0,0,0,0,0,0,0,0,0,0,0,0,0,0,0,0,0,0,0,0,0,0,0,0,0,0,0,0,0,0,0,0,0,0,0,0,0,0,0,0,0,0,0,0,0,0,0,0,0,0,0,0,0,0,0,0,0,0,0,0,0,0,0,0,0,0,0,0,0,0,0,0,0,0,0,0,0,0,0,0,0,0,0,0,0,0,0,0,0,0,0,0,0,0,0,0,0,0
Predicted score from RNABindRPlus:	0.01,0.01,0.01,0.01,0.01,0.01,0.01,0.01,0.01,0.01,0.01,0.01,0.01,0.01,0.01,0.01,0.01,0.01,0.01,0.01,0.01,0.01,0.01,0.01,0.01,0.01,0.01,0.01,0.01,0.01,0.01,0.01,0.01,0.01,0.01,0.01,0.01,0.01,0.02,0.02,0.01,0.01,0.01,0.01,0.01,0.01,0.01,0.01,0.01,0.01,0.01,0.01,0.01,0.01,0.01,0.01,0.01,0.01,0.01,0.01,0.01,0.06,0.02,0.02,0.01,0.02,0.01,0.02,0.01,0.01,0.01,0.01,0.01,0.01,0.01,0.01,0.01,0.01,0.01,0.01,0.01,0.01,0.01,0.01,0.01,0.01,0.01,0.01,0.01,0.01,0.01,0.01,0.01,0.01,0.01,0.01,0.01,0.01,0.01,0.01,0.01,0.02,0.01,0.02,0.01,0.01,0.01,0.04,0.02,0.02,0.02,0.02,0.01,0.01,0.01,0.04,0.01,0.01,0.01,0.01,0.01,0.01,0.01,0.01,0.01,0.01,0.01,0.01,0.01,0.01,0.01,0.01,0.01,0.02,0.07,0.02,0.01,0.02,0.02,0.04,0.01,0.02,0.02,0.03,0.02,0.02,0.03,0.04,0.01,0.01,0.02,0.01,0.02,0.02,0.02,0.02,0.01,0.01,0.01,0.01,0.01,0.01,0.01,0.01,0.01,0.01,0.01,0.01,0.01,0.01,0.01,0.01,0.01,0.01,0.01,0.01,0.01,0.01,0.01,0.01,0.01,0.01,0.01,0.01,0.01,0.01,0.01,0.01,0.01,0.01,0.01,0.02,0.01,0.01,0.01,0.01,0.01,0.01,0.01,0.01,0.01,0.01,0.01,0.01,0.01,0.01,0.01,0.01,0.01,0.01,0.01,0.01,0.01,0.01,0.01,0.01,0.01,0.01,0.01,0.02,0.01,0.03,0.02,0.08,0.07,0.03,0.03,0.02,0.05,0.06,0.08,0.13,0.20,0.17,0.15,0.10,0.34,0.10,0.09,0.02,0.06,0.02,0.02,0.01,0.04,0.02,0.03,0.01,0.02,0.02,0.03,0.02,0.02,0.02,0.01,0.02,0.01,0.01,0.01,0.01,0.01,0.01,0.01,0.01,0.01,0.02,0.01,0.01,0.03,0.05,0.01
    #Input sequence length: 96
#Number of binding residues predicted by HomPRIP: 0
#Number of binding residues predicted by SVM: 6
#Number of binding residues predicted by RNABindRPlus: 1
>Q2FWW2_AF_A
sequence:							M,K,F,P,V,T,I,N,K,F,E,N,I,V,S,N,E,F,V,F,Y,N,A,S,K,I,T,I,N,D,L,S,I,K,L,K,S,A,M,A,N,D,Q,G,I,T,K,H,D,I,G,L,A,E,R,A,V,Y,K,V,Y,F,K,N,G,S,S,K,Y,V,D,L,K,T,E,Y,K,D,E,R,V,F,K,A,T,D,I,K,K,V,D,I,E,L,K,F
Prediction from HomPRIP:			????????????????????????????????????????????????????????????????????????????????????????????????
Predicted score from HomPRIP:		?,?,?,?,?,?,?,?,?,?,?,?,?,?,?,?,?,?,?,?,?,?,?,?,?,?,?,?,?,?,?,?,?,?,?,?,?,?,?,?,?,?,?,?,?,?,?,?,?,?,?,?,?,?,?,?,?,?,?,?,?,?,?,?,?,?,?,?,?,?,?,?,?,?,?,?,?,?,?,?,?,?,?,?,?,?,?,?,?,?,?,?,?,?,?,?
Prediction from SVM:				0,1,0,0,0,0,0,0,0,0,0,0,0,0,0,0,0,0,0,0,0,0,0,0,0,0,0,0,0,0,0,0,0,0,0,0,0,0,0,0,0,0,0,0,0,0,0,0,0,0,0,0,0,1,1,0,0,0,1,0,0,0,1,0,0,0,0,0,0,0,0,0,0,0,0,0,0,0,0,0,0,0,0,0,0,0,0,0,0,0,0,0,1,0,0,0
Predicted score from SVM:			0.00,0.67,0.02,0.06,0.00,0.05,0.00,0.04,0.02,0.03,0.00,0.01,0.01,0.00,0.01,0.01,0.01,0.01,0.03,0.01,0.00,0.01,0.02,0.02,0.09,0.08,0.03,0.02,0.21,0.05,0.01,0.01,0.01,0.05,0.00,0.01,0.01,0.00,0.00,0.00,0.02,0.01,0.04,0.03,0.00,0.01,0.00,0.01,0.03,0.00,0.03,0.06,0.13,0.56,0.54,0.05,0.18,0.34,0.78,0.03,0.38,0.09,0.85,0.47,0.04,0.15,0.15,0.08,0.01,0.02,0.05,0.01,0.13,0.07,0.04,0.00,0.02,0.00,0.00,0.01,0.00,0.01,0.03,0.01,0.14,0.03,0.01,0.12,0.05,0.00,0.01,0.00,0.61,0.00,0.18,0.00
Prediction from RNABindRPlus:		0,0,0,0,0,0,0,0,0,0,0,0,0,0,0,0,0,0,0,0,0,0,0,0,0,0,0,0,0,0,0,0,0,0,0,0,0,0,0,0,0,0,0,0,0,0,0,0,0,0,0,0,0,0,0,0,0,0,0,0,0,0,1,0,0,0,0,0,0,0,0,0,0,0,0,0,0,0,0,0,0,0,0,0,0,0,0,0,0,0,0,0,0,0,0,0
Predicted score from RNABindRPlus:	0.01,0.27,0.01,0.01,0.01,0.01,0.01,0.01,0.01,0.01,0.01,0.01,0.01,0.01,0.01,0.01,0.01,0.01,0.01,0.01,0.01,0.01,0.01,0.01,0.02,0.01,0.01,0.01,0.03,0.01,0.01,0.01,0.01,0.01,0.01,0.01,0.01,0.01,0.01,0.01,0.01,0.01,0.01,0.01,0.01,0.01,0.01,0.01,0.01,0.01,0.01,0.01,0.02,0.17,0.15,0.01,0.02,0.06,0.41,0.01,0.07,0.02,0.50,0.11,0.01,0.02,0.02,0.01,0.01,0.01,0.01,0.01,0.02,0.01,0.01,0.01,0.01,0.01,0.01,0.01,0.01,0.01,0.01,0.01,0.02,0.01,0.01,0.02,0.01,0.01,0.01,0.01,0.21,0.01,0.02,0.01
    #Input sequence length: 458
#Number of binding residues predicted by HomPRIP: 0
#Number of binding residues predicted by SVM: 107
#Number of binding residues predicted by RNABindRPlus: 33
>Q2FWX9_6K0Z_A
sequence:							M,N,I,I,E,Q,K,F,Y,D,S,K,A,F,F,N,T,Q,Q,T,K,D,I,S,F,R,K,E,Q,L,K,K,L,S,K,A,I,K,S,Y,E,S,D,I,L,E,A,L,Y,T,D,L,G,K,N,K,V,E,A,Y,A,T,E,I,G,I,T,L,K,S,I,K,I,A,R,K,E,L,K,N,W,T,K,T,K,N,V,D,T,P,L,Y,L,F,P,T,K,S,Y,I,K,K,E,P,Y,G,T,V,L,I,I,A,P,F,N,Y,P,F,Q,L,V,F,E,P,L,I,G,A,I,A,A,G,N,T,A,I,I,K,P,S,E,L,T,P,N,V,A,R,V,I,K,R,L,I,N,E,T,F,D,A,N,Y,I,E,V,I,E,G,G,I,E,E,T,Q,T,L,I,H,L,P,F,D,Y,V,F,F,T,G,S,E,N,V,G,K,I,V,Y,Q,A,A,S,E,N,L,V,P,V,T,L,E,M,G,G,K,S,P,V,I,V,D,E,T,A,N,I,K,V,A,S,E,R,I,C,F,G,K,F,T,N,A,G,Q,T,S,V,A,P,D,Y,I,L,V,H,E,S,V,K,D,D,L,I,T,A,L,S,K,T,L,R,E,F,Y,G,Q,N,I,Q,Q,S,P,D,Y,G,R,I,V,N,L,K,H,Y,H,R,L,T,S,L,L,N,S,A,Q,M,N,I,V,F,G,G,H,S,D,E,D,E,R,Y,I,E,P,T,L,L,D,H,V,T,S,D,S,A,I,M,Q,E,E,I,F,G,P,I,L,P,I,L,T,Y,Q,S,L,D,E,A,I,A,F,I,H,Q,R,P,K,P,L,S,L,Y,L,F,S,E,D,E,N,A,T,Q,R,V,I,N,E,L,S,F,G,G,G,A,I,N,D,T,L,M,H,L,A,N,P,K,L,P,F,G,G,V,G,A,S,G,M,G,R,Y,H,G,K,Y,S,F,D,T,F,T,H,E,K,S,Y,I,F,K,S,T,R,L,E,S,G,V,H,L,P,P,Y,K,G,K,F,K,Y,I,K,A,F,F,K
Prediction from HomPRIP:			??????????????????????????????????????????????????????????????????????????????????????????????????????????????????????????????????????????????????????????????????????????????????????????????????????????????????????????????????????????????????????????????????????????????????????????????????????????????????????????????????????????????????????????????????????????????????????????????????????????????????????????????????????????????????????????????????????????
Predicted score from HomPRIP:		?,?,?,?,?,?,?,?,?,?,?,?,?,?,?,?,?,?,?,?,?,?,?,?,?,?,?,?,?,?,?,?,?,?,?,?,?,?,?,?,?,?,?,?,?,?,?,?,?,?,?,?,?,?,?,?,?,?,?,?,?,?,?,?,?,?,?,?,?,?,?,?,?,?,?,?,?,?,?,?,?,?,?,?,?,?,?,?,?,?,?,?,?,?,?,?,?,?,?,?,?,?,?,?,?,?,?,?,?,?,?,?,?,?,?,?,?,?,?,?,?,?,?,?,?,?,?,?,?,?,?,?,?,?,?,?,?,?,?,?,?,?,?,?,?,?,?,?,?,?,?,?,?,?,?,?,?,?,?,?,?,?,?,?,?,?,?,?,?,?,?,?,?,?,?,?,?,?,?,?,?,?,?,?,?,?,?,?,?,?,?,?,?,?,?,?,?,?,?,?,?,?,?,?,?,?,?,?,?,?,?,?,?,?,?,?,?,?,?,?,?,?,?,?,?,?,?,?,?,?,?,?,?,?,?,?,?,?,?,?,?,?,?,?,?,?,?,?,?,?,?,?,?,?,?,?,?,?,?,?,?,?,?,?,?,?,?,?,?,?,?,?,?,?,?,?,?,?,?,?,?,?,?,?,?,?,?,?,?,?,?,?,?,?,?,?,?,?,?,?,?,?,?,?,?,?,?,?,?,?,?,?,?,?,?,?,?,?,?,?,?,?,?,?,?,?,?,?,?,?,?,?,?,?,?,?,?,?,?,?,?,?,?,?,?,?,?,?,?,?,?,?,?,?,?,?,?,?,?,?,?,?,?,?,?,?,?,?,?,?,?,?,?,?,?,?,?,?,?,?,?,?,?,?,?,?,?,?,?,?,?,?,?,?,?,?,?,?,?,?,?,?,?,?,?,?,?,?,?,?,?,?,?,?,?,?,?,?,?,?,?,?,?,?,?,?,?,?,?,?,?,?,?,?,?,?,?,?,?,?,?,?,?,?,?,?,?,?,?,?,?,?,?,?,?,?,?,?
Prediction from SVM:				0,0,0,0,0,0,0,0,0,0,0,0,0,0,0,0,1,0,1,0,1,1,0,0,1,1,0,1,0,0,0,0,0,0,0,0,0,0,0,0,0,0,0,0,0,0,0,0,0,0,0,0,0,0,0,0,0,0,0,0,0,0,0,0,0,0,0,0,0,0,0,0,0,0,0,1,1,0,1,1,1,0,1,1,1,1,1,1,1,1,0,1,1,0,0,0,1,0,1,0,0,0,0,0,0,0,0,0,0,0,0,0,0,0,0,0,0,0,0,0,0,0,0,0,0,0,0,0,0,0,0,0,0,0,0,0,0,1,0,1,0,0,1,1,1,0,0,0,0,0,0,0,0,0,0,0,0,0,0,0,0,0,0,0,0,0,0,0,0,0,0,0,0,0,0,0,0,0,0,0,0,0,0,0,0,0,1,1,1,1,1,1,1,1,0,0,0,1,1,0,0,0,1,0,0,0,0,0,0,0,0,1,1,1,1,0,0,0,0,0,0,0,0,0,0,0,0,0,0,1,1,0,0,0,0,1,0,0,1,0,0,1,0,0,0,0,0,0,0,0,0,0,0,0,0,0,0,0,0,0,0,0,0,0,0,0,0,0,0,0,0,0,0,0,0,0,0,0,0,0,0,0,0,1,0,1,1,1,1,1,0,0,1,0,0,0,0,0,0,0,0,0,0,0,0,0,0,0,0,0,0,0,0,0,0,0,0,0,0,0,0,0,0,0,0,0,0,0,0,0,0,0,0,0,0,0,0,0,0,0,0,0,0,0,0,0,0,0,0,0,0,0,0,0,0,0,0,0,0,0,0,1,1,1,0,0,1,0,0,0,0,0,0,0,0,0,0,0,0,0,0,0,0,0,1,0,0,0,1,0,0,0,0,0,0,0,0,0,0,0,1,0,0,1,1,1,1,1,1,1,1,1,1,1,1,1,1,1,1,1,1,0,1,1,1,1,1,1,1,1,0,1,1,1,1,1,0,0,0,1,0,1,1,1,1,1,1,1,1,0,1,0,0,1,1,0,0,1
Predicted score from SVM:			0.00,0.02,0.00,0.00,0.00,0.00,0.00,0.00,0.01,0.03,0.09,0.30,0.03,0.09,0.08,0.22,0.50,0.34,0.72,0.44,0.66,0.56,0.08,0.37,0.92,0.92,0.11,0.60,0.47,0.06,0.37,0.45,0.06,0.08,0.05,0.03,0.01,0.02,0.04,0.06,0.00,0.00,0.01,0.01,0.01,0.04,0.03,0.01,0.14,0.08,0.07,0.04,0.26,0.21,0.13,0.10,0.18,0.09,0.12,0.20,0.01,0.04,0.11,0.01,0.02,0.01,0.01,0.01,0.07,0.07,0.01,0.09,0.37,0.04,0.01,0.71,0.58,0.08,0.73,0.64,0.84,0.49,0.83,0.71,0.88,0.97,0.59,0.82,0.91,0.88,0.33,0.81,0.92,0.49,0.31,0.40,0.76,0.22,0.53,0.12,0.23,0.49,0.34,0.23,0.24,0.36,0.21,0.05,0.08,0.12,0.16,0.06,0.18,0.28,0.19,0.38,0.09,0.01,0.01,0.01,0.00,0.00,0.00,0.01,0.00,0.00,0.01,0.11,0.01,0.17,0.38,0.16,0.03,0.05,0.05,0.11,0.02,0.67,0.44,0.51,0.39,0.35,0.85,0.68,0.56,0.03,0.17,0.09,0.00,0.00,0.01,0.01,0.00,0.00,0.01,0.01,0.01,0.01,0.00,0.01,0.02,0.02,0.01,0.02,0.01,0.04,0.03,0.06,0.10,0.10,0.06,0.00,0.05,0.10,0.02,0.03,0.01,0.01,0.01,0.06,0.01,0.01,0.12,0.08,0.08,0.35,0.75,0.74,0.96,0.85,0.84,0.82,0.87,0.94,0.24,0.23,0.47,0.67,0.82,0.36,0.36,0.34,0.53,0.03,0.10,0.20,0.14,0.31,0.16,0.21,0.34,0.88,0.54,0.81,0.57,0.15,0.09,0.02,0.01,0.01,0.03,0.01,0.02,0.10,0.02,0.38,0.16,0.22,0.23,0.73,0.90,0.23,0.10,0.49,0.42,0.81,0.26,0.07,0.57,0.24,0.48,0.61,0.47,0.21,0.38,0.29,0.21,0.13,0.17,0.01,0.00,0.00,0.02,0.01,0.03,0.02,0.11,0.02,0.07,0.01,0.01,0.01,0.02,0.00,0.01,0.00,0.00,0.00,0.03,0.00,0.01,0.01,0.00,0.01,0.03,0.03,0.02,0.03,0.26,0.04,0.08,0.24,0.36,0.83,0.45,0.53,0.79,0.77,0.79,0.61,0.21,0.35,0.63,0.06,0.01,0.04,0.01,0.00,0.01,0.01,0.00,0.01,0.01,0.01,0.01,0.02,0.04,0.19,0.20,0.18,0.18,0.23,0.05,0.06,0.04,0.08,0.27,0.04,0.02,0.09,0.07,0.01,0.01,0.01,0.01,0.00,0.00,0.00,0.00,0.00,0.00,0.00,0.00,0.00,0.01,0.02,0.00,0.01,0.06,0.06,0.00,0.01,0.03,0.00,0.00,0.00,0.00,0.00,0.01,0.00,0.00,0.00,0.00,0.00,0.00,0.01,0.00,0.04,0.07,0.20,0.04,0.58,0.57,0.56,0.48,0.32,0.81,0.09,0.19,0.03,0.04,0.04,0.01,0.02,0.01,0.00,0.01,0.02,0.00,0.00,0.03,0.06,0.01,0.03,0.51,0.29,0.29,0.30,0.74,0.10,0.38,0.19,0.02,0.01,0.01,0.10,0.01,0.01,0.05,0.34,0.67,0.26,0.36,0.61,0.64,0.54,0.67,0.62,0.75,0.89,0.82,0.72,0.93,0.96,0.91,0.89,0.62,0.99,0.58,0.64,0.82,0.49,0.93,0.96,0.95,0.98,0.90,0.92,0.77,0.53,0.14,0.92,0.95,0.58,0.64,0.85,0.16,0.29,0.20,0.72,0.32,0.69,0.73,0.64,0.78,0.77,0.71,0.77,0.76,0.17,0.96,0.44,0.01,0.99,0.99,0.22,0.33,1.00
Prediction from RNABindRPlus:		0,0,0,0,0,0,0,0,0,0,0,0,0,0,0,0,0,0,0,0,0,0,0,0,1,1,0,0,0,0,0,0,0,0,0,0,0,0,0,0,0,0,0,0,0,0,0,0,0,0,0,0,0,0,0,0,0,0,0,0,0,0,0,0,0,0,0,0,0,0,0,0,0,0,0,0,0,0,0,0,0,0,0,0,1,1,0,0,1,1,0,0,1,0,0,0,0,0,0,0,0,0,0,0,0,0,0,0,0,0,0,0,0,0,0,0,0,0,0,0,0,0,0,0,0,0,0,0,0,0,0,0,0,0,0,0,0,0,0,0,0,0,1,0,0,0,0,0,0,0,0,0,0,0,0,0,0,0,0,0,0,0,0,0,0,0,0,0,0,0,0,0,0,0,0,0,0,0,0,0,0,0,0,0,0,0,0,0,1,1,0,0,1,1,0,0,0,0,0,0,0,0,0,0,0,0,0,0,0,0,0,1,0,0,0,0,0,0,0,0,0,0,0,0,0,0,0,0,0,0,1,0,0,0,0,0,0,0,0,0,0,0,0,0,0,0,0,0,0,0,0,0,0,0,0,0,0,0,0,0,0,0,0,0,0,0,0,0,0,0,0,0,0,0,0,0,0,0,0,0,0,0,0,0,0,0,0,0,0,0,0,0,0,0,0,0,0,0,0,0,0,0,0,0,0,0,0,0,0,0,0,0,0,0,0,0,0,0,0,0,0,0,0,0,0,0,0,0,0,0,0,0,0,0,0,0,0,0,0,0,0,0,0,0,0,0,0,0,0,0,0,0,0,0,0,0,0,0,0,0,0,0,0,0,0,0,0,0,0,0,0,0,0,0,0,0,0,0,0,0,0,0,0,0,0,0,0,0,0,0,0,0,0,0,0,0,0,0,0,0,0,0,0,0,0,0,0,0,0,1,0,0,1,1,1,1,0,1,0,0,0,0,1,1,1,1,1,1,0,0,0,1,1,0,0,1,0,0,0,0,0,0,0,0,0,0,0,0,0,0,1,0,0,1,1,0,0,1
Predicted score from RNABindRPlus:	0.01,0.01,0.01,0.01,0.01,0.01,0.01,0.01,0.01,0.01,0.02,0.05,0.01,0.02,0.01,0.03,0.13,0.06,0.33,0.09,0.26,0.17,0.01,0.07,0.60,0.60,0.02,0.20,0.11,0.01,0.07,0.10,0.01,0.01,0.01,0.01,0.01,0.01,0.01,0.01,0.01,0.01,0.01,0.01,0.01,0.01,0.01,0.01,0.02,0.01,0.01,0.01,0.04,0.03,0.02,0.02,0.02,0.02,0.02,0.03,0.01,0.01,0.02,0.01,0.01,0.01,0.01,0.01,0.01,0.01,0.01,0.02,0.07,0.01,0.01,0.32,0.19,0.01,0.34,0.24,0.49,0.12,0.47,0.32,0.54,0.66,0.19,0.46,0.58,0.54,0.05,0.45,0.60,0.12,0.05,0.08,0.38,0.03,0.15,0.02,0.03,0.12,0.06,0.03,0.03,0.06,0.03,0.01,0.01,0.02,0.02,0.01,0.02,0.04,0.03,0.07,0.02,0.01,0.01,0.01,0.01,0.01,0.01,0.01,0.01,0.01,0.01,0.02,0.01,0.02,0.07,0.02,0.01,0.01,0.01,0.02,0.01,0.27,0.09,0.13,0.07,0.06,0.50,0.28,0.17,0.01,0.02,0.02,0.01,0.01,0.01,0.01,0.01,0.01,0.01,0.01,0.01,0.01,0.01,0.01,0.01,0.01,0.01,0.01,0.01,0.01,0.01,0.01,0.02,0.02,0.01,0.01,0.01,0.02,0.01,0.01,0.01,0.01,0.01,0.01,0.01,0.01,0.02,0.01,0.01,0.06,0.37,0.35,0.65,0.50,0.49,0.46,0.53,0.62,0.03,0.03,0.11,0.27,0.46,0.06,0.06,0.06,0.15,0.01,0.02,0.03,0.02,0.05,0.02,0.03,0.06,0.54,0.15,0.45,0.18,0.02,0.02,0.01,0.01,0.01,0.01,0.01,0.01,0.02,0.01,0.07,0.02,0.03,0.03,0.34,0.57,0.03,0.02,0.12,0.09,0.45,0.04,0.01,0.18,0.03,0.11,0.21,0.11,0.03,0.07,0.04,0.03,0.02,0.02,0.01,0.01,0.01,0.01,0.01,0.01,0.01,0.02,0.01,0.01,0.01,0.01,0.01,0.01,0.01,0.01,0.01,0.01,0.01,0.01,0.01,0.01,0.01,0.01,0.01,0.01,0.01,0.01,0.01,0.04,0.01,0.01,0.03,0.06,0.47,0.10,0.15,0.42,0.39,0.42,0.21,0.03,0.06,0.23,0.01,0.01,0.01,0.01,0.01,0.01,0.01,0.01,0.01,0.01,0.01,0.01,0.01,0.01,0.03,0.03,0.02,0.02,0.03,0.01,0.01,0.01,0.01,0.04,0.01,0.01,0.02,0.01,0.01,0.01,0.01,0.01,0.01,0.01,0.01,0.01,0.01,0.01,0.01,0.01,0.01,0.01,0.01,0.01,0.01,0.01,0.01,0.01,0.01,0.01,0.01,0.01,0.01,0.01,0.01,0.01,0.01,0.01,0.01,0.01,0.01,0.01,0.01,0.01,0.01,0.01,0.03,0.01,0.19,0.18,0.17,0.11,0.05,0.45,0.02,0.03,0.01,0.01,0.01,0.01,0.01,0.01,0.01,0.01,0.01,0.01,0.01,0.01,0.01,0.01,0.01,0.13,0.04,0.04,0.05,0.35,0.02,0.07,0.03,0.01,0.01,0.01,0.02,0.01,0.01,0.01,0.06,0.27,0.04,0.06,0.21,0.24,0.15,0.27,0.22,0.37,0.56,0.46,0.33,0.61,0.65,0.58,0.56,0.22,0.69,0.19,0.24,0.46,0.12,0.61,0.65,0.64,0.68,0.57,0.60,0.39,0.15,0.02,0.60,0.64,0.19,0.24,0.50,0.02,0.04,0.03,0.33,0.05,0.29,0.34,0.24,0.41,0.39,0.32,0.39,0.38,0.02,0.65,0.09,0.01,0.69,0.69,0.03,0.05,0.70
    #Input sequence length: 365
#Number of binding residues predicted by HomPRIP: 0
#Number of binding residues predicted by SVM: 43
#Number of binding residues predicted by RNABindRPlus: 4
>Q2FWY3_AF_A
sequence:							M,Y,I,N,M,K,D,Y,G,L,T,G,I,N,K,T,K,D,T,R,A,I,Q,R,A,L,N,R,G,R,C,K,P,T,T,V,Y,I,P,K,G,T,Y,D,I,C,K,P,L,T,I,Y,G,N,T,T,L,L,L,D,N,E,T,I,L,R,R,C,H,S,G,P,L,L,K,N,G,R,R,F,G,F,Y,R,G,Y,N,G,H,S,H,I,H,I,K,G,G,K,F,D,M,N,G,V,S,Y,P,Y,N,N,T,A,M,C,I,G,H,A,E,D,I,Q,L,I,G,V,T,I,K,N,V,V,S,G,H,A,I,D,A,C,G,I,N,G,L,Y,I,K,S,C,S,F,E,G,F,I,D,Y,S,G,E,R,F,Y,S,E,A,I,Q,L,D,I,Q,V,P,G,A,F,P,K,F,G,T,T,D,G,T,I,T,K,N,V,I,I,E,D,C,Y,F,G,P,S,E,L,P,E,M,G,S,W,N,R,A,I,G,S,H,A,S,R,H,N,R,Y,Y,E,N,I,H,I,R,N,N,I,F,E,D,I,Q,G,Y,A,L,T,P,L,K,Y,K,D,A,F,I,I,N,N,K,F,I,N,C,E,G,G,I,R,Y,L,G,V,R,D,G,K,N,A,A,D,V,M,T,G,K,D,L,G,S,Q,A,G,I,N,M,N,I,I,G,N,E,F,K,G,S,M,S,K,D,A,I,H,V,R,N,Y,N,N,V,K,H,K,D,V,L,I,V,G,N,T,F,N,N,S,T,Q,S,I,H,L,E,D,I,D,T,V,F,L,S,P,V,E,A,G,I,Q,V,T,T,I,N,V,D,E,I,K,K
Prediction from HomPRIP:			?????????????????????????????????????????????????????????????????????????????????????????????????????????????????????????????????????????????????????????????????????????????????????????????????????????????????????????????????????????????????????????????????????????????????????????????????????????????????????????????????????????????????????????????????????????????
Predicted score from HomPRIP:		?,?,?,?,?,?,?,?,?,?,?,?,?,?,?,?,?,?,?,?,?,?,?,?,?,?,?,?,?,?,?,?,?,?,?,?,?,?,?,?,?,?,?,?,?,?,?,?,?,?,?,?,?,?,?,?,?,?,?,?,?,?,?,?,?,?,?,?,?,?,?,?,?,?,?,?,?,?,?,?,?,?,?,?,?,?,?,?,?,?,?,?,?,?,?,?,?,?,?,?,?,?,?,?,?,?,?,?,?,?,?,?,?,?,?,?,?,?,?,?,?,?,?,?,?,?,?,?,?,?,?,?,?,?,?,?,?,?,?,?,?,?,?,?,?,?,?,?,?,?,?,?,?,?,?,?,?,?,?,?,?,?,?,?,?,?,?,?,?,?,?,?,?,?,?,?,?,?,?,?,?,?,?,?,?,?,?,?,?,?,?,?,?,?,?,?,?,?,?,?,?,?,?,?,?,?,?,?,?,?,?,?,?,?,?,?,?,?,?,?,?,?,?,?,?,?,?,?,?,?,?,?,?,?,?,?,?,?,?,?,?,?,?,?,?,?,?,?,?,?,?,?,?,?,?,?,?,?,?,?,?,?,?,?,?,?,?,?,?,?,?,?,?,?,?,?,?,?,?,?,?,?,?,?,?,?,?,?,?,?,?,?,?,?,?,?,?,?,?,?,?,?,?,?,?,?,?,?,?,?,?,?,?,?,?,?,?,?,?,?,?,?,?,?,?,?,?,?,?,?,?,?,?,?,?,?,?,?,?,?,?,?,?,?,?,?,?,?,?,?,?,?,?,?,?,?,?,?,?,?,?,?,?,?,?
Prediction from SVM:				0,0,0,0,0,1,1,1,0,0,1,0,1,1,1,1,1,1,1,1,1,0,1,1,0,0,0,0,0,0,0,0,0,0,1,0,1,0,1,1,0,1,0,1,0,0,0,0,0,0,0,0,0,0,0,0,0,0,0,0,0,0,0,0,0,0,0,0,0,1,0,0,0,0,0,0,0,0,0,0,0,0,0,0,0,1,0,0,1,0,1,0,1,0,1,0,0,1,0,0,0,0,0,0,0,0,0,0,0,0,0,0,0,0,0,0,0,0,0,0,0,0,0,0,0,0,0,0,0,0,0,0,0,0,0,0,0,0,0,0,0,0,0,0,0,0,0,0,0,0,1,0,0,0,0,0,0,0,0,0,0,0,0,0,0,0,0,0,0,0,0,0,0,0,0,0,0,0,0,0,0,0,0,0,0,0,0,0,0,0,0,0,0,0,0,0,0,1,0,0,0,0,0,0,0,0,0,0,0,0,0,1,0,0,0,1,0,0,0,0,0,0,0,0,1,0,1,0,0,0,0,0,0,1,0,0,0,0,0,0,0,0,0,0,0,0,0,0,0,0,0,0,0,0,0,0,1,0,1,1,0,1,1,0,0,0,0,0,0,0,0,0,0,0,0,0,0,0,0,0,0,0,0,0,0,0,0,0,0,0,0,0,0,0,0,0,0,0,0,0,0,0,0,0,0,1,0,0,0,0,0,0,0,0,0,0,0,0,0,0,0,0,0,0,0,0,0,1,0,0,0,0,0,0,0,0,0,0,0,0,0,0,0,0,0,0,0,0,0,0,0,0,0,0,0,0,0,0,0,0,0,0,0,0,1
Predicted score from SVM:			0.00,0.00,0.00,0.29,0.01,0.76,0.65,0.71,0.39,0.21,0.61,0.28,0.78,0.80,0.97,0.95,0.84,0.52,0.92,0.98,0.51,0.12,0.75,0.74,0.08,0.03,0.09,0.18,0.02,0.08,0.06,0.16,0.11,0.08,0.73,0.22,0.67,0.31,0.72,0.77,0.45,0.68,0.35,0.59,0.07,0.28,0.21,0.21,0.16,0.30,0.17,0.39,0.17,0.30,0.09,0.26,0.12,0.16,0.03,0.13,0.04,0.05,0.10,0.06,0.08,0.48,0.33,0.34,0.32,0.53,0.35,0.17,0.25,0.18,0.40,0.27,0.15,0.15,0.11,0.05,0.07,0.05,0.10,0.35,0.32,0.56,0.35,0.35,0.55,0.28,0.60,0.24,0.51,0.24,0.62,0.35,0.43,0.52,0.24,0.35,0.10,0.39,0.23,0.25,0.32,0.44,0.26,0.43,0.36,0.32,0.21,0.07,0.12,0.15,0.10,0.19,0.24,0.15,0.14,0.15,0.03,0.05,0.02,0.09,0.11,0.06,0.17,0.02,0.18,0.10,0.15,0.12,0.09,0.19,0.18,0.04,0.06,0.05,0.03,0.06,0.04,0.07,0.12,0.13,0.05,0.18,0.07,0.32,0.27,0.19,0.50,0.22,0.19,0.09,0.22,0.16,0.11,0.24,0.12,0.14,0.16,0.07,0.05,0.06,0.13,0.17,0.15,0.08,0.26,0.03,0.09,0.03,0.07,0.09,0.06,0.09,0.04,0.05,0.03,0.15,0.12,0.05,0.14,0.24,0.09,0.14,0.27,0.09,0.16,0.18,0.18,0.03,0.05,0.06,0.38,0.15,0.49,0.52,0.20,0.47,0.16,0.36,0.30,0.25,0.21,0.14,0.09,0.41,0.25,0.11,0.13,0.62,0.35,0.32,0.39,0.56,0.45,0.30,0.13,0.28,0.13,0.41,0.31,0.30,0.61,0.46,0.58,0.22,0.33,0.38,0.41,0.23,0.44,0.56,0.19,0.46,0.24,0.22,0.18,0.20,0.07,0.04,0.06,0.13,0.06,0.11,0.20,0.12,0.18,0.10,0.03,0.05,0.05,0.11,0.13,0.23,0.54,0.18,0.56,0.53,0.47,0.66,0.77,0.35,0.21,0.38,0.41,0.28,0.41,0.12,0.20,0.22,0.28,0.31,0.12,0.14,0.10,0.06,0.04,0.10,0.05,0.07,0.23,0.05,0.14,0.13,0.18,0.17,0.13,0.20,0.27,0.30,0.09,0.30,0.14,0.39,0.26,0.34,0.26,0.14,0.49,0.25,0.42,0.21,0.28,0.62,0.12,0.10,0.16,0.08,0.05,0.19,0.13,0.18,0.10,0.26,0.13,0.41,0.20,0.32,0.28,0.07,0.45,0.15,0.27,0.10,0.39,0.50,0.11,0.26,0.15,0.13,0.31,0.29,0.12,0.08,0.12,0.02,0.06,0.05,0.02,0.05,0.06,0.02,0.06,0.03,0.14,0.02,0.01,0.05,0.03,0.03,0.02,0.13,0.05,0.11,0.01,0.04,0.12,0.00,0.06,0.02,0.01,0.21,0.56
Prediction from RNABindRPlus:		0,0,0,0,0,0,0,0,0,0,0,0,0,0,1,1,0,0,1,1,0,0,0,0,0,0,0,0,0,0,0,0,0,0,0,0,0,0,0,0,0,0,0,0,0,0,0,0,0,0,0,0,0,0,0,0,0,0,0,0,0,0,0,0,0,0,0,0,0,0,0,0,0,0,0,0,0,0,0,0,0,0,0,0,0,0,0,0,0,0,0,0,0,0,0,0,0,0,0,0,0,0,0,0,0,0,0,0,0,0,0,0,0,0,0,0,0,0,0,0,0,0,0,0,0,0,0,0,0,0,0,0,0,0,0,0,0,0,0,0,0,0,0,0,0,0,0,0,0,0,0,0,0,0,0,0,0,0,0,0,0,0,0,0,0,0,0,0,0,0,0,0,0,0,0,0,0,0,0,0,0,0,0,0,0,0,0,0,0,0,0,0,0,0,0,0,0,0,0,0,0,0,0,0,0,0,0,0,0,0,0,0,0,0,0,0,0,0,0,0,0,0,0,0,0,0,0,0,0,0,0,0,0,0,0,0,0,0,0,0,0,0,0,0,0,0,0,0,0,0,0,0,0,0,0,0,0,0,0,0,0,0,0,0,0,0,0,0,0,0,0,0,0,0,0,0,0,0,0,0,0,0,0,0,0,0,0,0,0,0,0,0,0,0,0,0,0,0,0,0,0,0,0,0,0,0,0,0,0,0,0,0,0,0,0,0,0,0,0,0,0,0,0,0,0,0,0,0,0,0,0,0,0,0,0,0,0,0,0,0,0,0,0,0,0,0,0,0,0,0,0,0,0,0,0,0,0,0,0,0,0,0,0,0,0
Predicted score from RNABindRPlus:	0.01,0.01,0.01,0.04,0.01,0.38,0.25,0.32,0.07,0.03,0.21,0.04,0.41,0.43,0.66,0.64,0.49,0.14,0.60,0.68,0.13,0.02,0.37,0.35,0.01,0.01,0.02,0.02,0.01,0.01,0.01,0.02,0.02,0.01,0.34,0.03,0.27,0.05,0.33,0.39,0.10,0.28,0.06,0.19,0.01,0.04,0.03,0.03,0.02,0.05,0.02,0.07,0.02,0.05,0.02,0.04,0.02,0.02,0.01,0.02,0.01,0.01,0.02,0.01,0.01,0.11,0.05,0.06,0.05,0.15,0.06,0.02,0.04,0.02,0.08,0.04,0.02,0.02,0.02,0.01,0.01,0.01,0.02,0.06,0.05,0.17,0.06,0.06,0.16,0.04,0.20,0.03,0.13,0.03,0.22,0.06,0.09,0.14,0.03,0.06,0.02,0.07,0.03,0.04,0.05,0.09,0.04,0.09,0.06,0.05,0.03,0.01,0.02,0.02,0.02,0.03,0.03,0.02,0.02,0.02,0.01,0.01,0.01,0.02,0.02,0.01,0.02,0.01,0.02,0.02,0.02,0.02,0.02,0.03,0.02,0.01,0.01,0.01,0.01,0.01,0.01,0.01,0.02,0.02,0.01,0.02,0.01,0.05,0.04,0.03,0.13,0.03,0.03,0.02,0.03,0.02,0.02,0.03,0.02,0.02,0.02,0.01,0.01,0.01,0.02,0.02,0.02,0.01,0.04,0.01,0.02,0.01,0.01,0.02,0.01,0.02,0.01,0.01,0.01,0.02,0.02,0.01,0.02,0.03,0.02,0.02,0.04,0.02,0.02,0.02,0.02,0.01,0.01,0.01,0.07,0.02,0.12,0.14,0.03,0.11,0.02,0.06,0.05,0.04,0.03,0.02,0.02,0.08,0.04,0.02,0.02,0.22,0.06,0.05,0.07,0.17,0.10,0.05,0.02,0.04,0.02,0.08,0.05,0.05,0.21,0.10,0.19,0.03,0.05,0.07,0.08,0.03,0.09,0.17,0.03,0.10,0.03,0.03,0.02,0.03,0.01,0.01,0.01,0.02,0.01,0.02,0.03,0.02,0.02,0.02,0.01,0.01,0.01,0.02,0.02,0.03,0.15,0.02,0.17,0.15,0.11,0.26,0.39,0.06,0.03,0.07,0.08,0.04,0.08,0.02,0.03,0.03,0.04,0.05,0.02,0.02,0.02,0.01,0.01,0.02,0.01,0.01,0.03,0.01,0.02,0.02,0.02,0.02,0.02,0.03,0.04,0.05,0.02,0.05,0.02,0.07,0.04,0.06,0.04,0.02,0.12,0.04,0.09,0.03,0.04,0.22,0.02,0.02,0.02,0.01,0.01,0.03,0.02,0.02,0.02,0.04,0.02,0.08,0.03,0.05,0.04,0.01,0.10,0.02,0.04,0.02,0.07,0.13,0.02,0.04,0.02,0.02,0.05,0.04,0.02,0.01,0.02,0.01,0.01,0.01,0.01,0.01,0.01,0.01,0.01,0.01,0.02,0.01,0.01,0.01,0.01,0.01,0.01,0.02,0.01,0.02,0.01,0.01,0.02,0.01,0.01,0.01,0.01,0.03,0.17
    #Input sequence length: 273
#Number of binding residues predicted by HomPRIP: 40
#Number of binding residues predicted by SVM: 53
#Number of binding residues predicted by RNABindRPlus: 41
>Q2FX95_AF_A
sequence:							M,K,F,K,I,P,E,N,F,N,D,L,S,L,R,D,I,F,Q,Q,L,K,V,P,K,K,D,L,H,H,L,N,M,S,K,D,I,T,I,N,D,K,P,A,R,L,M,D,K,V,H,T,G,D,D,V,F,V,P,T,I,D,E,K,S,N,Y,V,P,S,Y,R,Y,A,Q,I,K,Y,E,D,D,D,M,A,I,V,M,K,P,K,G,V,K,T,H,P,N,D,L,K,E,S,N,T,L,M,N,H,V,I,Y,T,I,D,S,D,Y,V,E,P,I,H,R,L,D,Q,E,T,V,G,L,L,I,V,A,K,N,P,L,M,K,K,I,L,D,R,M,L,E,D,N,D,I,T,R,I,Y,K,A,N,V,K,A,L,L,P,L,K,P,Q,T,I,D,M,P,I,G,K,D,K,F,H,S,N,K,R,R,V,S,P,T,G,Q,R,A,I,T,H,I,L,T,S,K,M,I,K,E,A,V,C,Q,L,E,I,K,L,D,T,G,R,T,H,Q,I,R,V,H,L,A,E,I,G,H,P,V,I,G,D,P,L,Y,G,D,S,T,L,R,Q,L,E,L,E,S,Y,K,I,E,F,V,H,P,L,T,K,E,V,I,S,V,S,L,D,D
Prediction from HomPRIP:			?,?,?,?,?,?,?,?,?,?,?,?,?,?,?,?,?,?,?,?,?,?,?,?,?,?,?,?,?,?,?,?,?,?,?,?,?,?,?,?,?,?,?,?,?,?,?,?,?,?,?,?,?,?,?,?,?,?,?,?,?,?,?,?,?,0,0,0,0,0,0,0,0,0,0,0,0,0,0,0,0,0,0,0,0,0,0,0,0,0,0,0,1,1,1,1,1,1,1,0,0,1,0,?,?,?,0,0,0,0,0,0,0,0,0,0,0,0,1,1,1,1,1,1,1,1,1,0,0,0,0,0,0,0,0,0,0,1,0,0,1,1,0,0,1,0,0,1,1,0,0,0,0,0,1,0,1,0,0,0,0,0,0,0,0,0,0,0,0,0,0,0,0,0,0,0,0,1,0,1,0,0,1,1,0,1,0,0,0,0,0,0,1,0,0,0,0,0,0,0,0,0,0,0,0,0,0,0,0,0,0,0,0,0,0,0,0,1,1,1,1,1,1,0,1,0,0,0,0,0,0,0,0,0,0,0,0,0,1,1,0,0,0,0,0,0,0,0,0,0,0,0,0,0,0,0,0,0,0,0,0,?,?,?,?,?,?,?,?,?,?,?,?
Predicted score from HomPRIP:		?,?,?,?,?,?,?,?,?,?,?,?,?,?,?,?,?,?,?,?,?,?,?,?,?,?,?,?,?,?,?,?,?,?,?,?,?,?,?,?,?,?,?,?,?,?,?,?,?,?,?,?,?,?,?,?,?,?,?,?,?,?,?,?,?,0.00,0.00,0.00,0.00,0.00,0.00,0.00,0.00,0.00,0.00,0.00,0.00,0.00,0.00,0.00,0.00,0.00,0.00,0.00,0.00,0.00,0.00,0.00,0.00,0.00,0.00,0.00,1.00,1.00,1.00,1.00,1.00,1.00,1.00,0.00,0.00,1.00,0.00,?,?,?,0.00,0.00,0.00,0.00,0.00,0.00,0.00,0.00,0.00,0.00,0.00,0.00,1.00,1.00,1.00,1.00,1.00,1.00,1.00,1.00,1.00,0.00,0.00,0.00,0.00,0.00,0.00,0.00,0.00,0.00,0.00,1.00,0.00,0.00,1.00,1.00,0.00,0.00,1.00,0.00,0.00,1.00,1.00,0.00,0.25,0.00,0.00,0.00,1.00,0.00,1.00,0.00,0.00,0.00,0.00,0.00,0.00,0.00,0.00,0.00,0.00,0.00,0.00,0.00,0.00,0.00,0.00,0.00,0.00,0.00,0.00,1.00,0.00,0.75,0.00,0.00,1.00,1.00,0.00,1.00,0.00,0.00,0.00,0.00,0.00,0.00,0.75,0.00,0.00,0.00,0.00,0.00,0.00,0.00,0.00,0.00,0.00,0.00,0.00,0.00,0.00,0.00,0.00,0.00,0.00,0.00,0.00,0.00,0.00,0.00,0.25,1.00,1.00,1.00,1.00,1.00,1.00,0.00,0.50,0.00,0.00,0.00,0.00,0.00,0.00,0.00,0.00,0.00,0.00,0.00,0.00,0.00,1.00,1.00,0.00,0.00,0.00,0.00,0.00,0.00,0.00,0.00,0.00,0.00,0.00,0.00,0.00,0.00,0.00,0.00,0.00,0.00,0.00,0.00,0.00,?,?,?,?,?,?,?,?,?,?,?,?
Prediction from SVM:				0,0,0,0,0,0,0,0,0,0,0,0,0,0,0,0,0,0,0,0,0,0,0,0,1,1,0,0,1,0,0,1,0,1,1,0,0,0,0,0,0,0,0,0,0,0,0,0,0,0,0,0,0,0,0,0,0,0,0,0,0,0,0,0,0,0,0,0,0,0,0,0,0,0,0,0,0,0,0,0,0,0,0,0,0,0,0,0,0,0,0,0,1,1,1,0,0,0,0,0,0,0,0,0,0,0,0,0,0,0,0,0,0,0,0,0,0,0,0,0,0,1,1,1,1,1,0,0,0,0,0,0,0,0,0,1,1,1,0,0,1,1,0,0,0,0,0,0,0,0,0,0,0,0,1,0,0,0,0,0,0,0,0,0,0,0,0,0,0,0,1,0,1,1,1,1,1,1,1,1,1,1,1,1,1,1,1,1,1,1,1,1,1,1,1,0,0,0,0,0,0,0,0,0,0,0,0,0,0,0,0,0,0,0,0,0,0,1,1,1,1,1,1,0,1,0,0,0,0,0,0,0,0,0,0,0,0,0,0,0,1,0,0,0,0,0,0,1,0,0,0,0,0,0,0,0,0,0,0,0,0,0,0,0,0,0,0,0,0,0,0,0,0
Predicted score from SVM:			0.00,0.00,0.00,0.00,0.00,0.00,0.00,0.00,0.01,0.00,0.01,0.02,0.01,0.00,0.03,0.01,0.01,0.01,0.03,0.03,0.06,0.28,0.06,0.26,0.97,0.94,0.40,0.49,0.85,0.30,0.21,0.73,0.45,0.71,0.71,0.24,0.04,0.11,0.08,0.16,0.08,0.36,0.15,0.05,0.15,0.07,0.14,0.02,0.02,0.01,0.05,0.01,0.01,0.01,0.01,0.00,0.00,0.00,0.00,0.00,0.00,0.00,0.00,0.00,0.00,0.00,0.00,0.00,0.00,0.00,0.00,0.00,0.00,0.00,0.01,0.00,0.01,0.02,0.01,0.01,0.00,0.02,0.00,0.00,0.01,0.01,0.02,0.07,0.10,0.06,0.21,0.18,0.52,0.81,0.80,0.07,0.29,0.09,0.09,0.18,0.05,0.02,0.07,0.24,0.02,0.02,0.12,0.05,0.00,0.01,0.01,0.01,0.00,0.00,0.00,0.04,0.05,0.02,0.12,0.15,0.07,0.50,0.51,0.55,0.76,0.89,0.34,0.14,0.20,0.06,0.04,0.02,0.04,0.07,0.27,0.60,0.53,0.63,0.12,0.03,0.55,0.51,0.12,0.07,0.48,0.40,0.06,0.02,0.06,0.05,0.20,0.10,0.04,0.44,0.52,0.37,0.17,0.41,0.28,0.28,0.07,0.11,0.24,0.40,0.05,0.19,0.11,0.35,0.47,0.23,0.58,0.18,0.91,0.71,0.95,0.98,0.99,1.00,0.99,1.00,1.00,1.00,1.00,1.00,1.00,1.00,0.99,0.94,0.94,0.99,0.99,0.94,0.99,0.99,0.77,0.18,0.46,0.14,0.02,0.12,0.01,0.01,0.01,0.04,0.06,0.08,0.14,0.03,0.02,0.01,0.00,0.00,0.02,0.00,0.07,0.02,0.13,0.96,0.98,0.99,0.99,1.00,0.53,0.08,1.00,0.07,0.32,0.00,0.03,0.12,0.00,0.01,0.03,0.03,0.02,0.00,0.10,0.32,0.29,0.43,0.65,0.32,0.40,0.46,0.48,0.31,0.20,0.55,0.18,0.08,0.27,0.21,0.04,0.03,0.04,0.01,0.03,0.01,0.03,0.07,0.04,0.02,0.04,0.01,0.01,0.01,0.00,0.00,0.00,0.00,0.00,0.00,0.00
Prediction from RNABindRPlus:		0,0,0,0,0,0,0,0,0,0,0,0,0,0,0,0,0,0,0,0,0,0,0,0,1,1,0,0,1,0,0,0,0,0,0,0,0,0,0,0,0,0,0,0,0,0,0,0,0,0,0,0,0,0,0,0,0,0,0,0,0,0,0,0,0,0,0,0,0,0,0,0,0,0,0,0,0,0,0,0,0,0,0,0,0,0,0,0,0,0,0,0,1,1,1,0,0,0,0,0,0,0,0,0,0,0,0,0,0,0,0,0,0,0,0,0,0,0,0,0,0,1,1,1,1,1,1,0,0,0,0,0,0,0,0,0,0,1,0,0,1,1,0,0,1,0,0,0,0,0,0,0,0,0,1,0,0,0,0,0,0,0,0,0,0,0,0,0,0,0,0,0,0,0,0,1,1,1,1,1,1,1,1,1,1,1,1,0,0,1,1,0,1,1,0,0,0,0,0,0,0,0,0,0,0,0,0,0,0,0,0,0,0,0,0,0,0,1,1,1,1,1,1,0,1,0,0,0,0,0,0,0,0,0,0,0,0,0,0,1,0,0,0,0,0,0,0,0,0,0,0,0,0,0,0,0,0,0,0,0,0,0,0,0,0,0,0,0,0,0,0,0,0
Predicted score from RNABindRPlus:	0.01,0.01,0.01,0.01,0.01,0.01,0.01,0.01,0.01,0.01,0.01,0.01,0.01,0.01,0.01,0.01,0.01,0.01,0.01,0.01,0.01,0.04,0.01,0.04,0.66,0.62,0.08,0.12,0.50,0.05,0.03,0.34,0.10,0.32,0.32,0.03,0.01,0.02,0.01,0.02,0.01,0.06,0.02,0.01,0.02,0.01,0.02,0.01,0.01,0.01,0.01,0.01,0.01,0.01,0.01,0.01,0.01,0.01,0.01,0.01,0.01,0.01,0.01,0.01,0.01,0.01,0.01,0.01,0.01,0.01,0.01,0.01,0.01,0.01,0.01,0.01,0.01,0.01,0.01,0.01,0.01,0.01,0.01,0.01,0.01,0.01,0.01,0.01,0.01,0.01,0.01,0.01,0.75,0.94,0.94,0.20,0.46,0.22,0.22,0.01,0.01,0.16,0.01,0.03,0.01,0.01,0.01,0.01,0.01,0.01,0.01,0.01,0.01,0.01,0.01,0.01,0.01,0.01,0.25,0.28,0.20,0.73,0.74,0.78,0.92,0.96,0.53,0.01,0.01,0.01,0.01,0.01,0.01,0.01,0.02,0.11,0.08,0.85,0.01,0.01,0.78,0.74,0.01,0.01,0.71,0.04,0.01,0.16,0.19,0.01,0.03,0.01,0.01,0.05,0.75,0.03,0.31,0.04,0.02,0.02,0.01,0.01,0.02,0.04,0.01,0.01,0.01,0.03,0.06,0.02,0.10,0.01,0.41,0.19,0.46,0.51,0.52,0.98,0.52,0.95,0.53,0.53,0.98,0.98,0.53,0.98,0.52,0.45,0.45,0.52,0.52,0.45,0.94,0.52,0.24,0.01,0.06,0.01,0.01,0.01,0.01,0.01,0.01,0.01,0.01,0.01,0.01,0.01,0.01,0.01,0.01,0.01,0.01,0.01,0.01,0.01,0.02,0.97,0.97,0.98,0.98,0.98,0.76,0.01,0.88,0.01,0.03,0.01,0.01,0.01,0.01,0.01,0.01,0.01,0.01,0.01,0.01,0.03,0.46,0.65,0.14,0.03,0.04,0.06,0.06,0.03,0.01,0.09,0.01,0.01,0.02,0.01,0.01,0.01,0.01,0.01,0.01,0.01,0.01,0.01,0.01,0.01,0.01,0.01,0.01,0.01,0.01,0.01,0.01,0.01,0.01,0.01,0.01
    #Input sequence length: 277
#Number of binding residues predicted by HomPRIP: 0
#Number of binding residues predicted by SVM: 42
#Number of binding residues predicted by RNABindRPlus: 11
>Q2FXE2_AF_A
sequence:							M,E,V,K,T,F,Y,N,G,N,T,M,P,Q,I,G,L,G,T,F,R,V,E,N,D,E,N,C,M,E,S,V,K,Y,A,I,E,Q,G,Y,R,S,I,D,T,A,K,V,Y,G,N,E,E,Q,V,G,A,G,I,R,A,G,L,E,S,T,G,I,A,R,E,D,L,F,I,T,S,K,L,Y,F,E,D,F,G,R,E,N,V,A,A,A,Y,E,A,S,L,S,R,L,G,L,K,Y,L,D,L,Y,L,V,H,W,P,G,T,N,E,A,V,M,V,D,T,W,K,G,M,E,D,L,Y,K,N,N,N,V,K,N,I,G,V,S,N,F,E,P,E,H,L,E,A,L,L,A,Q,V,S,I,K,P,V,I,N,Q,V,E,Y,H,P,Y,L,T,Q,H,K,L,K,L,Y,L,A,A,Q,R,I,V,M,E,S,W,S,P,L,M,N,A,Q,I,L,N,D,E,T,I,K,D,I,A,Q,E,L,G,K,S,P,A,Q,V,V,L,R,W,N,V,Q,H,A,V,V,T,I,P,K,S,V,T,P,N,R,I,S,E,N,F,Q,I,F,D,F,E,L,S,D,E,Q,M,T,R,I,D,G,L,N,Q,D,K,R,I,G,P,D,P,K,K,F,E,G
Prediction from HomPRIP:			?????????????????????????????????????????????????????????????????????????????????????????????????????????????????????????????????????????????????????????????????????????????????????????????????????????????????????????????????????????????????????????????????????????????????????
Predicted score from HomPRIP:		?,?,?,?,?,?,?,?,?,?,?,?,?,?,?,?,?,?,?,?,?,?,?,?,?,?,?,?,?,?,?,?,?,?,?,?,?,?,?,?,?,?,?,?,?,?,?,?,?,?,?,?,?,?,?,?,?,?,?,?,?,?,?,?,?,?,?,?,?,?,?,?,?,?,?,?,?,?,?,?,?,?,?,?,?,?,?,?,?,?,?,?,?,?,?,?,?,?,?,?,?,?,?,?,?,?,?,?,?,?,?,?,?,?,?,?,?,?,?,?,?,?,?,?,?,?,?,?,?,?,?,?,?,?,?,?,?,?,?,?,?,?,?,?,?,?,?,?,?,?,?,?,?,?,?,?,?,?,?,?,?,?,?,?,?,?,?,?,?,?,?,?,?,?,?,?,?,?,?,?,?,?,?,?,?,?,?,?,?,?,?,?,?,?,?,?,?,?,?,?,?,?,?,?,?,?,?,?,?,?,?,?,?,?,?,?,?,?,?,?,?,?,?,?,?,?,?,?,?,?,?,?,?,?,?,?,?,?,?,?,?,?,?,?,?,?,?,?,?,?,?,?,?,?,?,?,?,?,?,?,?,?,?,?,?,?,?,?,?,?,?,?,?,?,?,?,?
Prediction from SVM:				0,0,0,0,0,0,1,1,0,0,1,0,0,1,0,0,0,0,0,0,0,0,0,0,0,0,0,0,0,0,0,0,0,0,0,0,0,1,0,1,1,1,1,1,0,1,1,0,0,0,0,0,0,0,0,0,1,0,0,0,0,0,0,0,0,0,0,0,0,1,0,0,0,0,0,0,0,1,0,0,0,0,0,0,0,0,0,0,0,0,0,0,0,0,0,0,0,0,0,0,0,0,0,0,0,0,0,0,0,0,0,0,0,0,0,0,0,0,0,0,0,0,0,1,1,0,0,1,1,0,0,0,0,0,1,0,1,1,1,1,1,1,0,1,1,0,0,0,0,0,0,0,0,0,0,0,0,0,0,0,0,0,0,1,0,0,0,1,0,0,0,0,0,0,0,0,0,0,0,0,0,0,0,0,0,0,0,0,0,0,0,0,0,0,0,0,0,0,0,0,0,0,0,0,0,0,0,0,0,0,0,0,0,1,0,1,1,0,0,0,0,0,0,0,0,0,0,0,0,1,0,1,1,1,1,1,0,0,1,0,0,0,0,0,0,0,0,0,0,0,0,0,0,0,0,0,0,0,0,0,0,0,0,0,0,0,1,0,0,0,1,0,0,0,0,0,0
Predicted score from SVM:			0.00,0.00,0.02,0.03,0.06,0.01,0.75,0.59,0.43,0.26,0.53,0.49,0.18,0.61,0.09,0.35,0.18,0.10,0.04,0.04,0.29,0.00,0.00,0.00,0.00,0.00,0.01,0.00,0.00,0.05,0.03,0.00,0.05,0.12,0.03,0.00,0.45,0.63,0.28,0.57,0.97,0.82,0.57,0.65,0.49,0.77,0.52,0.03,0.26,0.05,0.10,0.06,0.07,0.29,0.24,0.30,0.83,0.05,0.01,0.26,0.00,0.00,0.00,0.00,0.01,0.02,0.02,0.01,0.11,0.51,0.05,0.01,0.01,0.07,0.00,0.08,0.27,0.64,0.00,0.09,0.03,0.08,0.03,0.05,0.04,0.06,0.00,0.01,0.03,0.00,0.01,0.01,0.00,0.00,0.00,0.01,0.00,0.00,0.04,0.00,0.00,0.00,0.00,0.01,0.00,0.01,0.01,0.13,0.01,0.00,0.41,0.05,0.04,0.00,0.02,0.10,0.23,0.03,0.13,0.09,0.13,0.25,0.11,0.67,0.98,0.11,0.21,0.84,0.60,0.01,0.27,0.29,0.02,0.05,0.66,0.04,0.86,0.72,0.61,0.94,0.92,0.92,0.34,0.95,0.61,0.00,0.06,0.04,0.00,0.00,0.00,0.00,0.00,0.00,0.00,0.00,0.00,0.00,0.01,0.02,0.01,0.01,0.32,0.83,0.15,0.13,0.13,0.64,0.09,0.39,0.07,0.05,0.07,0.03,0.01,0.01,0.03,0.00,0.01,0.00,0.00,0.00,0.00,0.00,0.00,0.03,0.04,0.11,0.02,0.20,0.29,0.43,0.14,0.05,0.09,0.00,0.00,0.00,0.00,0.00,0.01,0.00,0.00,0.00,0.01,0.00,0.00,0.00,0.01,0.16,0.23,0.21,0.46,0.93,0.19,0.52,0.68,0.27,0.11,0.02,0.26,0.09,0.06,0.01,0.08,0.19,0.03,0.01,0.09,0.78,0.19,0.77,0.99,0.77,0.90,0.98,0.43,0.38,0.64,0.01,0.00,0.01,0.03,0.00,0.01,0.00,0.01,0.00,0.00,0.00,0.00,0.00,0.00,0.00,0.00,0.00,0.00,0.00,0.00,0.00,0.00,0.03,0.01,0.04,0.06,0.04,0.52,0.13,0.07,0.46,0.75,0.06,0.28,0.48,0.08,0.01,0.00
Prediction from RNABindRPlus:		0,0,0,0,0,0,0,0,0,0,0,0,0,0,0,0,0,0,0,0,0,0,0,0,0,0,0,0,0,0,0,0,0,0,0,0,0,0,0,0,1,0,0,0,0,0,0,0,0,0,0,0,0,0,0,0,0,0,0,0,0,0,0,0,0,0,0,0,0,0,0,0,0,0,0,0,0,0,0,0,0,0,0,0,0,0,0,0,0,0,0,0,0,0,0,0,0,0,0,0,0,0,0,0,0,0,0,0,0,0,0,0,0,0,0,0,0,0,0,0,0,0,0,0,1,0,0,0,0,0,0,0,0,0,0,0,1,0,0,1,1,1,0,1,0,0,0,0,0,0,0,0,0,0,0,0,0,0,0,0,0,0,0,0,0,0,0,0,0,0,0,0,0,0,0,0,0,0,0,0,0,0,0,0,0,0,0,0,0,0,0,0,0,0,0,0,0,0,0,0,0,0,0,0,0,0,0,0,0,0,0,0,0,1,0,0,0,0,0,0,0,0,0,0,0,0,0,0,0,0,0,0,1,0,1,1,0,0,0,0,0,0,0,0,0,0,0,0,0,0,0,0,0,0,0,0,0,0,0,0,0,0,0,0,0,0,0,0,0,0,0,0,0,0,0,0,0
Predicted score from RNABindRPlus:	0.01,0.01,0.01,0.01,0.01,0.01,0.37,0.19,0.09,0.04,0.15,0.12,0.02,0.21,0.02,0.06,0.02,0.02,0.01,0.01,0.04,0.01,0.01,0.01,0.01,0.01,0.01,0.01,0.01,0.01,0.01,0.01,0.01,0.02,0.01,0.01,0.10,0.23,0.04,0.18,0.66,0.46,0.18,0.25,0.12,0.39,0.14,0.01,0.04,0.01,0.02,0.01,0.01,0.04,0.03,0.05,0.47,0.01,0.01,0.04,0.01,0.01,0.01,0.01,0.01,0.01,0.01,0.01,0.02,0.13,0.01,0.01,0.01,0.01,0.01,0.01,0.04,0.24,0.01,0.02,0.01,0.01,0.01,0.01,0.01,0.01,0.01,0.01,0.01,0.01,0.01,0.01,0.01,0.01,0.01,0.01,0.01,0.01,0.01,0.01,0.01,0.01,0.01,0.01,0.01,0.01,0.01,0.02,0.01,0.01,0.08,0.01,0.01,0.01,0.01,0.02,0.03,0.01,0.02,0.02,0.02,0.04,0.02,0.27,0.68,0.02,0.03,0.49,0.20,0.01,0.04,0.04,0.01,0.01,0.26,0.01,0.52,0.33,0.21,0.62,0.60,0.60,0.06,0.64,0.21,0.01,0.01,0.01,0.01,0.01,0.01,0.01,0.01,0.01,0.01,0.01,0.01,0.01,0.01,0.01,0.01,0.01,0.05,0.47,0.02,0.02,0.02,0.24,0.02,0.07,0.01,0.01,0.01,0.01,0.01,0.01,0.01,0.01,0.01,0.01,0.01,0.01,0.01,0.01,0.01,0.01,0.01,0.02,0.01,0.03,0.04,0.09,0.02,0.01,0.02,0.01,0.01,0.01,0.01,0.01,0.01,0.01,0.01,0.01,0.01,0.01,0.01,0.01,0.01,0.02,0.03,0.03,0.10,0.61,0.03,0.14,0.28,0.04,0.02,0.01,0.04,0.02,0.01,0.01,0.01,0.03,0.01,0.01,0.02,0.41,0.03,0.39,0.69,0.39,0.57,0.68,0.09,0.07,0.24,0.01,0.01,0.01,0.01,0.01,0.01,0.01,0.01,0.01,0.01,0.01,0.01,0.01,0.01,0.01,0.01,0.01,0.01,0.01,0.01,0.01,0.01,0.01,0.01,0.01,0.01,0.01,0.14,0.02,0.01,0.10,0.37,0.01,0.04,0.11,0.01,0.01,0.01
    #Input sequence length: 210
#Number of binding residues predicted by HomPRIP: 0
#Number of binding residues predicted by SVM: 55
#Number of binding residues predicted by RNABindRPlus: 22
>Q2FXG0_AF_A
sequence:							M,F,T,G,I,V,E,E,I,G,V,V,K,S,V,Q,I,R,Q,S,V,R,T,I,E,I,E,A,H,K,I,T,A,D,M,H,I,G,D,S,I,S,V,N,G,A,C,L,T,V,I,D,F,N,Q,T,S,F,T,V,Q,V,I,K,G,T,E,N,K,T,Y,L,A,D,V,K,R,Q,S,E,V,N,L,E,R,A,M,S,G,N,G,R,F,G,G,H,F,V,L,G,H,V,D,E,L,G,T,V,S,K,I,N,E,T,A,N,A,K,I,I,T,I,Q,C,S,Q,H,I,N,N,Q,L,V,K,Q,G,S,I,T,V,D,G,V,S,L,T,V,F,D,K,H,D,N,S,F,D,I,H,L,I,P,E,T,R,R,S,T,I,L,S,S,K,K,L,G,D,K,V,H,L,E,T,D,V,L,F,K,Y,V,E,N,I,L,N,K,D,K,D,Q,L,S,V,D,K,L,R,A,F,G,F
Prediction from HomPRIP:			??????????????????????????????????????????????????????????????????????????????????????????????????????????????????????????????????????????????????????????????????????????????????????????????????????????????????
Predicted score from HomPRIP:		?,?,?,?,?,?,?,?,?,?,?,?,?,?,?,?,?,?,?,?,?,?,?,?,?,?,?,?,?,?,?,?,?,?,?,?,?,?,?,?,?,?,?,?,?,?,?,?,?,?,?,?,?,?,?,?,?,?,?,?,?,?,?,?,?,?,?,?,?,?,?,?,?,?,?,?,?,?,?,?,?,?,?,?,?,?,?,?,?,?,?,?,?,?,?,?,?,?,?,?,?,?,?,?,?,?,?,?,?,?,?,?,?,?,?,?,?,?,?,?,?,?,?,?,?,?,?,?,?,?,?,?,?,?,?,?,?,?,?,?,?,?,?,?,?,?,?,?,?,?,?,?,?,?,?,?,?,?,?,?,?,?,?,?,?,?,?,?,?,?,?,?,?,?,?,?,?,?,?,?,?,?,?,?,?,?,?,?,?,?,?,?,?,?,?,?,?,?,?,?,?,?,?,?,?,?,?,?,?,?
Prediction from SVM:				1,1,1,1,0,0,1,0,0,0,0,0,0,0,0,0,1,1,0,1,1,0,0,0,0,0,1,0,1,1,0,0,0,0,0,1,0,0,0,1,0,0,0,1,1,0,0,0,0,0,0,0,0,0,0,0,0,0,0,0,0,0,0,0,0,1,0,1,1,1,1,0,1,1,1,1,1,1,1,1,1,1,1,1,1,1,0,1,0,1,0,1,0,0,1,1,0,0,1,1,1,0,1,1,1,0,0,0,0,0,0,0,0,0,0,0,0,0,0,0,0,0,0,0,0,0,0,0,0,0,0,0,0,0,0,0,0,0,0,0,0,1,0,0,0,0,0,0,0,0,0,0,0,0,0,0,0,0,0,0,0,1,1,0,0,0,0,0,0,0,1,1,1,0,0,0,0,0,1,0,0,0,1,0,0,0,1,0,0,0,0,0,0,0,0,0,0,0,0,0,0,0,0,0,0,0,0,0,0,0
Predicted score from SVM:			0.58,0.71,0.98,0.99,0.35,0.03,0.91,0.18,0.01,0.24,0.44,0.02,0.27,0.20,0.04,0.24,0.77,0.93,0.20,0.66,0.58,0.05,0.20,0.07,0.41,0.33,0.71,0.08,0.58,0.69,0.17,0.11,0.11,0.13,0.05,0.84,0.25,0.23,0.13,0.55,0.18,0.08,0.10,0.55,0.65,0.29,0.29,0.13,0.21,0.04,0.08,0.02,0.02,0.01,0.03,0.02,0.03,0.14,0.16,0.06,0.26,0.09,0.14,0.35,0.49,0.81,0.18,0.91,0.94,0.89,0.82,0.41,0.94,0.87,0.62,0.99,0.91,0.97,0.87,0.88,0.89,0.99,0.72,0.97,0.99,0.84,0.38,0.82,0.11,0.65,0.34,0.97,0.27,0.35,0.78,0.56,0.17,0.14,0.69,0.66,0.88,0.24,0.87,0.65,0.55,0.30,0.49,0.05,0.18,0.09,0.13,0.27,0.43,0.34,0.10,0.23,0.15,0.05,0.03,0.03,0.03,0.01,0.01,0.00,0.02,0.02,0.03,0.01,0.01,0.02,0.02,0.00,0.00,0.02,0.11,0.01,0.04,0.04,0.22,0.06,0.29,0.52,0.37,0.46,0.15,0.26,0.02,0.01,0.01,0.00,0.00,0.00,0.00,0.03,0.03,0.12,0.07,0.41,0.02,0.26,0.32,0.65,0.87,0.21,0.36,0.10,0.26,0.12,0.04,0.32,0.54,0.67,0.52,0.05,0.30,0.16,0.08,0.18,0.69,0.23,0.48,0.36,0.74,0.21,0.02,0.22,0.75,0.12,0.02,0.04,0.12,0.02,0.01,0.03,0.01,0.02,0.11,0.02,0.02,0.02,0.04,0.04,0.02,0.04,0.01,0.02,0.02,0.02,0.00,0.00
Prediction from RNABindRPlus:		0,0,1,1,0,0,1,0,0,0,0,0,0,0,0,0,0,1,0,0,0,0,0,0,0,0,0,0,0,0,0,0,0,0,0,0,0,0,0,0,0,0,0,0,0,0,0,0,0,0,0,0,0,0,0,0,0,0,0,0,0,0,0,0,0,0,0,1,1,1,0,0,1,1,0,1,1,1,1,1,1,1,0,1,1,0,0,0,0,0,0,1,0,0,0,0,0,0,0,0,1,0,1,0,0,0,0,0,0,0,0,0,0,0,0,0,0,0,0,0,0,0,0,0,0,0,0,0,0,0,0,0,0,0,0,0,0,0,0,0,0,0,0,0,0,0,0,0,0,0,0,0,0,0,0,0,0,0,0,0,0,0,1,0,0,0,0,0,0,0,0,0,0,0,0,0,0,0,0,0,0,0,0,0,0,0,0,0,0,0,0,0,0,0,0,0,0,0,0,0,0,0,0,0,0,0,0,0,0,0
Predicted score from RNABindRPlus:	0.19,0.32,0.68,0.69,0.06,0.01,0.58,0.02,0.01,0.03,0.09,0.01,0.04,0.03,0.01,0.03,0.39,0.61,0.03,0.26,0.19,0.01,0.03,0.01,0.08,0.05,0.32,0.01,0.19,0.29,0.02,0.02,0.02,0.02,0.01,0.49,0.04,0.03,0.02,0.16,0.02,0.01,0.02,0.16,0.25,0.04,0.04,0.02,0.03,0.01,0.01,0.01,0.01,0.01,0.01,0.01,0.01,0.02,0.02,0.01,0.04,0.02,0.02,0.06,0.12,0.45,0.02,0.58,0.62,0.56,0.46,0.08,0.62,0.53,0.22,0.69,0.58,0.66,0.53,0.54,0.56,0.69,0.33,0.66,0.69,0.49,0.07,0.46,0.02,0.25,0.06,0.66,0.04,0.06,0.41,0.17,0.02,0.02,0.29,0.26,0.54,0.03,0.53,0.25,0.16,0.05,0.12,0.01,0.02,0.02,0.02,0.04,0.09,0.06,0.02,0.03,0.02,0.01,0.01,0.01,0.01,0.01,0.01,0.01,0.01,0.01,0.01,0.01,0.01,0.01,0.01,0.01,0.01,0.01,0.02,0.01,0.01,0.01,0.03,0.01,0.04,0.14,0.07,0.10,0.02,0.04,0.01,0.01,0.01,0.01,0.01,0.01,0.01,0.01,0.01,0.02,0.01,0.08,0.01,0.04,0.05,0.25,0.53,0.03,0.06,0.02,0.04,0.02,0.01,0.05,0.15,0.27,0.14,0.01,0.05,0.02,0.01,0.02,0.29,0.03,0.11,0.06,0.35,0.03,0.01,0.03,0.37,0.02,0.01,0.01,0.02,0.01,0.01,0.01,0.01,0.01,0.02,0.01,0.01,0.01,0.01,0.01,0.01,0.01,0.01,0.01,0.01,0.01,0.01,0.01
    #Input sequence length: 275
#Number of binding residues predicted by HomPRIP: 14
#Number of binding residues predicted by SVM: 33
#Number of binding residues predicted by RNABindRPlus: 7
>Q2FXG5_AF_A
sequence:							M,W,K,W,E,A,E,N,D,A,K,G,V,V,V,I,A,H,N,I,L,E,H,T,G,R,Y,A,Y,V,I,T,M,L,R,R,N,G,Y,H,V,I,M,G,D,L,P,G,Q,G,Q,T,S,R,A,N,K,G,Q,I,E,N,F,Q,T,Y,H,E,S,L,L,D,W,L,K,I,A,N,E,Y,K,I,P,T,Y,V,L,G,V,G,L,G,G,L,I,L,L,N,L,L,E,K,V,E,L,P,I,E,G,M,M,L,I,S,P,M,L,E,L,Q,K,N,G,K,N,R,K,D,K,L,V,S,N,I,G,K,I,S,K,D,T,R,F,N,V,G,V,E,P,K,D,L,T,R,N,L,E,I,V,E,E,T,V,N,D,G,L,M,L,K,K,A,T,Y,H,W,Y,N,T,I,N,E,T,M,K,D,T,M,A,H,I,H,D,I,Q,P,M,P,T,L,L,M,Y,G,T,K,D,L,I,V,D,T,R,A,I,D,E,F,K,E,K,Y,Q,T,P,E,L,Y,F,K,A,W,Q,G,F,Y,H,E,V,H,N,E,P,E,R,D,E,V,M,R,Y,I,L,T,F,L,N,N,S,V,N,T,M,G,F,I,V,E,D,D,E,I,V,E,I
Prediction from HomPRIP:			0,0,0,0,0,0,0,0,0,0,0,0,0,0,0,0,0,0,0,0,0,0,0,0,0,0,0,0,0,0,0,0,0,0,0,0,0,0,0,0,0,0,0,0,0,0,0,0,0,0,?,1,1,1,0,0,0,0,0,0,0,0,0,0,0,0,0,0,0,0,0,0,0,?,?,?,?,?,?,?,0,0,0,0,0,0,0,0,0,?,?,?,?,0,0,1,1,1,1,?,?,0,0,0,0,0,0,0,0,0,0,0,0,0,0,0,0,0,0,0,1,1,0,0,0,0,0,0,0,0,0,0,1,1,1,1,0,0,0,0,0,1,0,0,0,0,0,?,?,0,0,0,0,0,0,0,0,0,0,0,0,0,0,0,0,0,0,0,0,0,?,?,0,0,0,0,0,0,0,0,0,0,0,0,0,0,0,0,0,0,0,0,0,0,0,0,?,?,?,?,?,?,?,?,?,?,?,?,?,?,?,?,?,?,?,?,?,?,?,?,?,?,?,?,?,?,?,?,?,?,?,?,?,?,?,?,?,?,?,?,?,?,?,?,?,?,?,?,?,?,?,?,?,?,?,?,?,?,?,?,?,?,?,?,?,?,?,?,?,?,?,?,?,?,?
Predicted score from HomPRIP:		0.00,0.00,0.00,0.00,0.00,0.00,0.00,0.00,0.00,0.00,0.00,0.00,0.00,0.00,0.00,0.00,0.00,0.00,0.00,0.00,0.00,0.00,0.00,0.00,0.00,0.00,0.00,0.00,0.00,0.00,0.00,0.00,0.00,0.00,0.00,0.00,0.00,0.00,0.00,0.00,0.00,0.00,0.00,0.00,0.00,0.00,0.00,0.00,0.00,0.00,?,1.00,1.00,1.00,0.00,0.00,0.00,0.00,0.00,0.00,0.00,0.00,0.00,0.00,0.00,0.00,0.00,0.00,0.00,0.00,0.00,0.00,0.00,?,?,?,?,?,?,?,0.00,0.00,0.00,0.00,0.00,0.00,0.00,0.00,0.00,?,?,?,?,0.00,0.00,1.00,1.00,1.00,1.00,?,?,0.00,0.00,0.00,0.00,0.00,0.00,0.00,0.00,0.00,0.00,0.00,0.00,0.00,0.00,0.00,0.00,0.00,0.00,0.00,1.00,1.00,0.00,0.00,0.00,0.00,0.00,0.00,0.00,0.00,0.00,0.00,0.50,1.00,1.00,1.00,0.00,0.00,0.00,0.00,0.00,1.00,0.00,0.00,0.00,0.00,0.00,?,?,0.00,0.00,0.00,0.00,0.00,0.00,0.00,0.00,0.00,0.00,0.00,0.00,0.00,0.00,0.00,0.00,0.00,0.00,0.00,0.00,0.00,?,?,0.00,0.00,0.00,0.00,0.00,0.00,0.00,0.00,0.00,0.00,0.00,0.00,0.00,0.00,0.00,0.00,0.00,0.00,0.00,0.00,0.00,0.00,0.00,0.00,?,?,?,?,?,?,?,?,?,?,?,?,?,?,?,?,?,?,?,?,?,?,?,?,?,?,?,?,?,?,?,?,?,?,?,?,?,?,?,?,?,?,?,?,?,?,?,?,?,?,?,?,?,?,?,?,?,?,?,?,?,?,?,?,?,?,?,?,?,?,?,?,?,?,?,?,?,?,?
Prediction from SVM:				0,1,1,1,0,0,0,0,0,0,0,0,0,0,0,0,0,0,0,0,0,1,1,0,1,1,0,0,0,0,0,0,0,0,0,0,0,0,0,0,0,0,0,0,1,0,1,1,1,1,1,1,1,1,1,1,1,1,1,0,0,0,0,0,0,0,0,0,0,0,0,0,0,0,0,0,0,0,0,0,0,0,0,0,0,0,0,0,1,0,1,0,0,0,0,0,0,0,0,0,0,0,0,0,0,0,0,0,0,0,0,0,0,0,0,0,0,0,0,0,0,0,0,0,0,0,0,1,1,0,0,1,0,0,0,1,0,0,0,0,0,0,0,0,0,0,0,0,0,0,0,0,0,0,0,0,0,0,0,0,0,0,0,0,0,0,0,0,0,1,1,0,1,1,1,0,0,1,0,0,0,0,0,0,0,0,0,0,0,0,0,0,0,0,0,0,0,0,0,0,0,0,0,0,0,0,0,0,0,0,0,0,0,0,0,0,0,0,0,0,0,0,0,0,0,0,0,0,0,0,0,0,0,0,0,0,0,0,0,0,0,0,0,0,0,0,0,0,0,0,0,0,0,0,0,0,0,0,0,0,0,0,0,0,0,0,0,0,0,0,0,0,0,0,0
Predicted score from SVM:			0.06,0.99,0.84,0.53,0.17,0.02,0.02,0.03,0.03,0.04,0.15,0.03,0.01,0.01,0.03,0.02,0.01,0.40,0.48,0.21,0.28,0.54,0.68,0.33,0.57,0.61,0.22,0.12,0.13,0.03,0.03,0.05,0.12,0.04,0.06,0.03,0.03,0.04,0.03,0.02,0.08,0.14,0.04,0.15,0.57,0.49,0.90,0.83,0.89,0.87,0.76,0.67,0.79,0.64,0.71,0.82,0.61,0.58,0.54,0.04,0.19,0.14,0.10,0.02,0.02,0.01,0.00,0.01,0.00,0.00,0.00,0.00,0.00,0.00,0.00,0.00,0.00,0.00,0.00,0.00,0.01,0.01,0.01,0.01,0.05,0.04,0.06,0.35,0.69,0.32,0.57,0.46,0.28,0.10,0.08,0.04,0.01,0.01,0.01,0.01,0.01,0.01,0.02,0.01,0.01,0.02,0.01,0.02,0.03,0.02,0.02,0.08,0.30,0.09,0.18,0.14,0.08,0.08,0.04,0.10,0.08,0.07,0.09,0.23,0.46,0.12,0.44,0.52,0.72,0.16,0.37,0.79,0.17,0.13,0.36,0.55,0.15,0.15,0.41,0.30,0.24,0.49,0.08,0.22,0.23,0.12,0.05,0.07,0.04,0.06,0.06,0.06,0.18,0.36,0.23,0.03,0.02,0.01,0.01,0.01,0.02,0.02,0.01,0.04,0.07,0.10,0.13,0.29,0.25,0.70,0.74,0.37,0.72,0.58,0.94,0.26,0.19,0.59,0.16,0.06,0.04,0.06,0.02,0.01,0.01,0.01,0.01,0.00,0.01,0.01,0.01,0.01,0.01,0.00,0.01,0.03,0.00,0.02,0.01,0.07,0.02,0.04,0.18,0.05,0.02,0.02,0.09,0.20,0.02,0.04,0.08,0.17,0.11,0.03,0.05,0.03,0.06,0.02,0.01,0.02,0.07,0.01,0.01,0.02,0.03,0.03,0.03,0.05,0.02,0.15,0.01,0.03,0.04,0.04,0.04,0.08,0.19,0.06,0.01,0.03,0.04,0.01,0.01,0.01,0.02,0.00,0.00,0.00,0.00,0.01,0.00,0.00,0.00,0.01,0.03,0.00,0.00,0.08,0.18,0.03,0.17,0.43,0.04,0.05,0.04,0.01,0.00,0.01,0.00,0.00,0.00,0.00,0.00,0.00,0.00
Prediction from RNABindRPlus:		0,1,0,0,0,0,0,0,0,0,0,0,0,0,0,0,0,0,0,0,0,0,0,0,0,0,0,0,0,0,0,0,0,0,0,0,0,0,0,0,0,0,0,0,0,0,0,0,0,0,0,1,1,1,0,0,0,0,0,0,0,0,0,0,0,0,0,0,0,0,0,0,0,0,0,0,0,0,0,0,0,0,0,0,0,0,0,0,0,0,0,0,0,0,0,0,0,0,0,0,0,0,0,0,0,0,0,0,0,0,0,0,0,0,0,0,0,0,0,0,0,0,0,0,0,0,0,0,0,0,0,0,0,0,1,1,0,0,0,0,0,1,0,0,0,0,0,0,0,0,0,0,0,0,0,0,0,0,0,0,0,0,0,0,0,0,0,0,0,0,0,0,0,0,0,0,0,0,0,0,0,0,0,0,0,0,0,0,0,0,0,0,0,0,0,0,0,0,0,0,0,0,0,0,0,0,0,0,0,0,0,0,0,0,0,0,0,0,0,0,0,0,0,0,0,0,0,0,0,0,0,0,0,0,0,0,0,0,0,0,0,0,0,0,0,0,0,0,0,0,0,0,0,0,0,0,0,0,0,0,0,0,0,0,0,0,0,0,0,0,0,0,0,0,0
Predicted score from RNABindRPlus:	0.01,0.52,0.32,0.08,0.01,0.01,0.01,0.01,0.01,0.01,0.01,0.01,0.01,0.01,0.01,0.01,0.01,0.04,0.06,0.01,0.02,0.08,0.16,0.03,0.10,0.12,0.02,0.01,0.01,0.01,0.01,0.01,0.01,0.01,0.01,0.01,0.01,0.01,0.01,0.01,0.01,0.01,0.01,0.01,0.10,0.06,0.40,0.31,0.38,0.36,0.38,0.88,0.93,0.86,0.19,0.30,0.12,0.10,0.08,0.01,0.01,0.01,0.01,0.01,0.01,0.01,0.01,0.01,0.01,0.01,0.01,0.01,0.01,0.01,0.01,0.01,0.01,0.01,0.01,0.01,0.01,0.01,0.01,0.01,0.01,0.01,0.01,0.03,0.17,0.05,0.18,0.10,0.04,0.01,0.01,0.18,0.15,0.15,0.15,0.01,0.01,0.01,0.01,0.01,0.01,0.01,0.01,0.01,0.01,0.01,0.01,0.01,0.02,0.01,0.01,0.01,0.01,0.01,0.01,0.01,0.21,0.20,0.01,0.02,0.06,0.01,0.05,0.07,0.19,0.01,0.03,0.26,0.07,0.26,0.56,0.78,0.01,0.01,0.04,0.02,0.02,0.72,0.01,0.02,0.02,0.01,0.01,0.01,0.01,0.01,0.01,0.01,0.01,0.03,0.02,0.01,0.01,0.01,0.01,0.01,0.01,0.01,0.01,0.01,0.01,0.01,0.01,0.02,0.02,0.18,0.35,0.07,0.19,0.10,0.45,0.02,0.01,0.11,0.01,0.01,0.01,0.01,0.01,0.01,0.01,0.01,0.01,0.01,0.01,0.01,0.01,0.01,0.01,0.01,0.01,0.01,0.01,0.01,0.01,0.01,0.01,0.01,0.02,0.01,0.01,0.01,0.02,0.03,0.01,0.01,0.01,0.02,0.02,0.01,0.01,0.01,0.01,0.01,0.01,0.01,0.01,0.01,0.01,0.01,0.01,0.01,0.01,0.01,0.01,0.02,0.01,0.01,0.01,0.01,0.01,0.01,0.03,0.01,0.01,0.01,0.01,0.01,0.01,0.01,0.01,0.01,0.01,0.01,0.01,0.01,0.01,0.01,0.01,0.01,0.01,0.01,0.01,0.01,0.02,0.01,0.02,0.09,0.01,0.01,0.01,0.01,0.01,0.01,0.01,0.01,0.01,0.01,0.01,0.01,0.01
